Place,Name,BodyweightKg,Squat1Kg,Squat2Kg,Squat3Kg,Best3SquatKg,Bench1Kg,Bench2Kg,Bench3Kg,Best3BenchKg,Bench4Kg,Deadlift1Kg,Deadlift2Kg,Deadlift3Kg,Best3DeadliftKg,TotalKg,WeightClassKg,Sex,CyrillicName,BirthYear,Event,Equipment,Division
1,Oleksandr Degovets,52,-190,190,205,205,110,115,120,120,,170,185,195,195,520,52,M,Олександр Деговець,1966,SBD,Single-ply,Open
2,Oleksiy Udaltsov,51.85,130,145,160,160,75,80,82.5,82.5,,147.5,157.5,-160,157.5,400,52,M,Олексій Удальцов,1981,SBD,Single-ply,Open
3,Yevgen Vyborov,51.25,147.5,152.5,157.5,157.5,75,80,-82.5,80,,150,-155,-155,150,387.5,52,M,Євген Виборов,1983,SBD,Single-ply,Open
4,Yevgen Gorbanyuk,51.15,145,157.5,165,165,55,65,-72.5,65,,120,130,-135,130,360,52,M,Євген Горбанюк,1985,SBD,Single-ply,Open
5,Ruslan Rabdev,50.1,110,115,-120,115,75,-80,-80,75,,145,152.5,-157.5,152.5,342.5,52,M,Руслан Рабдєв,1983,SBD,Single-ply,Open
DQ,Konstantin Bakaras,49.75,125,130,-135,130,72.5,77.5,-82.5,77.5,,-155,-155,-155,,,52,M,Костянтин Бакарас,1980,SBD,Single-ply,Open
1,Sergiy Vatyuk,55.8,180,190,195,195,130,138,140,140,142.5,190,200,205,205,540,56,M,Сергій Ватюк,1962,SBD,Single-ply,Open
2,Sergiy Dyachenko,55.8,180,190,201,201,97.5,105,110,110,,170,-180,-180,170,481,56,M,Сергій Дяченко,1981,SBD,Single-ply,Open
3,Sergiy Zdanevich,55.8,175,-182.5,-182.5,175,90,100,102.5,102.5,,170,185,-192.5,185,462.5,56,M,Сергій Зданевич,1982,SBD,Single-ply,Open
4,Artem Zavadovskyy,55.85,165,170,175,175,92.5,97.5,-100,97.5,,160,170,-175,170,442.5,56,M,Артем Завадовський,1981,SBD,Single-ply,Open
5,Volodymyr Rysiev,54.95,140,150,155,155,90,-97.5,97.5,97.5,,160,170,180,180,432.5,56,M,Володимир Рисєв,1982,SBD,Single-ply,Open
6,Khristo Khrystev,55.7,150,-165,-165,150,80,87.5,92.5,92.5,,160,170,-175,170,412.5,56,M,Христо Христєв,1979,SBD,Single-ply,Open
7,Yuriy Dosyuk,55.15,135,140,147.5,147.5,80,-87.5,87.5,87.5,,160,170,-175,170,405,56,M,Юрій Досюк,1984,SBD,Single-ply,Open
8,Andriy Vedrov,55.35,130,137.5,145,145,92.5,-97.5,97.5,97.5,,147.5,157.5,162.5,162.5,405,56,M,Андрій Ведров,1982,SBD,Single-ply,Open
9,Dmytro Tertyshnikov,54.95,140,145,150,150,77.5,80,-82.5,80,,160,167.5,-170,167.5,397.5,56,M,Дмитро Тертишников,1984,SBD,Single-ply,Open
10,Yevgen Delitsoy,54.45,140,-157.5,-157.5,140,-90,90,-95,90,,150,-160,160,160,390,56,M,Євген Деліцой,1984,SBD,Single-ply,Open
11,Maksym Baranov,54.85,110,120,-127.5,120,72.5,77.5,80,80,,160,170,-180,170,370,56,M,Максим Баранов,1983,SBD,Single-ply,Open
1,Volodymyr Pogrebniy,59.8,215.5,225,230,230,152.5,157.5,160,160,,180,185,-190,185,575,60,M,Володимир Погребний,1982,SBD,Single-ply,Open
2,Yevgen Salo,59.5,200,215,-225,215,105,112.5,115,115,,205,222.5,235,235,565,60,M,Євген Сало,1982,SBD,Single-ply,Open
3,Oleksandr Borysov,59.7,190,200,-205,200,120,130,137.5,137.5,,200,220,227.5,227.5,565,60,M,Олександр Борисов,1980,SBD,Single-ply,Open
4,Yuriy Vernichenko,59.95,200,205,-207.5,205,-142.5,142.5,145,145,,190,202.5,215,215,565,60,M,Юрій Верниченко,1962,SBD,Single-ply,Open
5,Vitaliy Teteutsa,59.3,195,200,-205,200,-135,-135,135,135,,190,202.5,207.5,207.5,542.5,60,M,Віталій Тетеуца,1967,SBD,Single-ply,Open
6,Grigoriy Sarkisyan,59.95,180,190,-200,190,102.5,-107.5,107.5,107.5,,210,225,230,230,527.5,60,M,Григорій Саркісян,1963,SBD,Single-ply,Open
7,Ivan Boychuk,59.85,160,-170,170,170,115,120,-122.5,120,,200,-220,-220,200,490,60,M,Іван Бойчук,1977,SBD,Single-ply,Open
8,Yuriy Kidiba,59.75,175,-180,180,180,90,-97.5,-97.5,90,,160,167.5,-170,167.5,437.5,60,M,Юрій Кидиба,1983,SBD,Single-ply,Open
9,Mykola Volkov,59.75,165,-175,-175,165,90,-95,-95,90,,170,180,-190,180,435,60,M,Микола Волков,1982,SBD,Single-ply,Open
10,Sergiy Baburin,59.4,170,-180,180,180,90,100,-102.5,100,,-140,-140,140,140,420,60,M,Сергій Бабурін,1984,SBD,Single-ply,Open
1,Oleksandr Kutcher,67.2,240,250,-255,250,155,160,-162.5,160,,250,260,-270,260,670,67.5,M,Олександр Кутчер,1980,SBD,Single-ply,Open
2,Valentin Malikov,66.9,210,217.5,225,225,155,162.5,-167.5,162.5,,220,225,232.5,232.5,620,67.5,M,Валентин Маліков,1974,SBD,Single-ply,Open
3,Yevgen Bokiy,66.95,230,237.5,-242.5,237.5,147.5,152.5,155,155,,220,-235,-235,220,612.5,67.5,M,Євген Бокій,1976,SBD,Single-ply,Open
4,Andriy Ivzhenko,67.05,230,240,245,245,120,130,-135,130,,220,230,-235,230,605,67.5,M,Андрій Івженко,1977,SBD,Single-ply,Open
5,Anatolii Goriachok,67.5,,170,185,185,125,135,-140,135,,250,260,266.5,266.5,586.5,67.5,M,Анатолий Горячок,1979,SBD,Single-ply,Open
6,Andriy Mirzoyan,67.1,210,215,220,220,125,130,135,135,,215,225,-235,225,580,67.5,M,Андрій Мірзоян,1974,SBD,Single-ply,Open
7,Andriy Gmyrin,66.95,210,225,-232.5,225,130,-135,-135,130,,200,215,-220,215,570,67.5,M,Андрій Гмирін,1983,SBD,Single-ply,Open
8,Volodymyr Narolskyy,67.15,180,190,200,200,140,150,-157.5,150,,220,-240,-240,220,570,67.5,M,,1977,SBD,Single-ply,Open
9,Roman Taran,67.45,210,220,-225,220,135,-140,140,140,,210,-215,-215,210,570,67.5,M,Роман Таран,1978,SBD,Single-ply,Open
10,Oleksiy Golovan',67.5,200,-215,220,220,110,117.5,122.5,122.5,,190,205,212.5,212.5,555,67.5,M,Олексій Головань,1981,SBD,Single-ply,Open
11,Mykola Demchak,67.2,192.5,-200,200,200,135,142.5,-147.5,142.5,,192.5,205,-212.5,205,547.5,67.5,M,Микола Демчак,1980,SBD,Single-ply,Open
12,Olexandr Chernyshov,66.4,160,180,,180,170.5,-175,175,175,,160,180,,180,535,67.5,M,Олександр Чернишов,1966,SBD,Single-ply,Open
13,Volodymyr Arkhypenko,64.65,-180,180,-190,180,120,127.5,-130,127.5,,-200,200,207.5,207.5,515,67.5,M,Володимир Архипенко,1980,SBD,Single-ply,Open
14,Sergiy Shegera,66.1,175,-180,-180,175,-110,-110,110,110,,230,-240,-240,230,515,67.5,M,Сергій Шегера,1970,SBD,Single-ply,Open
15,Yuriy Pruzhanskyy,66.1,165,175,182.5,182.5,100,110,-112.5,110,,195,202.5,207.5,207.5,500,67.5,M,Юрій Пружанський,1981,SBD,Single-ply,Open
16,Andriy Nagirnyy,64.1,190,200,205,205,95,-105,-105,95,,170,180,187.5,187.5,487.5,67.5,M,Андрій Нагірний,1982,SBD,Single-ply,Open
DQ,Stanislav Gibner,66.65,-230,230,-235,230,-125,-125,-125,,,,,,,,67.5,M,Станіслав Гібнер,1979,SBD,Single-ply,Open
DQ,Dmytro Ubeykon',66,-235,-235,-235,,,,,,,,,,,,67.5,M,Дмитро Убейконь,1981,SBD,Single-ply,Open
1,Sirazhutdin Bazaev,74,300,307.5,-315.5,307.5,177.5,-182.5,-182.5,177.5,,285,-295,-295,285,770,75,M,Сіражутдін Базаєв,1968,SBD,Single-ply,Open
2,Mykhaylo Bulanyy,74.6,285,295,-300,295,165,172.5,175,175,,280,290,-302.5,290,760,75,M,Михайло Буланий,1975,SBD,Single-ply,Open
3,Artem Nikolenko,74.8,290,300,307.5,307.5,-180,180,187.5,187.5,,250,-262.5,262.5,262.5,757.5,75,M,Артем Ніколенко,1979,SBD,Single-ply,Open
4,Oleksiy Kryvoshey,74.9,250,270,277.5,277.5,137.5,145,150,150,,250,-272.5,272.5,272.5,700,75,M,Олексій Кривошей,1983,SBD,Single-ply,Open
5,Yuriy Zverev,74.6,220,230,240,240,130,-140,140,140,,242.5,250,260,260,640,75,M,Юрій Звєрєв,1979,SBD,Single-ply,Open
6,Volodymyr Baklyak,74.8,-235,240,242.5,242.5,147.5,-152.5,-152.5,147.5,,235,250,-255,250,640,75,M,Володимир Бакляк,1977,SBD,Single-ply,Open
7,Yevgen Gapchuk,74.8,250,257.5,262.5,262.5,-125,125,130,130,,-232.5,232.5,247.5,247.5,640,75,M,Євген Гапчук,1981,SBD,Single-ply,Open
8,Ruslan Popovich,73.95,230,242.5,252.5,252.5,150,155,-160,155,,230,-242.5,-242.5,230,637.5,75,M,Руслан Попович,1978,SBD,Single-ply,Open
9,Mykhaylo Buzan,74,220,230,240,240,135,140,-145,140,,240,255,-262.5,255,635,75,M,Михайло Бузан,1981,SBD,Single-ply,Open
10,Oleg Semenov,74.8,245,255,260,260,130,-135,-135,130,,-230,235,240,240,630,75,M,Олег Семенов,1972,SBD,Single-ply,Open
11,Dmytro Chala,74.7,255,-260,-265,255,152.5,-157.5,-157.5,152.5,,200,-217.5,,200,607.5,75,M,Дмитро Чала,1971,SBD,Single-ply,Open
12,Oleksiy Savchenko,74.8,-220,-220,235,235,125,135,145,145,,225,-235,,225,605,75,M,Олексій Савченко,1982,SBD,Single-ply,Open
13,Volodymyr Kladovyy,74.4,205,215,-222.5,215,120,125,127.5,127.5,,240,-282.5,-282.5,240,582.5,75,M,Володимир Кладовий,1984,SBD,Single-ply,Open
14,Roman Akhlestin,74.7,190,210,220,220,140,150,-160,150,,190,200,-210,200,570,75,M,Роман Ахлестін,1979,SBD,Single-ply,Open
15,Olexandr Chernyshov,69.85,100,,,100,180,190,-200,190,,100,,,100,390,75,M,Олександр Чернишов,1966,SBD,Single-ply,Open
DQ,Sergiy Skoryk,74.15,-285,-285,,,,,,,,,,,,,75,M,Сергій Скорик,1970,SBD,Single-ply,Open
DQ,Volodymyr Bettyar,73.05,-210,,,,,,,,,,,,,,75,M,Володимир Беттяр,1984,SBD,Single-ply,Open
1,Ivan Shlyakhta,82.45,307.5,317.5,323.5,323.5,-175,175,182.5,182.5,,320,330,-340.5,330,836,82.5,M,Іван Шляхта,1981,SBD,Single-ply,Open
2,Anton Yatskov,82.45,290,300,-310,300,167.5,172.5,175,175,,300,310,-315,310,785,82.5,M,Антон Яцков,1982,SBD,Single-ply,Open
3,Andriy Zabozhnyy,81.3,300,-315,315,315,155,160,-162.5,160,,280,290,-310,290,765,82.5,M,Андрій Забожний,1978,SBD,Single-ply,Open
4,Sergiy Grechkosiy,81.95,290,300,307.5,307.5,145,150,-155,150,,280,287.5,302.5,302.5,760,82.5,M,Сергій Гречкосій,1974,SBD,Single-ply,Open
5,Sergiy Naleykin,78.9,-310,310,-320,310,165,175,180,180,,250,-260,-260,250,740,82.5,M,Сергій Налейкін,1981,SBD,Single-ply,Open
6,Vadym Mokhnyk,82.2,-280,280,-285,280,180,-185,-185,180,,260,-275,-275,260,720,82.5,M,Вадим Мохник,1980,SBD,Single-ply,Open
7,Andriy Bezgubenko,81.9,250,-260,-260,250,157.5,165,-170,165,,262.5,275,-280,275,690,82.5,M,Андрій Безгубенко,1964,SBD,Single-ply,Open
8,Sergiy Pevnev,81.1,-240,240,250,250,170,180,-185,180,,255,-265,-265,255,685,82.5,M,Сергій Певнєв,1978,SBD,Single-ply,Open
9,Oleksiy Soshnikov,82.15,250,265,-280,265,-145,145,155,155,,245,252.5,-265,252.5,672.5,82.5,M,Олексій Сошніков,1977,SBD,Single-ply,Open
10,Roman Manuylov,80.9,-225,-225,225,225,-150,-155,155,155,,265,-285,-285,265,645,82.5,M,Роман Мануйлов,1979,SBD,Single-ply,Open
12,Sergiy Osypchuk,80.5,-240,240,-250,240,-137.5,-137.5,137.5,137.5,,-235,235,-245,235,612.5,82.5,M,Сергій Осипчук,1983,SBD,Single-ply,Open
11,Igor Rubanyy,80.9,200,205,220,220,125,-135,-135,125,,230,240,245,245,590,82.5,M,Ігор Рубаний,1981,SBD,Single-ply,Open
13,Oleksandr Brykin,81.4,225,-235,-235,225,132.5,-140,-145,132.5,,220,227.5,-232.5,227.5,585,82.5,M,Олександр Брикін,1983,SBD,Single-ply,Open
DQ,Viktor Nesterov,82.3,295,-300,-300,295,-170,170,-172.5,170,,-270,-280,-280,,,82.5,M,Віктор Нестеров,1976,SBD,Single-ply,Open
DQ,Maxym Slastov,80.9,240,-250,250,250,-145,,,,,,,,,,82.5,M,Максим Сластов,1981,SBD,Single-ply,Open
1,Sergey Didovyk,89.9,-330,340,355,355,205,212.5,220,220,,285,300,-310,300,875,90,M,Сергій Дідовик,1978,SBD,Single-ply,Open
2,Ivan Freydun,88.9,320,330,335,335,220,227.5,-232.5,227.5,,310,-320,-320,310,872.5,90,M,Іван Фрейдун,1981,SBD,Single-ply,Open
3,Kostyantyn Milyutin,89.45,300,310,317.5,317.5,190,200,205,205,,255,267.5,272.5,272.5,795,90,M,Костянтин Мілютин,1978,SBD,Single-ply,Open
4,Lev Albin,90,290,-305,-310,290,180,187.5,192.5,192.5,,280,-287.5,-287.5,280,762.5,90,M,Лев Альбін,1960,SBD,Single-ply,Open
5,Gennadiy Timoshytskyy,89.55,270,-285,-285,270,-170,-170,170,170,,280,300,-320,300,740,90,M,Геннадій Тимошицький,1976,SBD,Single-ply,Open
6,Dmytro Momrenko,90,-290,290,-310,290,160,-165,-167.5,160,,290,-307.5,,290,740,90,M,Дмитро Момренко,1982,SBD,Single-ply,Open
7,Mykhaylo Artsymovych,88.35,280,-285,-285,280,155,160,162.5,162.5,,262.5,270,-297.5,270,712.5,90,M,Михайло Арцимович,1982,SBD,Single-ply,Open
8,Dmytro Sydorenko,89.55,250,-260,260,260,170,180,-185,180,,260,270,-275,270,710,90,M,Дмитро Сидоренко,1976,SBD,Single-ply,Open
9,Mykola Sokolov,89.2,255,270,-275,270,180,-187.5,-187.5,180,,245,255,,255,705,90,M,Микола Соколов,1979,SBD,Single-ply,Open
10,Oleksandr Bashkatov,89.4,-270,-270,270,270,160,170,175,175,,260,-270,-270,260,705,90,M,Олександр Башкатов,1982,SBD,Single-ply,Open
11,Yevgen Konstantinov,89.9,270,-277.5,-277.5,270,165,-170,-170,165,,250,260,-270,260,695,90,M,Євген Константинов,1977,SBD,Single-ply,Open
12,Oleksandr Filatov,89.35,235,245,255,255,155,-165,165,165,,250,270,-285,270,690,90,M,Олександр Філатов,1977,SBD,Single-ply,Open
13,Volodymyr Zamakhivskyy,89.4,230,240,-250,240,150,-160,,150,,260,275,-285,275,665,90,M,Володимир Замахівський,1979,SBD,Single-ply,Open
14,Valeriy Nikitchenko,89.1,-250,250,-270,250,150,160,-165,160,,-240,-240,240,240,650,90,M,Валерій Нікітченко,1977,SBD,Single-ply,Open
15,Yuriy Radchenko #1,89,200,210,225,225,160,-165,165,165,,210,225,245,245,635,90,M,Юрій Радченко,1977,SBD,Single-ply,Open
DQ,Olexiy Nazarenko,90,330,-340,-340,330,170,180,185,185,,-330,-330,-330,,,90,M,Олексій Назаренко,1977,SBD,Single-ply,Open
DQ,Maksim Malyarov,89.5,250,-270,275,275,-170,170,182.5,182.5,,-240,-240,-240,,,90,M,Максим Маляров,1977,SBD,Single-ply,Open
DQ,Ivan Aslanov,89.75,280,-287.5,-287.5,280,-210,-210,-210,,,,,,,,90,M,Іван Асланов,1980,SBD,Single-ply,Open
DQ,Igor Kapko,88.35,-287.5,-287.5,-287.5,,,,,,,,,,,,90,M,Ігор Капко,1977,SBD,Single-ply,Open
DQ,Oleksiy Rokochyy Jr,89.15,-345,-345,-345,,,,,,,,,,,,90,M,Олексій Рокочий Мол,1981,SBD,Single-ply,Open
DQ,Artem Mironenko,89.85,-300,-310,-310,,,,,,,,,,,,90,M,Артем Мироненко,1982,SBD,Single-ply,Open
1,Oleksiy Vyshnytskyy,97.25,330,345,350,350,190,-200,200,200,,345,-355,355,355,905,100,M,Олексій Вишницький,1981,SBD,Single-ply,Open
2,Sergey Makrushyn,99.85,-320,320,340,340,220,230,235,235,,320,330,-340,330,905,100,M,Сергій Макрушин,1975,SBD,Single-ply,Open
3,Ildar Zakirov,99.35,350,360,-365,360,175,182.5,190,190,,300,310,-325,310,860,100,M,Ільдар Закіров,1976,SBD,Single-ply,Open
4,Orest Tryfanenko,99,310,325,330,330,175,180,-182.5,180,,310,320,-325,320,830,100,M,Орест Трифаненко,1975,SBD,Single-ply,Open
5,Oleksandr Balanda,97.05,-270,-285,285,285,180,200,,200,,290,305,320,320,805,100,M,Олександр Баланда,1979,SBD,Single-ply,Open
6,Vitaliy Ponomarenko,100,270,285,295,295,245,-252.5,-255.5,245,,250,260,-272.5,260,800,100,M,Віталій Пономаренко,1974,SBD,Single-ply,Open
7,Roman Voroshylin,96.7,290,-302.5,312.5,312.5,165,172.5,-177.5,172.5,,300,-310,-310,300,785,100,M,Роман Ворошилін,1983,SBD,Single-ply,Open
8,Sergiy Koshel',96.25,250,260,265,265,170,175,-177.5,175,,290,-307.5,-307.5,290,730,100,M,Сергій Кошель,1978,SBD,Single-ply,Open
9,Andriy Romanchuk,99.65,-270,-270,270,270,160,167.5,172.5,172.5,,275,-282.5,-282.5,275,717.5,100,M,Андрій Романчук,1976,SBD,Single-ply,Open
10,Dmytro Afanasyev,99.05,230,245,-252.5,245,170,185,-190,185,,245,255,-260,255,685,100,M,Дмитро Афанась'єв,1976,SBD,Single-ply,Open
11,Mykhaylo Stadnyk,98.4,225,230,-237.5,230,145,-150,-150,145,,-225,-230,230,230,605,100,M,Михайло Стадник,1982,SBD,Single-ply,Open
DQ,Vitaliy Stretovich,99,290,-302.5,-302.5,290,185,192.5,-200,192.5,,-285,-285,,,,100,M,Віталій Стретович,1981,SBD,Single-ply,Open
DQ,Vasyl' Litovtsev,95.5,270,280,-290,280,215,-225,-225,215,,-270,-270,-270,,,100,M,Василь Литовцев,1968,SBD,Single-ply,Open
DQ,Yevgen Yakovlev #2,96.15,-270,-270,-270,,,,,,,,,,,,100,M,Євген Яковлев,1975,SBD,Single-ply,Open
1,Viktor Karpik,102.65,330,345,355,355,190,200,207.5,207.5,,310,-332.5,-332.5,310,872.5,110,M,Віктор Карпік,1978,SBD,Single-ply,Open
2,Yevgen Yarymbash,103.15,290,305,315,315,200,210,217.5,217.5,,290,297.5,-305,297.5,830,110,M,Євген Яримбаш,1983,SBD,Single-ply,Open
3,Viktor Yurchenko,109.8,290,310,315,315,185,195,200,200,,275,290,305,305,820,110,M,Віктор Юрченко,1980,SBD,Single-ply,Open
4,Vadym Patana,108.85,302.5,320,-325,320,202.5,212.5,217.5,217.5,,280,-292.5,-295,280,817.5,110,M,Вадим Патана,1976,SBD,Single-ply,Open
5,Oleksandr Abramovych,109.1,290,300,310,310,185,195,205,205,,275,-285,,275,790,110,M,Олександр Абрамович,1977,SBD,Single-ply,Open
6,Mykhaylo Paller,108.4,300,-307.5,,300,200,212.5,-222.5,212.5,,265,272.5,-277.5,272.5,785,110,M,Михайло Паллер,1980,SBD,Single-ply,Open
7,Sergiy Melnichenko,109.5,280,290,-295,290,180,190,195,195,,280,287.5,,287.5,772.5,110,M,Сергій Мельниченко,1973,SBD,Single-ply,Open
8,Anatoliy Pavlov #1,108.8,-295,295,-300,295,190,200,-202.5,200,,250,-270,-270,250,745,110,M,Анатолій Павлов,1976,SBD,Single-ply,Open
9,Yuriy Peyko,107.3,270,277.5,282.5,282.5,155,162.5,-165,162.5,,290,-320,-320,290,735,110,M,Юрій Пейко,1978,SBD,Single-ply,Open
10,Igor Yedapin,108.15,260,270,-280,270,180,185,190,190,,250,-260,-260,250,710,110,M,Ігор Єдапін,1977,SBD,Single-ply,Open
11,Mykola Gorbachev,102.4,-250,250,-270,250,160,172.5,180,180,,250,260,-270,260,690,110,M,Микола Горбачов,1978,SBD,Single-ply,Open
12,Ivan Slizhuk,106.3,220,240,260,260,150,170,-190,170,,230,250,-265,250,680,110,M,Іван Слижук,1980,SBD,Single-ply,Open
13,Viktor Rekun,101.65,210,230,-240,230,160,-167.5,167.5,167.5,,220,247.5,-255,247.5,645,110,M,Віктор Рекун,1974,SBD,Single-ply,Open
DQ,Andriy Brovchenko,106.6,270,290,-300,290,-170,-170,-170,,,,,,,,110,M,Андрій Бровченко,1978,SBD,Single-ply,Open
1,Vitaliy Papazov,123.1,370,385,400,400,250,260,265,265,,335,350,-362.5,350,1015,125,M,Віталій Папазов,1980,SBD,Single-ply,Open
2,Sergiy Karnaukhov,117.55,-365,365,385,385,215,222.5,227.5,227.5,,-340,340,-355,340,952.5,125,M,Сергій Карнаухов,1978,SBD,Single-ply,Open
3,Andriy Kireev,124.85,-310,310,320,320,-220,220,230,230,,310,-330,-330,310,860,125,M,Андрій Кіреєв,1975,SBD,Single-ply,Open
4,Karen Stepanyan,122.1,292.5,302.5,312.5,312.5,205,217.5,230,230,,250,265,285,285,827.5,125,M,Карен Степанян,1976,SBD,Single-ply,Open
5,Vadim Kopylov,118.35,250,-265,-265,250,175,-182.5,182.5,182.5,,285,300,-310,300,732.5,125,M,Вадим Копилов,1974,SBD,Single-ply,Open
6,Oleksandr Shtundak,113.15,260,270,285,285,160,170,177.5,177.5,,260,-270,-270,260,722.5,125,M,Олександр Штундак,1975,SBD,Single-ply,Open
7,Valeriy Kotlyar,116.2,250,265,272.5,272.5,175,185,-200,185,,235,250,-255,250,707.5,125,M,Валерій Котляр,1973,SBD,Single-ply,Open
8,Vyacheslav Kutsenko,110.6,210,230,250,250,125,135,-150,135,,200,210,-225,210,595,125,M,В'ячеслав Куценко,1979,SBD,Single-ply,Open
DQ,Vitaliy Gorbunov,116.95,-330,-330,-330,,,,,,,,,,,,125,M,Віталій Горбунов,1975,SBD,Single-ply,Open
1,Volodymyr Muravlyov,125.5,375,-390,390,390,245,252.5,-257.5,252.5,,330,350,362.5,362.5,1005,125+,M,Володимир Муравльов,1975,SBD,Single-ply,Open
2,Vasyl' Orobets,160.5,390,405,-420,405,210,220,-230,220,,325,,-340,325,950,125+,M,Василь Оробець,1966,SBD,Single-ply,Open
3,Oleksandr Kanygin,150.5,-350,370,-380,370,240,-250,-250,240,,300,-320,,300,910,125+,M,Олександр Канигін,1974,SBD,Single-ply,Open
4,Igor Drapak,145.8,360,-370,-370,360,190,200,210,210,,330,-345,-345,330,900,125+,M,Ігор Драпак,1967,SBD,Single-ply,Open
5,Yuriy Zabolotnyy,161,330,350,-365,350,190,200,-205,200,,280,290,-300,290,840,125+,M,Юрій Заболотний,1958,SBD,Single-ply,Open
DQ,Vladyslav Vasylenko,131,200,220,-240,220,-200,-200,-200,,,,,,,,125+,M,Владислав Василенко,1976,SBD,Single-ply,Open
1,Valeria Malukha,44,110,117.5,120,120,67.5,70,73,73,75,105,115,-120,115,308,44,F,Валерія Малуха,1987,SBD,Single-ply,Open
2,Oksana Dmytruk,43.95,-105,105,-115,105,57.5,-62.5,-82.5,57.5,,110,-120,-120,110,272.5,44,F,Оксана Дмитрук,1983,SBD,Single-ply,Open
3,Yelyzaveta Nazina,42.95,90,100,105,105,37.5,42.5,45,45,,90,95,100,100,250,44,F,Єлізавета Назіна,1988,SBD,Single-ply,Open
4,Iryna Trubilina,43.45,-95,95,-100,95,42.5,-47.5,-47.5,42.5,,100,-110,110,110,247.5,44,F,Ірина Трубіліна,1983,SBD,Single-ply,Open
5,Anna Kostreba,43.15,75,-82.5,-85,75,40,-45,45,45,,75,85,-90,85,205,44,F,Анна Костреба,1988,SBD,Single-ply,Open
DQ,Maryana Plaksyva,43.45,110,117.5,122.5,122.5,50,52.5,55,55,,-112.5,-112.5,-112.5,,,44,F,Мар'яна Плаксива,1987,SBD,Single-ply,Open
1,Tetyana Trubilina,48,125,130,-135,130,60,65,70,70,,125,130,-135,130,330,48,F,Тетяна Трубіліна,1976,SBD,Single-ply,Open
2,Olena Volodarska,47.9,110,-120,-120,110,60,65,-67.5,65,,130,140,-142.5,140,315,48,F,Олена Володарська,1981,SBD,Single-ply,Open
3,Olena Sychanina,47.35,100,107.5,-112.5,107.5,65,70,75,75,,122.5,127.5,-132.5,127.5,310,48,F,Олена Сичаніна,1979,SBD,Single-ply,Open
4,Olena Dmytruk,47.6,120,-125,-125,120,60,-65,-65,60,,130,-137.5,-137.5,130,310,48,F,Олена Дмитрук,1983,SBD,Single-ply,Open
5,Anna Kadatska,47.65,-95,100,105,105,60,65,-67.5,65,,120,125,130,130,300,48,F,Анна Кадацька,1977,SBD,Single-ply,Open
6,Taisiya Kuznetsova,48,110,-120,120,120,55,-60,-60,55,,-110,110,-120,110,285,48,F,Таїсія Кузнецова,1986,SBD,Single-ply,Open
7,Oxana Rozmaritsa,45.4,92.5,100,107.5,107.5,55,60,-62.5,60,,105,110,-115,110,277.5,48,F,Оксана Розмаріца,1971,SBD,Single-ply,Open
8,Kateryna Klymenko,45.25,90,-100,-100,90,52.5,57.5,-62.5,57.5,,110,120,-122.5,120,267.5,48,F,Катерина Клименко,1985,SBD,Single-ply,Open
9,Kseniya Loza,46.75,80,85,87.5,87.5,50,52.5,-55,52.5,,100,105,110,110,250,48,F,Ксенія Лоза,1978,SBD,Single-ply,Open
10,Anastasiya Martsafey,46.8,75,85,90,90,35,40,-42.5,40,,95,102.5,110,110,240,48,F,Анастасія Марцафей,1986,SBD,Single-ply,Open
11,Nizar Mekhtieva,47.1,-80,80,85,85,40,45,-47.5,45,,90,102.5,-105,102.5,232.5,48,F,Нізар Мехтієва,1984,SBD,Single-ply,Open
1,Tetyana Skrypka,51.45,142.5,147.5,150,150,75,80,-82.5,80,,145,157.5,162.5,162.5,392.5,52,F,Тетяна Скрипка,1987,SBD,Single-ply,Open
2,Lyudmyla Mykolenko,51.85,147.5,-157.5,-157.5,147.5,75,80,-82.5,80,,125,130,135,135,362.5,52,F,Людмила Миколенко,1975,SBD,Single-ply,Open
3,Tetyana Prymenchuk,51.15,120,130,-135,130,65,72.5,77.5,77.5,,130,-140,140,140,347.5,52,F,Тетяна Применчук,1972,SBD,Single-ply,Open
4,Mariya Chepil,51.35,120,-125,125,125,67.5,70,-72.5,70,,130,137.5,-145,137.5,332.5,52,F,Марія Чепіль,1970,SBD,Single-ply,Open
5,Zhanna Kartashova,51.6,105,-112.5,112.5,112.5,60,-67.5,67.5,67.5,,120,130,-132.5,130,310,52,F,Жанна Карташова,1985,SBD,Single-ply,Open
6,Vladyslava Zelinska,52,-90,90,100,100,40,42.5,-45,42.5,,90,97.5,-107.5,97.5,240,52,F,Владислава Зелінська,1981,SBD,Single-ply,Open
1,Viktoriya Abdulina,55.1,160,170,-180,170,85,90,95,95,,150,160,-170,160,425,56,F,Вікторія Абдуліна,1967,SBD,Single-ply,Open
2,Tetyana Karpova,55.05,130,-137.5,-137.5,130,90,95,-97.5,95,,-150,150,157.5,157.5,382.5,56,F,Тетяна Карпова,1972,SBD,Single-ply,Open
3,Anna Sinelnikova,55.85,135,140,142.5,142.5,82.5,87.5,90,90,,140,147.5,150,150,382.5,56,F,Анна Синельникова,1984,SBD,Single-ply,Open
4,Olga Oleynyk,55.65,140,147.5,150,150,75,-80,-80,75,,135,140,-145,140,365,56,F,Ольга Олейник,1980,SBD,Single-ply,Open
5,Nadiya Petrovska,54.9,130,135,140,140,75,80,82.5,82.5,,130,135,140,140,362.5,56,F,Надія Петровська,1986,SBD,Single-ply,Open
6,Nina Savelyeva,55.7,135,-142.5,-142.5,135,85,-92.5,-92.5,85,,-135,135,-160,135,355,56,F,Ніна Савельєва,1973,SBD,Single-ply,Open
7,Oksana Manokha,56,130,137.5,-142.5,137.5,60,-70,-70,60,,-135,-135,135,135,332.5,56,F,Оксана Маноха,1984,SBD,Single-ply,Open
8,Mariya Nasedkina,54.8,120,125,-130,125,55,57.5,-60,57.5,,127.5,135,137.5,137.5,320,56,F,Марія Наседкіна,1978,SBD,Single-ply,Open
9,Lyudmyla Rossol,54.05,95,110,115,115,70,-72.5,72.5,72.5,,115,122.5,130,130,317.5,56,F,Людмила Россол,1975,SBD,Single-ply,Open
10,Yuliya Kutsenko,55.15,100,110,115,115,42.5,45,47.5,47.5,,95,-102.5,110,110,272.5,56,F,Юлія Куценко,1983,SBD,Single-ply,Open
DQ,Iryna Gumenna,54.85,120,-130,-130,120,-80,-80,,,,,,,,,56,F,Ірина Гуменна,1982,SBD,Single-ply,Open
1,Larysa Soloviova,59.65,180,190,195,195,105,-112.5,-112.5,105,,190,197.5,202.5,202.5,502.5,60,F,Лариса Соловйова,1978,SBD,Single-ply,Open
2,Svitlana Poplavska,60,180,-192.5,192.5,192.5,105,112.5,-117.5,112.5,,185,-192.5,-195,185,490,60,F,Світлана Поплавська,1966,SBD,Single-ply,Open
3,Zhanna Ivanova #1,57.95,160,170,175,175,77.5,82.5,85,85,,160,-165,-165,160,420,60,F,Жанна Іванова,1984,SBD,Single-ply,Open
4,Natalya Zinchuk,58.55,130,140,-145,140,65,-70,-70,65,,140,150,-155,150,355,60,F,Наталя Зінчук,1980,SBD,Single-ply,Open
5,Alla Trofimova,58.65,110,122.5,,122.5,72.5,75,77.5,77.5,,135,145,-150,145,345,60,F,Алла Трофімова,1978,SBD,Single-ply,Open
1,Larysa Ivanova,67.4,210,-220,,210,120,126,,126,,200,-202.5,,200,536,67.5,F,Лариса Іванова,1963,SBD,Single-ply,Open
2,Oxana Sasko,62.65,140,170,185,185,90,97.5,102.5,102.5,,140,160,172.5,172.5,460,67.5,F,Оксана Сасько,1982,SBD,Single-ply,Open
3,Natalya Grigoryeva,67.05,172.5,-175,-175,172.5,80,-85,85,85,,160,172.5,-177.5,172.5,430,67.5,F,Наталья Григорьева,1981,SBD,Single-ply,Open
4,Tetyana Malukha,67.5,150,160,165,165,90,97.5,-105,97.5,,-150,162.5,-165,162.5,425,67.5,F,Тетяна Малуха,1966,SBD,Single-ply,Open
5,Lilia Levytska,65.35,130,-142.5,142.5,142.5,-100,105,110,110,,140,150,,150,402.5,67.5,F,Лілія Левицька,1969,SBD,Single-ply,Open
6,Oleksandra Bilyakova,63.9,125,135,-145,135,70,-75,-80,70,,130,140,-150,140,345,67.5,F,Олександра Білякова,1979,SBD,Single-ply,Open
7,Natalya Venger,65.9,115,125,135,135,70,75,80,80,,115,125,-140,125,340,67.5,F,Наталя Венгер,1981,SBD,Single-ply,Open
DQ,Kateryna Boroday,67.3,-165,165,175,175,-90,-90,-90,,,,,,,,67.5,F,Катерина Збандут,1983,SBD,Single-ply,Open
1,Tamara Bagriy,73.3,185,192.5,-197.5,192.5,125,127.5,130,130,,185,195,202.5,202.5,525,75,F,Тамара Багрій,1974,SBD,Single-ply,Open
2,Nina Toropovska,69.65,-180,180,195,195,85,100,-105,100,,180,195,-200,195,490,75,F,Ніна Тороповська,1981,SBD,Single-ply,Open
3,Svitlana Nurmetova,70.45,170,180,185,185,95,100,105,105,,160,170,180,180,470,75,F,Світлана Нурметова,1971,SBD,Single-ply,Open
4,Natalya Kopylova,74.3,160,-170,,160,95,102.5,-107.5,102.5,,160,-187.5,-187.5,160,422.5,75,F,Наталя Копилова,1977,SBD,Single-ply,Open
5,Anna Samoylenko,74,145,-150,-150,145,62.5,67.5,70,70,,150,155,157.5,157.5,372.5,75,F,Анна Самойленко,1983,SBD,Single-ply,Open
6,Liana Gudz',74.8,-140,140,152.5,152.5,67.5,72.5,-75,72.5,,-145,145,-157.5,145,370,75,F,Ліана Гудзь,1983,SBD,Single-ply,Open
DQ,Polina Novinska,73.9,125,130,-135,130,65,70,77.5,77.5,,-125,-125,-125,,,75,F,Поліна Новинська,1982,SBD,Single-ply,Open
DQ,Tetyana Zhmak,73.25,115,-125,-125,115,,,,,,,,,,,75,F,Тетяна Жмак,1968,SBD,Single-ply,Open
1,Iryna Yavorska,80.7,185,195,200,200,105,110,-115,110,,190,197.5,202.5,202.5,512.5,82.5,F,Ірина Яворська,1981,SBD,Single-ply,Open
2,Yana Petrenko,75.1,170,180,185,185,105,-110,110,110,,190,200.5,-202.5,200.5,495.5,82.5,F,Яна Петренко,1981,SBD,Single-ply,Open
1,Victoria Posmitna,86.35,220,-230,-230,220,125,130,135,135,,210,220,-227.5,220,575,90,F,Вікторія Посмітна,1966,SBD,Single-ply,Open
2,Natalya Polishchuk,83.25,170,185,-195,185,112.5,-117.5,117.5,117.5,,180,190,-200,190,492.5,90,F,Наталя Поліщук,1978,SBD,Single-ply,Open
3,Ganna Lytvyn,83,180,187.5,192.5,192.5,95,100,-105,100,,170,-192.5,,170,462.5,90,F,Анна Литвин,1983,SBD,Single-ply,Open
4,Galina Kotsaba,87.65,125,135,140,140,82.5,87.5,90,90,,125,135,142.5,142.5,372.5,90,F,Галина Коцаба,1982,SBD,Single-ply,Open
1,Anna Ganenko,93.7,180,200,-220,200,120,135,,135,,160,180,,180,515,90+,F,Анна Ганенко,1975,SBD,Single-ply,Open
2,Viktoriya Olenytsya,99.65,160,-180,180,180,95,102.5,107.5,107.5,,180,190,-202.5,190,477.5,90+,F,Вікторія Олениця,1984,SBD,Single-ply,Open
