Place,Sex,Name,CyrillicName,BodyweightKg,Squat1Kg,Squat2Kg,Squat3Kg,Best3SquatKg,Squat4Kg,TotalKg,WeightClassKg,Event,Equipment,Tested,Bench1Kg,Bench2Kg,Bench3Kg,Best3BenchKg,Bench4Kg,Deadlift1Kg,Deadlift2Kg,Deadlift3Kg,Best3DeadliftKg,Deadlift4Kg,Division,Age,BirthDate
1,F,Elizaveta Litvinova,Елизавета Литвинова,66.7,80,90,100,100,,100,67.5,S,Raw,Yes,,,,,,,,,,,Open,26,1991-01-30
DQ,F,Oksana Nazaryan,Оксана Назарян,105.2,-107.5,-107.5,-107.5,,,,90+,S,Raw,Yes,,,,,,,,,,,Open,31,1986-02-20
1,M,Aleksandr Sokolov,Александр Соколов,98.2,210,220,230,230,,230,100,S,Raw,Yes,,,,,,,,,,,Open,33,1984-05-11
2,M,Dmitriy Dubkov,Дмитрий Дубков,95.4,180,192.5,205,205,,205,100,S,Raw,Yes,,,,,,,,,,,Open,37,1980-01-29
1,M,Igor Vershinin,Игорь Вершинин,121,170,180,190,190,,190,125,S,Raw,Yes,,,,,,,,,,,Masters 40-44,44,1973-01-12
1,M,Evgeniy Bukhalko,Евгений Бухалко,99,-185,185,-192.5,185,,185,100,S,Wraps,No,,,,,,,,,,,Open,33,1984-05-08
1,F,Darya Bryantseva,Дарья Брянцева,47.6,-87.5,-87.5,87.5,87.5,,247.5,48,SBD,Raw,Yes,52.5,55,-57.5,55,,102.5,105,-107.5,105,,Open,27,1990-03-06
1,F,Nadezhda Fedorova,Надежда Федорова,52,-80,80,85,85,,252.5,52,SBD,Raw,Yes,50,52.5,55,55,,100,107.5,112.5,112.5,,Open,28,1989-01-02
1,F,Kseniya Yashina,Ксения Яшина,54.1,90,-95,-95,90,,247.5,56,SBD,Raw,Yes,52.5,-55,-55,52.5,,95,100,105,105,,Open,29,1988-10-20
1,F,Lyubov Rusnak,Любовь Руснак,58.5,95,100,107.5,107.5,,287.5,60,SBD,Raw,Yes,50,55,-57.5,55,,115,125,-137.5,125,,Open,18,1999-10-05
2,F,Kseniya Skvorchevskaya,Ксения Скворчевская,59,75,77.5,-80,77.5,,202.5,60,SBD,Raw,Yes,37.5,40,-42.5,40,,77.5,82.5,85,85,,Open,26,1991-07-19
1,F,Vaziga Shabanova,Вазига Шабанова,58.2,55,-60,60,60,,195,60,SBD,Raw,Yes,30,-35,-35,30,,95,-105,105,105,,Masters 50-54,51,1966-02-20
1,F,Anna Stepanova,Анна Степанова,62.3,60,65,-70,65,,210,67.5,SBD,Raw,Yes,-37.5,37.5,40,40,,95,100,105,105,,Masters 60-64,60,1957-02-15
1,M,Mikhail Baranov,Михаил Баранов,62,110,115,-120,115,,380,67.5,SBD,Raw,Yes,100,105,-107.5,105,,150,160,-165,160,,Juniors 20-23,23,1994-01-04
1,M,Ivan Arapov,Иван Арапов,74.2,180,190,-200,190,,557.5,75,SBD,Raw,Yes,120,125,130,130,,-200,212.5,237.5,237.5,,Open,25,1992-08-09
1,M,Maksim Novikov,Максим Новиков,81,220,-230,230,230,,637.5,82.5,SBD,Raw,Yes,145,150,152.5,152.5,,240,250,255,255,,Teen 18-19,18,1998-12-20
2,M,Pavel Filimonov,Павел Филимонов,82,140,145,150,150,,430,82.5,SBD,Raw,Yes,95,102.5,105,105,,165,175,-190,175,,Teen 18-19,18,1999-09-09
1,M,Maksim Novikov,Максим Новиков,81,220,-230,230,230,,637.5,82.5,SBD,Raw,Yes,145,150,152.5,152.5,,240,250,255,255,,Open,18,1998-12-20
2,M,Aleksandr Peshkov,Александр Пешков,82,140,145,150,150,,460,82.5,SBD,Raw,Yes,115,122.5,130,130,,-160,170,180,180,,Open,26,1991-06-03
3,M,Egor Chernikov,Егор Черников,81.2,140,-150,150,150,,452.5,82.5,SBD,Raw,Yes,115,122.5,-127.5,122.5,,150,170,180,180,,Open,25,1992-02-06
4,M,Aleksandr Khokhlov,Александр Хохлов,81,140,145,150,150,,430,82.5,SBD,Raw,Yes,95,100,-105,100,,170,180,-190,180,,Open,30,1987-05-16
5,M,Ilya Martynov,Илья Мартынов,82.4,-105,110,115,115,,360,82.5,SBD,Raw,Yes,90,95,-100,95,,140,145,150,150,,Open,31,1986-04-29
1,M,Vyacheslav Malinovskiy,Вячеслав Малиновский,82.9,165,170,180,180,,490,90,SBD,Raw,Yes,115,120,-130,120,,170,180,190,190,,Open,25,1991-12-19
2,M,Valeriy Vorobev,Валерий Воробьев,87.8,-155,155,162.5,162.5,,480,90,SBD,Raw,Yes,117.5,125,-130,125,,180,192.5,-195,192.5,,Open,31,1986-02-08
3,M,Sergey Voroshilov,Сергей Ворошилов,89.4,-160,-160,160,160,,475,90,SBD,Raw,Yes,115,125,132.5,132.5,,170,182.5,-197.5,182.5,,Open,29,1988-08-03
4,M,Andrey Kalichev,Андрей Каличев,87.2,145,155,162.5,162.5,,427.5,90,SBD,Raw,Yes,-95,95,-100,95,,150,160,170,170,,Open,33,1984-11-22
1,M,Kalimulla Murzakhanov,Калимулла Мурзаханов,86.7,-120,-130,130,130,,400,90,SBD,Raw,Yes,100,105,110,110,,120,140,160,160,,Masters 60-64,62,1955-07-29
1,M,Dmitriy Dubkov,Дмитрий Дубков,95.4,180,192.5,205,205,,545,100,SBD,Raw,Yes,110,117.5,-122.5,117.5,,210,222.5,-232.5,222.5,,Open,37,1980-01-29
2,M,Sergey Aleshchenko,Сергей Алещенко,96.2,130,135,140,140,,420,100,SBD,Raw,Yes,-110,110,-115,110,,150,160,170,170,,Open,28,1989-08-13
1,M,Daniil Katin,Даниил Катин,106.1,220,-235,235,235,,645,110,SBD,Raw,Yes,125,135,-140,135,,260,275,-280,275,,Teen 18-19,18,1999-08-24
1,M,Ivan Eremeev,Иван Еремеев,108.5,200,212.5,225,225,,652.5,110,SBD,Raw,Yes,150,157.5,-162.5,157.5,,230,250,270,270,,Open,33,1984-08-21
2,M,Andrey Golubev,Андрей Голубев,105.1,170,185,-195,185,,500,110,SBD,Raw,Yes,100,107.5,115,115,,175,190,200,200,,Open,36,1981-03-22
1,M,Sergey Turchin,Сергей Турчин,110.6,140,-150,-150,140,,442.5,125,SBD,Raw,Yes,80,90,100,100,,180,202.5,-225,202.5,,Open,28,1989-08-17
1,M,Igor Vershinin,Игорь Вершинин,121,170,180,190,190,,620,125,SBD,Raw,Yes,-170,180,190,190,,210,230,240,240,,Masters 40-44,44,1973-01-12
1,F,Natalya Bogacheva,Наталья Богачева,47.5,-70,72.5,80,80,,225,48,SBD,Raw,No,35,37.5,-40,37.5,,90,100,107.5,107.5,,Open,32,1985-02-09
1,F,Yuliya Filant,Юлия Филант,54,75,82.5,-87.5,82.5,,237.5,56,SBD,Raw,No,37.5,42.5,45,45,,95,105,110,110,,Open,50,1967-10-11
1,F,Yuliya Sayfullina,Юлия Сайфуллина,58,100,-110,110,110,,302.5,60,SBD,Raw,No,52.5,57.5,60,60,,120,127.5,132.5,132.5,,Open,32,1985-01-01
2,F,Lali Radzhabova,Лали Раджабова,57.9,75,82.5,90,90,,260,60,SBD,Raw,No,50,55,60,60,,92.5,102.5,110,110,,Open,34,1983-11-02
1,F,Viktoriya Doga,Виктория Дога,78.5,120,130,-135,130,,397.5,82.5,SBD,Raw,No,90,95,-100,95,,155,165,172.5,172.5,,Open,35,1982-09-04
1,M,Sergey Filant,Сергей Филант,65.2,-70,70,77.5,77.5,,252.5,67.5,SBD,Raw,No,60,65,-67.5,65,,-90,97.5,110,110,,Juniors 20-23,20,1997-04-07
1,M,Dmitriy Timofeev,Дмитрий Тимофеев,86.7,225,235,-245,235,,710,90,SBD,Raw,No,160,165,-170,165,,300,310,-320,310,,Open,30,1987-02-21
2,M,Stanislav Belov,Станислав Белов,90,225,237.5,247.5,247.5,,655,90,SBD,Raw,No,145,150,155,155,,227.5,240,252.5,252.5,,Open,27,1990-11-11
3,M,Dmitriy Batenev,Дмитрий Батенев,89.7,205,225,-230,225,,652.5,90,SBD,Raw,No,-160,-172.5,172.5,172.5,,225,250,255,255,,Open,36,1981-12-07
DQ,M,Maksim Pyatygin,Максим Пятыгин,87.6,205,-215,-215,205,,,90,SBD,Raw,No,-135,135,140,140,,-230,-230,,,,Open,28,1989-08-20
1,M,Fedor Laevskiy,Федор Лаевский,89.5,155,167.5,177.5,177.5,,520,90,SBD,Raw,No,120,127.5,130,130,,195,207.5,212.5,212.5,,Masters 45-49,49,1968-01-07
1,M,Aleksey Vasilev,Алексей Васильев,99.3,205,215,220,220,,672.5,100,SBD,Raw,No,190,195,197.5,197.5,,-255,255,-272.5,255,,Open,38,1979-10-27
2,M,David Dzhandzhuliya,Давид Джанджулия,98.4,205,215,225,225,,660,100,SBD,Raw,No,145,160,165,165,,250,270,-282.5,270,,Open,29,1988-06-11
DQ,M,Evgeniy Loktev,Евгений Локтев,96.1,-155,160,-165,160,,,100,SBD,Raw,No,120,-127.5,,120,,,,,,,Masters 60-64,60,1957-01-12
1,M,Igor Malakhov,Игорь Малахов,103,230,245,252.5,252.5,,660,110,SBD,Raw,No,160,167.5,-172.5,167.5,,240,-250,-255,240,,Open,35,1982-07-11
1,M,Aleksandr Fomichev #2,Александр Фомичев,104.7,190,-205,205,205,,577.5,110,SBD,Raw,No,155,162.5,-167.5,162.5,,190,200,210,210,,Masters 40-44,41,1976-03-24
DQ,M,Grant Atoyan,Грант Атоян,88,-150,150,-160,150,,,90,SBD,Wraps,Yes,-110,-110,-110,,,-190,-190,,,,Masters 40-44,41,1976-04-02
1,M,Dmitriy Zabokritskiy,Дмитрий Забокрицкий,95.2,195,205,-212.5,205,,515,100,SBD,Wraps,Yes,110,-115,,110,,195,200,-210,200,,Teen 18-19,19,1997-12-12
1,M,Evgeniy Dorofeyskiy,Евгений Дорофейский,96.5,225,232.5,242.5,242.5,,652.5,100,SBD,Wraps,Yes,145,152.5,160,160,,-250,250,-270,250,,Juniors 20-23,22,1995-09-14
1,M,Andrey Okunev,Андрей Окунев,95,-190,200,-210,200,,562.5,100,SBD,Wraps,Yes,-135,135,142.5,142.5,,210,220,-225,220,,Open,24,1993-06-28
1,M,Maksim Lebedev,Максим Лебедев,109,-225,230,240,240,,675,110,SBD,Wraps,Yes,175,185,-190,185,,225,240,250,250,,Open,39,1978-02-07
2,M,Denis Voronov,Денис Воронов,107.8,200,220,227.5,227.5,,620,110,SBD,Wraps,Yes,150,157.5,-165,157.5,,220,235,-247.5,235,,Open,27,1990-10-16
3,M,Vasiliy Sukharev,Василий Сухарев,101.6,230,-250,-250,230,,605,110,SBD,Wraps,Yes,155,-167.5,-167.5,155,,200,210,220,220,,Open,37,1980-06-24
1,F,Maryam Gazieva,Марьям Газиева,55.2,85,-95,-95,85,,227.5,56,SBD,Wraps,No,40,42.5,-45,42.5,,80,90,100,100,,Open,27,1990-11-20
1,M,Andrey Pavlyuchenko,Андрей Павлюченко,87.5,220,-240,-242.5,220,,605,90,SBD,Wraps,No,110,120,125,125,,230,245,260,260,,Open,27,1990-04-20
2,M,Pavel Kabanov,Павел Кабанов,86,190,-200,-205,190,,560,90,SBD,Wraps,No,110,120,130,130,,220,240,-260,240,,Open,25,1992-07-13
1,M,Vladimir Safonov,Владимир Сафонов,96.4,-215,220,235,235,,620,100,SBD,Wraps,No,150,160,167.5,167.5,,205,217.5,-227.5,217.5,,Open,30,1987-03-21
2,M,Evgeniy Bukhalko,Евгений Бухалко,99,-185,185,-192.5,185,,555,100,SBD,Wraps,No,150,-155,155,155,,215,-225,-225,215,,Open,33,1984-05-08
1,M,Aleksandr Komkov,Александр Комков,117.6,310,-320,320,320,,765,125,SBD,Wraps,No,205,-210,,205,,-240,240,-250,240,,Open,34,1983-11-26
1,F,Mariya Kozlova,Мария Козлова,67,,,,,,185,67.5,BD,Raw,Yes,65,70,-75,70,,100,115,-122.5,115,,Open,33,1984-06-29
2,F,Anna Belskaya,Анна Бельская,63.6,,,,,,157.5,67.5,BD,Raw,Yes,47.5,-50,-50,47.5,,100,105,110,110,,Open,34,1983-02-16
1,M,Daniil Sergeev,Даниил Сергеев,81.5,,,,,,230,82.5,BD,Raw,Yes,85,87.5,90,90,,120,130,140,140,,Teen 16-17,17,2000-08-31
1,M,Aleksandr Khokhlov,Александр Хохлов,81,,,,,,280,82.5,BD,Raw,Yes,100,,,100,,180,,,180,,Open,30,1987-05-16
2,M,Ilya Martynov,Илья Мартынов,82.4,,,,,,245,82.5,BD,Raw,Yes,95,,,95,,150,,,150,,Open,31,1986-04-29
1,M,Aleksey Kholunin,Алексей Холунин,88,,,,,,335,90,BD,Raw,Yes,145,152.5,155,155,,170,-180,180,180,,Open,35,1982-04-15
2,M,Valeriy Vorobev,Валерий Воробьев,87.8,,,,,,317.5,90,BD,Raw,Yes,117.5,125,-130,125,,180,192.5,-195,192.5,,Open,31,1986-02-08
3,M,Artur Ivanyuk,Артур Иванюк,86.9,,,,,,290,90,BD,Raw,Yes,110,115,120,120,,150,160,170,170,,Open,32,1985-01-24
1,M,Vladimir Zykov,Владимир Зыков,89.4,,,,,,340,90,BD,Raw,No,130,140,-145,140,,200,-235,-235,200,,Open,35,1982-10-28
1,M,Evgeniy Bukhalko,Евгений Бухалко,99,,,,,,370,100,BD,Raw,No,150,-155,155,155,,215,-225,-225,215,,Open,33,1984-05-08
1,F,Tatyana Ponomareva,Татьяна Пономарева,43.7,,,,,,100,44,D,Raw,Yes,,,,,,90,100,-110,100,,Juniors 20-23,23,1994-01-25
1,F,Anna Mamont,Анна Мамонт,47.5,,,,,,125,48,D,Raw,Yes,,,,,,110,120,125,125,,Open,24,1993-06-11
1,F,Natalya Pilipyuk,Наталья Пилипюк,55,,,,,,142.5,56,D,Raw,Yes,,,,,,135,142.5,-147.5,142.5,,Open,33,1983-12-21
1,F,Lyubov Rusnak,Любовь Руснак,58.5,,,,,,130,60,D,Raw,Yes,,,,,,125,130,-132.5,130,,Open,18,1999-10-05
1,F,Mariya Kozlova,Мария Козлова,67,,,,,,115,67.5,D,Raw,Yes,,,,,,115,,,115,,Open,33,1984-06-29
1,F,Veronika Libina,Вероника Либина,73.9,,,,,,120,75,D,Raw,Yes,,,,,,100,110,120,120,,Juniors 20-23,21,1996-09-06
1,F,Irina Danielyan,Ирина Даниелян,72.8,,,,,,110,75,D,Raw,Yes,,,,,,-90,100,110,110,,Masters 45-49,45,1972-11-22
1,M,Nikita Karasyov,Никита Карасёв,59.6,,,,,,175,60,D,Raw,Yes,,,,,,160,-175,175,175,,Juniors 20-23,20,1997-06-30
1,M,Fikrot Seidov,Фикрот Сеидов,62.2,,,,,,150,67.5,D,Raw,Yes,,,,,,130,140,150,150,,Teen 13-15,15,2002-06-21
2,M,Visal Seidov,Висал Сеидов,64.4,,,,,,130,67.5,D,Raw,Yes,,,,,,120,130,-140,130,,Teen 13-15,14,2003-09-09
1,M,Anton Kostyuchenko,Антон Костюченко,64,,,,,,155,67.5,D,Raw,Yes,,,,,,155,-170,-170,155,,Juniors 20-23,22,1995-03-29
1,M,Konstantin Smirnov,Константин Смирнов,73.2,,,,,,210,75,D,Raw,Yes,,,,,,200,-210,210,210,,Open,30,1987-06-18
2,M,Vache Karapetyan,Ваче Карапетян,75,,,,,,185,75,D,Raw,Yes,,,,,,185,-207.5,-207.5,185,,Open,27,1990-08-01
DQ,M,Yuriy Krasovskiy,Юрий Красовский,70,,,,,,,75,D,Raw,Yes,,,,,,-185,,,,,Open,30,1987-07-02
1,M,Dmitriy Yaskevich,Дмитрий Яскевич,79.4,,,,,,210,82.5,D,Raw,Yes,,,,,,210,-220,-220,210,,Juniors 20-23,20,1997-01-24
1,M,Denis Pakhomov,Денис Пахомов,79.7,,,,,,190,82.5,D,Raw,Yes,,,,,,170,190,-200,190,,Open,32,1985-03-13
1,M,Alan Torov,Алан Торов,89.9,,,,,,202.5,90,D,Raw,Yes,,,,,,190,197.5,202.5,202.5,,Juniors 20-23,23,1994-02-27
1,M,Aleksey Krylov,Алексей Крылов,87.8,,,,,,270,90,D,Raw,Yes,,,,,,247.5,262.5,270,270,,Open,29,1988-02-21
2,M,Anton Gryazev,Антон Грязев,87.1,,,,,,250,90,D,Raw,Yes,,,,,,240,250,-260,250,,Open,30,1987-06-05
3,M,Timofey Kulishov,Тимофей Кулишов,87,,,,,,240,90,D,Raw,Yes,,,,,,220,230,240,240,,Open,32,1985-07-29
1,M,Vyacheslav Varlamov,Вячеслав Варламов,88.9,,,,,,217.5,90,D,Raw,Yes,,,,,,200,210,217.5,217.5,,Masters 40-44,42,1975-04-30
2,M,Grant Atoyan,Грант Атоян,88,,,,,,180,90,D,Raw,Yes,,,,,,160,170,180,180,,Masters 40-44,41,1976-04-02
1,M,Nikita Bulak,Никита Булак,98.5,,,,,,220,100,D,Raw,Yes,,,,,,210,215,220,220,,Juniors 20-23,23,1994-10-12
1,M,Dmitriy Dubkov,Дмитрий Дубков,95.4,,,,,,222.5,100,D,Raw,Yes,,,,,,222.5,,,222.5,,Open,37,1980-01-29
2,M,Andrey Ilin,Андрей Ильин,96.4,,,,,,200,100,D,Raw,Yes,,,,,,190,200,-205,200,,Open,29,1988-03-13
1,M,Maksim Ekimov,Максим Екимов,122.5,,,,,,265,125,D,Raw,Yes,,,,,,230,257.5,265,265,,Open,32,1985-01-11
2,M,Evgeniy Sidorov,Евгений Сидоров,121,,,,,,225,125,D,Raw,Yes,,,,,,200,225,,225,,Open,29,1988-06-23
3,M,Sergey Turchin,Сергей Турчин,110.6,,,,,,215,125,D,Raw,Yes,,,,,,-215,215,-225,215,,Open,28,1989-08-17
1,M,Igor Vershinin,Игорь Вершинин,121,,,,,,240,125,D,Raw,Yes,,,,,,240,,,240,,Masters 40-44,44,1973-01-12
1,M,Evgeniy Tagirov,Евгений Тагиров,88.1,,,,,,252.5,90,D,Raw,Yes,,,,,,230,240,252.5,252.5,,Juniors 20-23,23,1994-10-20
1,F,Elizaveta Chusovskaya,Елизавета Чусовская,62,,,,,,140,67.5,D,Raw,No,,,,,,127.5,135,140,140,,Teen 18-19,19,1998-08-29
1,M,Vyacheslav Shchipakin,Вячеслав Щипакин,63.5,,,,,,180,67.5,D,Raw,No,,,,,,-170,175,180,180,,Open,30,1987-06-08
1,M,Aleksandr Fedosov,Александр Федосов,76.7,,,,,,240,82.5,D,Raw,No,,,,,,220,-235,240,240,,Open,29,1988-12-01
1,M,Andrey Pavlyuchenko,Андрей Павлюченко,87.5,,,,,,260,90,D,Raw,No,,,,,,260,,,260,,Open,27,1990-04-20
2,M,Pavel Kabanov,Павел Кабанов,86,,,,,,240,90,D,Raw,No,,,,,,240,,,240,,Open,25,1992-07-13
3,M,Aleksey Maksimov,Алексей Максимов,90,,,,,,230,90,D,Raw,No,,,,,,230,-245,-250,230,,Open,27,1989-12-11
DQ,M,Anatoliy Kovalev,Анатолий Ковалев,87,,,,,,,90,D,Raw,No,,,,,,-260,-290,-290,,,Open,26,1991-08-01
DQ,M,Maksim Pyatygin,Максим Пятыгин,87.6,,,,,,,90,D,Raw,No,,,,,,,,,,,Open,28,1989-08-20
1,M,Fedor Laevskiy,Федор Лаевский,89.5,,,,,,212.5,90,D,Raw,No,,,,,,212.5,,,212.5,,Masters 45-49,49,1968-01-07
1,M,Artur Mamedyarov,Артур Мамедяров,92.9,,,,,,340,100,D,Raw,No,,,,,,290,340,-360,340,,Open,26,1991-08-20
2,M,Aleksey Vasilev,Алексей Васильев,99.3,,,,,,255,100,D,Raw,No,,,,,,255,,,255,,Open,38,1979-10-27
3,M,Anton Bakhmetev,Антон Бахметьев,95.4,,,,,,250,100,D,Raw,No,,,,,,250,-272.5,-272.5,250,,Open,25,1992-12-03
DQ,M,Sergey Luchinskiy,Сергей Лучинский,99.5,,,,,,,100,D,Raw,No,,,,,,-272.5,-272.5,,,,Open,36,1981-11-12
1,M,Aleksandr Malikov,Александр Маликов,98.2,,,,,,280,100,D,Raw,No,,,,,,257.5,270,280,280,,Masters 40-44,44,1972-12-21
1,M,Artem Krot,Артем Крот,105.2,,,,,,340,110,D,Raw,No,,,,,,310,325,340,340,,Juniors 20-23,22,1995-10-03
1,M,Vladimir Dergunov,Владимир Дергунов,107.5,,,,,,310,110,D,Raw,No,,,,,,310,-340,-340,310,,Open,26,1991-03-09
1,F,Ekaterina Busova,Екатерина Бусова,46.4,,,,,,40,48,B,Raw,Yes,37.5,40,-42.5,40,,,,,,,Open,37,1980-02-13
2,F,Evgeniya Afanasenko,Евгения Афанасенко,45.8,,,,,,35,48,B,Raw,Yes,-35,35,-42.5,35,,,,,,,Open,36,1981-08-17
1,F,Anastasiya Sizova,Анастасия Сизова,52,,,,,,52.5,52,B,Raw,Yes,50,52.5,-55,52.5,,,,,,,Juniors 20-23,23,1994-05-07
1,F,Anna Gulyaeva,Анна Гуляева,55.3,,,,,,57.5,56,B,Raw,Yes,57.5,-62.5,-62.5,57.5,,,,,,,Open,30,1987-02-24
2,F,Darya Ivanova #3,Дарья Иванова,55.8,,,,,,57.5,56,B,Raw,Yes,57.5,-62.5,-62.5,57.5,,,,,,,Open,27,1990-05-03
3,F,Mariya Lebedeva,Мария Лебедева,53.7,,,,,,40,56,B,Raw,Yes,37.5,40,-42.5,40,,,,,,,Open,25,1992-03-05
1,F,Natalya Markushina,Наталья Маркушина,58.7,,,,,,57.5,60,B,Raw,Yes,52.5,57.5,-62.5,57.5,,,,,,,Teen 18-19,18,1999-08-06
1,F,Anastasiya Gribanova,Анастасия Грибанова,58.7,,,,,,47.5,60,B,Raw,Yes,47.5,-50,-50,47.5,,,,,,,Open,25,1992-09-27
1,F,Natalya Ogryzko,Наталья Огрызько,67.2,,,,,,102.5,67.5,B,Raw,Yes,102.5,-105,-105,102.5,,,,,,,Open,42,1975-07-12
2,F,Mariya Kozlova,Мария Козлова,67,,,,,,70,67.5,B,Raw,Yes,70,,,70,,,,,,,Open,33,1984-06-29
3,F,Olga Gurevich,Ольга Гуревич,63.3,,,,,,52.5,67.5,B,Raw,Yes,50,-52.5,52.5,52.5,,,,,,,Open,32,1985-02-21
4,F,Mariya Kovaleva,Мария Ковалева,62.7,,,,,,47.5,67.5,B,Raw,Yes,42.5,-47.5,47.5,47.5,,,,,,,Open,32,1985-11-11
1,F,Mariya Lyovina,Мария Лёвина,66.5,,,,,,60,67.5,B,Raw,Yes,55,-60,60,60,,,,,,,Masters 40-44,41,1976-07-22
2,F,Elena Dmitrieva,Елена Дмитриева,66.5,,,,,,57.5,67.5,B,Raw,Yes,52.5,57.5,-60,57.5,,,,,,,Masters 40-44,43,1974-11-03
DQ,F,Mariya Vinogradova,Мария Виноградова,64.8,,,,,,,67.5,B,Raw,Yes,-60,-60,-60,,,,,,,,Masters 40-44,42,1975-08-01
1,F,Elena Chagina,Елена Чагина,74.4,,,,,,47.5,75,B,Raw,Yes,47.5,-52.5,-52.5,47.5,,,,,,,Open,38,1978-12-30
1,M,Ivan Nikitinskiy,Иван Никитинский,45.6,,,,,,45,52,B,Raw,Yes,40,42.5,45,45,,,,,,,Teen 13-15,13,2004-07-07
1,M,Dmitriy Saidov,Дмитрий Саидов,57.1,,,,,,45,60,B,Raw,Yes,37.5,42.5,45,45,,,,,,,Teen 13-15,14,2003-09-20
1,M,Dmitriy Saidov,Дмитрий Саидов,57.1,,,,,,45,60,B,Raw,Yes,37.5,42.5,45,45,,,,,,,Open,14,2003-09-20
1,M,Nikita Tomilov,Никита Томилов,66,,,,,,100,67.5,B,Raw,Yes,95,100,-107.5,100,,,,,,,Teen 18-19,18,1999-11-16
2,M,Nikita Kintushev,Никита Кинтушев,66.9,,,,,,92.5,67.5,B,Raw,Yes,92.5,-97.5,-97.5,92.5,,,,,,,Teen 16-17,17,2000-10-01
3,M,Aleksandr Yastrebov,Александр Ястребов,64.7,,,,,,72.5,67.5,B,Raw,Yes,67.5,72.5,-75,72.5,,,,,,,Teen 13-15,14,2002-12-21
1,M,Andrey Kosnyrev,Андрей Коснырев,66.3,,,,,,110,67.5,B,Raw,Yes,107.5,110,-112.5,110,,,,,,,Open,33,1984-07-04
2,M,Nikita Kintushev,Никита Кинтушев,66.9,,,,,,92.5,67.5,B,Raw,Yes,92.5,-97.5,-97.5,92.5,,,,,,,Open,17,2000-10-01
3,M,Vladimir Mochalov,Владимир Мочалов,63.8,,,,,,90,67.5,B,Raw,Yes,90,-100,-100,90,,,,,,,Open,38,1979-01-30
1,M,Leonid Aleksikov,Леонид Алексиков,69.5,,,,,,120,75,B,Raw,Yes,112.5,117.5,120,120,,,,,,,Juniors 20-23,20,1997-05-30
1,M,Vyacheslav Buyanov,Вячеслав Буянов,74.2,,,,,,150,75,B,Raw,Yes,145,150,-152.5,150,,,,,,,Open,29,1988-03-24
2,M,Aleksandr Strelnikov,Александр Стрельников,74.8,,,,,,135,75,B,Raw,Yes,117.5,127.5,135,135,,,,,,,Open,31,1986-08-17
3,M,Valentin Voytovich,Валентин Войтович,72.4,,,,,,117.5,75,B,Raw,Yes,112.5,117.5,-120,117.5,,,,,,,Open,26,1991-01-07
4,M,Sergey An,Сергей Ан,71,,,,,,105,75,B,Raw,Yes,90,105,-110,105,,,,,,,Open,30,1987-11-09
1,M,Sergey Toming,Сергей Томинг,72.2,,,,,,122.5,75,B,Raw,Yes,117.5,-122.5,122.5,122.5,,,,,,,Masters 45-49,49,1968-12-09
1,M,Denis Ostapenko,Денис Остапенко,80.2,,,,,,120,82.5,B,Raw,Yes,115,117.5,120,120,,,,,,,Teen 18-19,18,1999-11-19
1,M,Sergey Biryukov #2,Сергей Бирюков,82,,,,,,162.5,82.5,B,Raw,Yes,155,160,162.5,162.5,,,,,,,Open,35,1982-01-10
2,M,Artem Khabarov,Артем Хабаров,81.4,,,,,,160,82.5,B,Raw,Yes,150,155,160,160,,,,,,,Open,32,1985-04-14
3,M,Aleksey Yanko,Алексей Янко,80.2,,,,,,145,82.5,B,Raw,Yes,130,135,145,145,,,,,,,Open,27,1990-04-07
4,M,Oleg Semibratov,Олег Семибратов,78.9,,,,,,127.5,82.5,B,Raw,Yes,120,127.5,-130,127.5,,,,,,,Open,26,1991-04-22
5,M,Igor Khristoforov,Игорь Христофоров,80,,,,,,120,82.5,B,Raw,Yes,120,-127.5,-127.5,120,,,,,,,Open,32,1985-08-29
1,M,Gennadiy Grigorev,Геннадий Григорьев,81.3,,,,,,127.5,82.5,B,Raw,Yes,120,127.5,-130,127.5,,,,,,,Masters 50-54,50,1967-11-27
1,M,Igor Popov,Игорь Попов,80.5,,,,,,127.5,82.5,B,Raw,Yes,120,-127.5,127.5,127.5,,,,,,,Masters 60-64,60,1957-04-11
1,M,Yuriy Shipitsyn,Юрий Шипицын,86.9,,,,,,137.5,90,B,Raw,Yes,125,132.5,137.5,137.5,,,,,,,Teen 18-19,18,1999-03-06
1,M,Alan Torov,Алан Торов,89.9,,,,,,135,90,B,Raw,Yes,127.5,132.5,135,135,,,,,,,Juniors 20-23,23,1994-02-27
1,M,Yuriy Litvinenko,Юрий Литвиненко,84.2,,,,,,167.5,90,B,Raw,Yes,160,-167.5,167.5,167.5,,,,,,,Open,28,1989-08-24
2,M,Dmitriy Antonenkov,Дмитрий Антоненков,86.7,,,,,,157.5,90,B,Raw,Yes,150,155,157.5,157.5,,,,,,,Open,36,1981-08-21
3,M,Aleksey Kholunin,Алексей Холунин,88,,,,,,155,90,B,Raw,Yes,155,,,155,,,,,,,Open,35,1982-04-15
4,M,Aleksandr Petrov,Александр Петров,88.6,,,,,,152.5,90,B,Raw,Yes,145,152.5,-157.5,152.5,,,,,,,Open,33,1984-03-03
5,M,Maksim Khoroshun,Максим Хорошун,88,,,,,,145,90,B,Raw,Yes,140,145,-147.5,145,,,,,,,Open,24,1993-01-25
6,M,Aleksey Smirnov,Алексей Смирнов,88.1,,,,,,135,90,B,Raw,Yes,132.5,-135,135,135,,,,,,,Open,39,1978-05-15
7,M,Timur Pshikhopov,Тимур Пшихопов,89.3,,,,,,135,90,B,Raw,Yes,132.5,-135,135,135,,,,,,,Open,29,1988-08-18
8,M,Roman Okhotnikov,Роман Охотников,87.1,,,,,,127.5,90,B,Raw,Yes,120,127.5,-132.5,127.5,,,,,,,Open,38,1979-08-01
DQ,M,Aleksey Kosinov,Алексей Косинов,88.5,,,,,,,90,B,Raw,Yes,-152.5,-152.5,,,,,,,,,Open,37,1980-09-04
1,M,Viktor Khapov,Виктор Хапов,87.1,,,,,,135,90,B,Raw,Yes,130,135,-140,135,,,,,,,Masters 50-54,51,1966-07-20
2,M,Aleksandr Brodskiy,Александр Бродский,89.1,,,,,,127.5,90,B,Raw,Yes,127.5,-130,-130,127.5,,,,,,,Masters 50-54,53,1964-05-26
1,M,Aleksandr Matus,Александр Матус,89,,,,,,130,90,B,Raw,Yes,-125,125,130,130,,,,,,,Masters 55-59,59,1958-03-03
1,M,Ruslan Zhelkobaev,Руслан Желкобаев,95.5,,,,,,107.5,100,B,Raw,Yes,102.5,107.5,-110,107.5,,,,,,,Teen 16-17,17,2000-08-30
1,M,Yuriy Moiseenko,Юрий Моисеенко,96.3,,,,,,165,100,B,Raw,Yes,150,162.5,165,165,,,,,,,Juniors 20-23,23,1994-03-15
1,M,Pavel Kochurov,Павел Кочуров,97.8,,,,,,200,100,B,Raw,Yes,180,192.5,200,200,,,,,,,Open,21,1996-06-04
2,M,Igor Veselov,Игорь Веселов,99.3,,,,,,182.5,100,B,Raw,Yes,175,182.5,-187.5,182.5,,,,,,,Open,27,1990-01-11
3,M,Aleksandr Sokolov,Александр Соколов,98.2,,,,,,175,100,B,Raw,Yes,162.5,175,-185,175,,,,,,,Open,33,1984-05-11
4,M,Aleksey Berezhkov,Алексей Бережков,97,,,,,,170,100,B,Raw,Yes,155,165,170,170,,,,,,,Open,35,1982-08-08
5,M,Andrey Okunev,Андрей Окунев,95,,,,,,142.5,100,B,Raw,Yes,142.5,,,142.5,,,,,,,Open,24,1993-06-28
6,M,Dmitriy Vasilev,Дмитрий Васильев,96.5,,,,,,142.5,100,B,Raw,Yes,-140,142.5,-147.5,142.5,,,,,,,Open,38,1979-10-31
DQ,M,Ildar Suleymanov,Ильдар Сулейманов,98.4,,,,,,,100,B,Raw,Yes,-160,-160,-160,,,,,,,,Open,25,1992-11-29
1,M,Aleksandr Maslov,Александр Маслов,104.9,,,,,,167.5,110,B,Raw,Yes,155,160,167.5,167.5,,,,,,,Juniors 20-23,20,1997-07-28
2,M,Aleksandr Galantsev,Александр Галанцев,102.7,,,,,,130,110,B,Raw,Yes,120,127.5,130,130,,,,,,,Juniors 20-23,21,1996-09-03
1,M,Aleksey Konoplev,Алексей Коноплев,107.6,,,,,,192.5,110,B,Raw,Yes,185,-192.5,192.5,192.5,,,,,,,Open,32,1985-05-08
2,M,Maksim Lebedev,Максим Лебедев,109,,,,,,190,110,B,Raw,Yes,190,,,190,,,,,,,Open,39,1978-02-07
3,M,Vasiliy Sukharev,Василий Сухарев,101.6,,,,,,155,110,B,Raw,Yes,155,,,155,,,,,,,Open,37,1980-06-24
4,M,Evgeniy Burykin,Евгений Бурыкин,106.7,,,,,,147.5,110,B,Raw,Yes,147.5,-150,-150,147.5,,,,,,,Open,29,1988-03-10
5,M,Evgeniy Sokolov,Евгений Соколов,107.7,,,,,,147.5,110,B,Raw,Yes,145,-147.5,147.5,147.5,,,,,,,Open,33,1984-08-08
6,M,Dmitriy Yakimov,Дмитрий Якимов,108.8,,,,,,147.5,110,B,Raw,Yes,-140,147.5,-152.5,147.5,,,,,,,Open,37,1980-01-24
7,M,Oleg Postarnichenko,Олег Постарниченко,108.2,,,,,,137.5,110,B,Raw,Yes,137.5,-140,-140,137.5,,,,,,,Open,39,1978-03-23
1,M,Kirill Ostapenko,Кирилл Остапенко,105,,,,,,175,110,B,Raw,Yes,160,167.5,175,175,,,,,,,Masters 40-44,40,1977-10-19
2,M,Mikhail Ivanov,Михаил Иванов,109.4,,,,,,175,110,B,Raw,Yes,160,170,175,175,,,,,,,Masters 40-44,41,1976-07-02
1,M,Anton Kulikov,Антон Куликов,117,,,,,,200,125,B,Raw,Yes,190,195,200,200,,,,,,,Open,34,1982-12-22
1,M,Igor Vershinin,Игорь Вершинин,121,,,,,,190,125,B,Raw,Yes,190,,,190,,,,,,,Masters 40-44,44,1973-01-12
2,M,Anatoliy Danilov,Анатолий Данилов,110.8,,,,,,152.5,125,B,Raw,Yes,135,145,152.5,152.5,,,,,,,Masters 40-44,42,1975-09-16
1,M,Andrey Peshkov,Андрей Пешков,123.2,,,,,,185,125,B,Raw,Yes,180,185,-190,185,,,,,,,Masters 50-54,54,1963-11-05
1,F,Ekaterina Kuzhleva,Екатерина Кужлева,43.6,,,,,,40,44,B,Raw,No,35,40,-45,40,,,,,,,Open,32,1985-09-12
1,F,Viktoriya Shmonina,Виктория Шмонина,47.5,,,,,,57.5,48,B,Raw,No,57.5,-60,-60,57.5,,,,,,,Teen 18-19,18,1999-07-21
1,F,Viktoriya Shmonina,Виктория Шмонина,47.5,,,,,,57.5,48,B,Raw,No,57.5,-60,-60,57.5,,,,,,,Open,18,1999-07-21
1,F,Anastasiya Kuznetsova,Анастасия Кузнецова,54.7,,,,,,42.5,56,B,Raw,No,37.5,40,42.5,42.5,,,,,,,Open,40,1977-11-16
1,F,Anastasiya Kuznetsova,Анастасия Кузнецова,54.7,,,,,,42.5,56,B,Raw,No,37.5,40,42.5,42.5,,,,,,,Masters 40-44,40,1977-11-16
1,F,Yuliya Tarasova,Юлия Тарасова,59.2,,,,,,55,60,B,Raw,No,55,-57.5,-57.5,55,,,,,,,Open,27,1990-10-03
1,F,Tatyana Efimova,Татьяна Ефимова,63.7,,,,,,107.5,67.5,B,Raw,No,100,107.5,-112.5,107.5,,,,,,,Open,40,1977-09-10
1,F,Irina Kharchuk,Ирина Харчук,73.3,,,,,,90,75,B,Raw,No,85,90,-95,90,,,,,,,Open,34,1983-02-18
1,F,Elena Gamolina,Елена Гамолина,72.9,,,,,,75,75,B,Raw,No,70,75,-82.5,75,,,,,,,Masters 55-59,56,1961-01-17
DQ,M,Aleksandr Yastrebov,Александр Ястребов,64.7,,,,,,,67.5,B,Raw,No,-67.5,,,,,,,,,,Open,14,2002-12-21
1,M,Alizhan Eshchanov,Алижан Ешчанов,60.6,,,,,,85,67.5,B,Raw,No,80,85,-90,85,,,,,,,Masters 40-44,43,1974-08-25
1,M,Aleksandr Surikov,Александр Суриков,65.7,,,,,,75,67.5,B,Raw,No,65,70,75,75,,,,,,,Masters 60-64,62,1955-10-04
1,M,Ivan Mochalov,Иван Мочалов,74.9,,,,,,147.5,75,B,Raw,No,135,147.5,-155,147.5,,,,,,,Teen 18-19,19,1997-12-13
1,M,Aleksandr Sidorov,Александр Сидоров,74.6,,,,,,90,75,B,Raw,No,87.5,-90,90,90,,,,,,,Open,44,1973-07-30
1,M,Denis Kolesnikov,Денис Колесников,74.7,,,,,,127.5,75,B,Raw,No,120,122.5,127.5,127.5,,,,,,,Masters 40-44,42,1975-06-18
2,M,Aleksandr Sidorov,Александр Сидоров,74.6,,,,,,90,75,B,Raw,No,87.5,-90,90,90,,,,,,,Masters 40-44,44,1973-07-30
1,M,Fedor Sumarokov,Федор Сумароков,81.6,,,,,,157.5,82.5,B,Raw,No,142.5,150,157.5,157.5,,,,,,,Juniors 20-23,22,1995-02-24
1,M,Gennadiy Chelarskiy,Геннадий Челарский,81.9,,,,,,160,82.5,B,Raw,No,145,152.5,160,160,,,,,,,Open,25,1992-07-20
2,M,Andrey Smurov,Андрей Смуров,79,,,,,,145,82.5,B,Raw,No,140,145,-155,145,,,,,,,Open,27,1990-04-23
3,M,Aleksey Grobovoy,Алексей Гробовой,79.7,,,,,,137.5,82.5,B,Raw,No,130,-137.5,137.5,137.5,,,,,,,Open,30,1987-05-02
4,M,Sergey Surikov,Сергей Суриков,80.7,,,,,,122.5,82.5,B,Raw,No,115,120,122.5,122.5,,,,,,,Open,32,1985-03-30
5,M,David Mirzoev,Давид Мирзоев,80.4,,,,,,105,82.5,B,Raw,No,105,-110,-115,105,,,,,,,Open,30,1987-05-02
1,M,Aleksandr Mikhaylov,Александр Михайлов,81.6,,,,,,87.5,82.5,B,Raw,No,-80,82.5,87.5,87.5,,,,,,,Masters 55-59,59,1958-12-09
1,M,Anatoliy Rusakov,Анатолий Русаков,89.6,,,,,,200,90,B,Raw,No,190,195,200,200,,,,,,,Open,35,1982-03-11
2,M,Aleksey Shestov,Алексей Шестов,88.1,,,,,,182.5,90,B,Raw,No,170,175,182.5,182.5,,,,,,,Open,31,1986-12-03
3,M,Aleksey Starikov,Алексей Стариков,89.8,,,,,,175,90,B,Raw,No,-170,175,-180,175,,,,,,,Open,29,1988-03-09
4,M,Fedor Krivolap,Федор Криволап,88.7,,,,,,162.5,90,B,Raw,No,150,162.5,-175,162.5,,,,,,,Open,33,1984-05-22
5,M,Ilya Shmelev,Илья Шмелев,89.3,,,,,,157.5,90,B,Raw,No,155,-157.5,157.5,157.5,,,,,,,Open,24,1993-11-08
1,M,Sergey Ermakov,Сергей Ермаков,86.2,,,,,,105,90,B,Raw,No,90,97.5,105,105,,,,,,,Masters 40-44,42,1975-09-16
1,M,Sergey Rogozin,Сергей Рогозин,89.1,,,,,,190,90,B,Raw,No,180,185,190,190,,,,,,,Masters 45-49,46,1971-02-02
1,M,Ivan Solntsev,Иван Солнцев,99,,,,,,190,100,B,Raw,No,190,-200,-200,190,,,,,,,Open,43,1974-03-25
2,M,Sergey Luchinskiy,Сергей Лучинский,99.5,,,,,,187.5,100,B,Raw,No,175,185,187.5,187.5,,,,,,,Open,36,1981-11-12
3,M,Dmitriy Velikzarov,Дмитрий Великзаров,91,,,,,,160,100,B,Raw,No,140,150,160,160,,,,,,,Open,32,1985-04-01
1,M,Ivan Solntsev,Иван Солнцев,99,,,,,,190,100,B,Raw,No,190,-200,-200,190,,,,,,,Masters 40-44,43,1974-03-25
1,M,Sergey Abramov,Сергей Абрамов,105.1,,,,,,225,110,B,Raw,No,215,225,-230,225,,,,,,,Open,36,1981-08-03
2,M,Denis Deryagin,Денис Дерягин,108.3,,,,,,205,110,B,Raw,No,195,205,-210,205,,,,,,,Open,37,1980-02-28
3,M,Yuriy Antonov #3,Юрий Антонов,108.4,,,,,,200,110,B,Raw,No,185,195,200,200,,,,,,,Open,36,1981-03-02
4,M,Rustam Varaev,Рустам Вараев,107.7,,,,,,192.5,110,B,Raw,No,-192.5,-192.5,192.5,192.5,,,,,,,Open,33,1984-10-23
5,M,Sergey Kuznetsov,Сергей Кузнецов,107,,,,,,190,110,B,Raw,No,180,185,190,190,,,,,,,Open,34,1983-01-15
DQ,M,Konstantin Khramtsov,Константин Храмцов,105.7,,,,,,,110,B,Raw,No,-180,-180,-180,,,,,,,,Masters 40-44,43,1974-09-17
1,M,Aleksey Pukhov,Алексей Пухов,111,,,,,,220,125,B,Raw,No,205,215,220,220,,,,,,,Open,43,1974-02-08
2,M,Aleksey Mikhaylov,Алексей Михайлов,111,,,,,,215,125,B,Raw,No,205,210,215,215,,,,,,,Open,31,1986-07-23
3,M,Pavel Veresov,Павел Вересов,111.9,,,,,,212.5,125,B,Raw,No,207.5,210,212.5,212.5,,,,,,,Open,36,1981-12-05
4,M,Andrey Kolesnikov,Андрей Колесников,122.1,,,,,,205,125,B,Raw,No,-205,205,-215,205,,,,,,,Open,35,1982-01-19
1,M,Vyacheslav Biryukov,Вячеслав Бирюков,85.8,,,,,,130,90,B,Single-ply,Yes,130,-140,-140,130,,,,,,,Open,35,1982-08-07
1,M,Aleksey Berezhkov,Алексей Бережков,97,,,,,,200,100,B,Single-ply,Yes,-190,190,200,200,,,,,,,Open,35,1982-08-08
1,M,Dmitriy Patyupin,Дмитрий Патюпин,102.9,,,,,,240,110,B,Single-ply,Yes,230,240,-250,240,,,,,,,Open,26,1991-11-28
1,F,Anastasiya Dmitrieva,Анастасия Дмитриева,51.5,,,,,,60,52,B,Multi-ply,Yes,55,60,-62.5,60,,,,,,,Open,32,1985-04-08
1,M,Kalimulla Murzakhanov,Калимулла Мурзаханов,86.7,,,,,,150,90,B,Multi-ply,Yes,130,-150,150,150,,,,,,,Masters 60-64,62,1955-07-29
1,M,Mikhail Skvortsov,Михаил Скворцов,97.6,,,,,,205,100,B,Multi-ply,Yes,190,200,205,205,,,,,,,Masters 45-49,47,1970-04-19
1,M,Evgeniy Vasilev,Евгений Васильев,80.3,,,,,,210,82.5,B,Multi-ply,No,-210,210,-230,210,,,,,,,Open,34,1983-08-15
1,M,Vladimir Karandashev,Владимир Карандашев,89.8,,,,,,200,90,B,Multi-ply,No,180,190,200,200,,,,,,,Open,45,1972-03-12
1,M,Yuliy Grakhov,Юлий Грахов,92.9,,,,,,150,100,B,Multi-ply,No,130,140,150,150,,,,,,,Open,54,1963-08-17
DQ,M,Dmitriy Smirnov,Дмитрий Смирнов,127.4,,,,,,,140,B,Multi-ply,No,-300,-300,-300,,,,,,,,Open,35,1982-02-12
