Tested,Equipment,Place,Name,Division,BirthYear,Country,BodyweightKg,Squat1Kg,Squat2Kg,Squat3Kg,Best3SquatKg,Bench1Kg,Bench2Kg,Bench3Kg,Best3BenchKg,Deadlift1Kg,Deadlift2Kg,Deadlift3Kg,Best3DeadliftKg,TotalKg,WeightClassKg,Sex,CyrillicName,Event
Yes,Raw,1,Elena Ilina,Amateur Open,1990,Russia,45.7,80,90,-100,90,45,47.5,50,50,80,85,90,90,230,48,F,Елена Ильина,SBD
Yes,Raw,1,Elena Krakhmaleva,Amateur Open,1982,Russia,55.9,95,-100,-100,95,67.5,-72.5,-72.5,67.5,120,127.5,-132.5,127.5,290,56,F,Елена Крахмалева,SBD
Yes,Raw,1,Olga Dubok,Amateur Open,1988,Russia,59.7,-95,-95,95,95,-57.5,-57.5,57.5,57.5,100,105,-110,105,257.5,60,F,Ольга Дубок,SBD
Yes,Raw,1,Olga Dolinskaya,Amateur Open,1981,Russia,67,140,147.5,155,155,75,80,-85,80,160,165,170,170,405,67.5,F,Ольга Долинская,SBD
Yes,Raw,1,Mariya Pertsel,Amateur Open,1982,Russia,99,80,85,90,90,50,-52.5,,50,90,100,105,105,245,90+,F,Мария Перцель,SBD
Yes,Raw,DQ,Artem Basistov,Amateur Teen 16-17,1997,Russia,59.6,120,130,-140,130,-72.5,-72.5,-72.5,,,,,,,60,M,Артем Басистов,SBD
Yes,Raw,1,Leonid Bezdetnov,Amateur Teen 13-15,2001,Russia,65.4,95,100,107.5,107.5,57.5,62.5,65,65,-110,115,125,125,297.5,67.5,M,Леонид Бездетнов,SBD
Yes,Raw,1,Aleksandr Chertushkin,Amateur Teen 16-17,1997,Russia,66.1,90,95,100,100,65,70,72.5,72.5,100,110,115,115,287.5,67.5,M,Александр Чертушкин,SBD
Yes,Raw,1,Artem Zelenin,Amateur Teen 18-19,1996,Russia,67,130,-135,135,135,130,135,-140,135,160,167.5,172.5,172.5,442.5,67.5,M,Артем Зеленин,SBD
Yes,Raw,1,Anatoliy Kaygorodov,Amateur Juniors 20-23,1993,Russia,75,135,142.5,145,145,105,-112.5,-112.5,105,155,162.5,170,170,420,75,M,Анатолий Кайгородов,SBD
Yes,Raw,DQ,Anton Mardosa,Amateur Open,1985,Russia,71,-130,135,-140,135,-105,-105,-105,,,,,,,75,M,Антон Мардоса,SBD
Yes,Raw,1,Konstantin Sidenkov,Amateur Masters 45-49,1967,Russia,72.5,125,135,-142.5,135,110,115,-120,115,165,175,-180,175,425,75,M,Константин Сиденков,SBD
Yes,Raw,1,Artem Gulyaev,Amateur Juniors 20-23,,Russia,77.4,120,135,-145,135,105,110,-117.5,110,150,160,175,175,420,82.5,M,Артем Гуляев,SBD
Yes,Raw,1,Kirill Beloglazov,Amateur Juniors 20-23,1991,Russia,89.2,-175,185,195,195,120,130,-140,130,200,212.5,222.5,222.5,547.5,90,M,Кирилл Белоглазов,SBD
Yes,Raw,1,Sergey Litvinenko,Amateur Open,1979,Russia,90,200,-210,210,210,130,140,-145,140,227.5,247.5,-257.5,247.5,597.5,90,M,Сергей Литвиненко,SBD
Yes,Raw,1,Aleksey Batistov,Amateur Masters 40-44,1973,Russia,88.8,120,130,140,140,90,100,-105,100,140,160,177.5,177.5,417.5,90,M,Алексей Батистов,SBD
Yes,Raw,1,Vladislav Loginov,Amateur Juniors 20-23,1994,Russia,93.1,180,195,205,205,140,150,-160,150,185,195,205,205,560,100,M,Владислав Логинов,SBD
Yes,Raw,1,Yuriy Suslov,Amateur Open,1986,Russia,99,-185,185,-200,185,140,147.5,152.5,152.5,265,277.5,287.5,287.5,625,100,M,Юрий Суслов,SBD
Yes,Raw,2,Evgeniy Sokolov,Amateur Open,1984,Russia,95,165,170,175,175,152.5,155,-157.5,155,180,190,217.5,217.5,547.5,100,M,Евгений Соколов,SBD
Yes,Raw,3,Evgeniy Brylyakov,Amateur Open,1982,Russia,93,180,190,200,200,125,-130,-130,125,200,210,220,220,545,100,M,Евгений Брыляков,SBD
Yes,Raw,1,Andrey Solovyev,Amateur Masters 40-44,1972,Russia,98.2,-170,170,175,175,130,135,140,140,210,215,222.5,222.5,537.5,100,M,Андрей Соловьев,SBD
Yes,Raw,1,Anton Karpov,Amateur Teen 16-17,1998,Russia,104.8,-130,-132.5,132.5,132.5,140,147.5,-150,147.5,175,185,195,195,475,110,M,Антон Карпов,SBD
Yes,Raw,1,Aleksey Brednev,Amateur Masters 45-49,1969,Russia,120.3,220,230,,230,-167.5,167.5,172.5,172.5,270,-282.5,-282.5,270,672.5,125,M,Алексей Бреднев,SBD
Yes,Single-ply,1,Natalya Lukyanova,Amateur Open,1987,Russia,58.3,90,100,105,105,55,-60,-60,55,100,110,115,115,275,60,F,Наталья Лукьянова,SBD
Yes,Single-ply,1,Ilya Styapin,Amateur Open,1991,Russia,76.4,105,110,-120,110,-85,90,-95,90,140,150,165,165,365,82.5,M,Илья Стяпин,SBD
Yes,Single-ply,DQ,Aleksandr Kalinin,Amateur Open,1975,Russia,99.8,-240,-250,-255,,,,,,,,,,,100,M,Александр Калинин,SBD
Yes,Multi-ply,1,Andrey Glazunov,Amateur Teen 16-17,1998,Russia,58.9,130,150,160,160,80,90,-95,90,140,155,165,165,415,60,M,Андрей Глазунов,SBD
No,Raw,1,Regina Ibatullina,Pro Teen 18-19,1995,Russia,72.6,110,120,130,130,-57.5,62.5,-67.5,62.5,150,155,165,165,357.5,75,F,Регина Ибатуллина,SBD
No,Raw,1,Vladimir Motkov,Pro Teen 16-17,1997,Russia,66.5,160,170,-180,170,-120,-120,120,120,180,-190,190,190,480,67.5,M,Владимир Мотков,SBD
No,Raw,1,Dmitriy Yarmukhametov,Pro Open,1979,Russia,73.4,150,-155,160,160,115,-120,-122.5,115,190,195,200,200,475,75,M,Дмитрий Ярмухаметов,SBD
No,Raw,1,Andrey Shelepov,Pro Open,1970,Russia,87,190,200,205,205,165,172.5,-175,172.5,220,225,-230,225,602.5,90,M,Андрей Шелепов,SBD
No,Raw,2,Vladimir Smolyaninov,Pro Open,1979,Russia,88.5,220,-227.5,-227.5,220,140,145,150,150,205,215,220,220,590,90,M,Владимир Смолянинов,SBD
No,Raw,1,Andrey Shelepov,Pro Masters 40-44,1970,Russia,87,190,200,205,205,165,172.5,-175,172.5,220,225,-230,225,602.5,90,M,Андрей Шелепов,SBD
No,Raw,1,Maksim Khardin,Pro Open,1983,Russia,99.5,210,220,230,230,145,-155,-157.5,145,275,280,-310,280,655,100,M,Максим Хардин,SBD
No,Raw,2,Mikhail Mikushin,Pro Open,1975,Russia,97.8,180,190,200,200,110,120,125,125,200,220,-225,220,545,100,M,Михаил Микушин,SBD
No,Raw,1,Andrey Kryuchkov,Pro Open,1980,Russia,109.6,220,240,260,260,165,-175,-175,165,245,265,-280,265,690,110,M,Андрей Крючков,SBD
No,Single-ply,DQ,Irina Gorshkova,Pro Masters 40-44,1973,Russia,74.6,-170,-170,-175,,,,,,,,,,,75,F,Ирина Горшкова,SBD
No,Single-ply,1,Artem Reshetnikov,Pro Open,1989,Russia,106.8,260,275,290,290,200,212.5,220,220,260,270,-280,270,780,110,M,Артем Решетников,SBD
No,Multi-ply,1,Valeriy Glazunov,Pro Masters 65-69,1948,Russia,82.9,-260,260,280,280,160,175,182.5,182.5,210,230,-240,230,692.5,90,M,Валерий Глазунов,SBD
Yes,Raw,1,Kristina Koshutina,Amateur Open,1989,Russia,43.9,,,,,40,42.5,-45,42.5,,,,,42.5,44,F,Кристина Кошутина,B
Yes,Raw,2,Kseniya Bubnova,Amateur Open,1985,Russia,40.5,,,,,35,40,-42.5,40,,,,,40,44,F,Ксения Бубнова,B
Yes,Raw,1,Elena Ilina,Amateur Open,1990,Russia,45.7,,,,,45,50,52.5,52.5,,,,,52.5,48,F,Елена Ильина,B
Yes,Raw,1,Ayza Yarullina,Amateur Juniors 20-23,1994,Russia,51.9,,,,,47.5,50,-52.5,50,,,,,50,52,F,Айза Яруллина,B
Yes,Raw,1,Valentina Shadurskaya,Amateur Open,1987,Russia,52,,,,,-52.5,-52.5,52.5,52.5,,,,,52.5,52,F,Валентина Шадурская,B
Yes,Raw,2,Aleksandra Belik,Amateur Open,1989,Russia,49.3,,,,,45,-50,50,50,,,,,50,52,F,Александра Белик,B
Yes,Raw,1,Ekaterina Kalinina,Amateur Teen 16-17,1998,Russia,56,,,,,27.5,-32.5,32.5,32.5,,,,,32.5,56,F,Екатерина Калинина,B
Yes,Raw,1,Elena Krakhmaleva,Amateur Open,1982,Russia,55.9,,,,,70,72.5,-75,72.5,,,,,72.5,56,F,Елена Крахмалева,B
Yes,Raw,2,Ekaterina Karavaeva,Amateur Open,1985,Russia,55.1,,,,,45,-50,-55,45,,,,,45,56,F,Екатерина Караваева,B
Yes,Raw,1,Anna Galayda,Amateur Masters 40-44,1975,Russia,55,,,,,62.5,65,67.5,67.5,,,,,67.5,56,F,Анна Галайда,B
Yes,Raw,1,Alena Lutkova,Amateur Juniors 20-23,1994,Russia,59.8,,,,,35,40,-45,40,,,,,40,60,F,Алена Луткова,B
Yes,Raw,1,Ekaterina Ignatova,Amateur Juniors 20-23,1995,Russia,65.3,,,,,70,72.5,75,75,,,,,75,67.5,F,Екатерина Игнатова,B
Yes,Raw,1,Olga Bal,Amateur Open,1986,Russia,60.7,,,,,30,35,-40,35,,,,,35,67.5,F,Ольга Баль,B
Yes,Raw,DQ,Tatyana Petukhova,Amateur Open,1989,Russia,63.5,,,,,-62.5,-65,-65,,,,,,,67.5,F,Татьяна Петухова,B
Yes,Raw,1,Rashit Nasyrov,Amateur Masters 45-49,1969,Russia,55.2,,,,,85,90,-92.5,90,,,,,90,56,M,Рашит Насыров,B
Yes,Raw,1,Konstantin Churakov,Amateur Youth,2003,Russia,58.7,,,,,52.5,55,-57.5,55,,,,,55,60,M,Константин Чураков,B
Yes,Raw,1,Maksim Akhiyarov,Amateur Teen 16-17,1998,Russia,59.5,,,,,90,92.5,-97.5,92.5,,,,,92.5,60,M,Максим Ахияров,B
Yes,Raw,1,Aleksandr Chertushkin,Amateur Teen 16-17,1997,Russia,66.1,,,,,-70,70,-75,70,,,,,70,67.5,M,Александр Чертушкин,B
Yes,Raw,1,Artem Zelenin,Amateur Teen 18-19,1996,Russia,67,,,,,132.5,-137.5,137.5,137.5,,,,,137.5,67.5,M,Артем Зеленин,B
Yes,Raw,DQ,Vadim Timerbulatov,Amateur Open,1988,Russia,65.7,,,,,-120,-122.5,-125,,,,,,,67.5,M,Вадим Тимербулатов,B
Yes,Raw,DQ,Sergey Kostyuchenko,Amateur Open,1986,Russia,66.7,,,,,-107.5,-107.5,,,,,,,,67.5,M,Сергей Костюченко,B
Yes,Raw,1,Aleksandr Anufriev,Amateur Teen 18-19,1995,Russia,74,,,,,115,120,-122.5,120,,,,,120,75,M,Александр Ануфриев,B
Yes,Raw,1,Igor Panov,Amateur Juniors 20-23,1992,Russia,73.8,,,,,130,135,137.5,137.5,,,,,137.5,75,M,Игорь Панов,B
Yes,Raw,2,Daniil Khasanov,Amateur Juniors 20-23,1994,Russia,72.5,,,,,102.5,117.5,-122.5,117.5,,,,,117.5,75,M,Даниил Хасанов,B
Yes,Raw,1,Pavel Mezentsev,Amateur Open,1985,Russia,73,,,,,130,-140,140,140,,,,,140,75,M,Павел Мезенцев,B
Yes,Raw,2,Anton Karavaev,Amateur Open,1981,Russia,73.2,,,,,-117.5,-117.5,117.5,117.5,,,,,117.5,75,M,Антон Караваев,B
Yes,Raw,1,Oleg Schegolikhin,Amateur Masters 45-49,1967,Russia,73,,,,,130,135,-137.5,135,,,,,135,75,M,Олег Щеголихин,B
Yes,Raw,1,Ivan Zyablikov,Amateur Masters 65-69,1948,Russia,74.4,,,,,115,120,-125,120,,,,,120,75,M,Иван Зябликов,B
Yes,Raw,1,Artem Yazov,Amateur Teen 13-15,2000,Russia,80.4,,,,,75,80,-85,80,,,,,80,82.5,M,Артем Язов,B
Yes,Raw,1,Denis Gavrilov,Amateur Teen 18-19,1996,Russia,81.2,,,,,115,122.5,127.5,127.5,,,,,127.5,82.5,M,Денис Гаврилов,B
Yes,Raw,1,Maksim Kryukov,Amateur Open,1985,Russia,80.9,,,,,162.5,167.5,172.5,172.5,,,,,172.5,82.5,M,Максим Крюков,B
Yes,Raw,1,Nikolay Shulepov,Amateur Masters 40-44,1973,Russia,81.6,,,,,140,145,-150,145,,,,,145,82.5,M,Николай Шулепов,B
Yes,Raw,1,Nikolay Shatalov,Amateur Masters 45-49,1969,Russia,82.5,,,,,125,130,-135,130,,,,,130,82.5,M,Николай Шаталов,B
Yes,Raw,1,Kirill Kinner,Amateur Teen 16-17,1997,Russia,89.3,,,,,95,-100,-100,95,,,,,95,90,M,Кирилл Киннер,B
Yes,Raw,1,Pavel Baykin,Amateur Teen 18-19,1996,Russia,85.6,,,,,95,100,-102.5,100,,,,,100,90,M,Павел Байкин,B
Yes,Raw,DQ,Vladislav Zinakaev,Amateur Teen 18-19,1996,Russia,88.3,,,,,-145,-152.5,-152.5,,,,,,,90,M,Владислав Зинакаев,B
Yes,Raw,1,Aleksey Novoselov,Amateur Open,1979,Russia,89,,,,,152.5,162.5,-175,162.5,,,,,162.5,90,M,Алексей Новоселов,B
Yes,Raw,2,Dmitriy Voropaev,Amateur Open,1988,Russia,88.3,,,,,145,155,160,160,,,,,160,90,M,Дмитрий Воропаев,B
Yes,Raw,3,Sergey Kolosov,Amateur Open,1988,Russia,86.9,,,,,147.5,-152.5,-152.5,147.5,,,,,147.5,90,M,Сергей Колосов,B
Yes,Raw,DQ,Nikolay Suslov,Amateur Open,1985,Russia,89.3,,,,,125,132.5,140,140,,,,,,90,M,Николай Суслов,B
Yes,Raw,DQ,Egor Goryunov,Amateur Open,1988,Russia,89.2,,,,,127.5,132.5,137.5,137.5,,,,,,90,M,Егор Горюнов,B
Yes,Raw,DQ,Lev Masyuk,Amateur Open,1988,Russia,86.5,,,,,132.5,,,132.5,,,,,,90,M,Лев Масюк,B
Yes,Raw,1,Andrey Godunin,Amateur Masters 45-49,1969,Russia,85.9,,,,,130,-132.5,-132.5,130,,,,,130,90,M,Андрей Годунин,B
Yes,Raw,1,Aleksandr Yarin,Amateur Masters 50-54,1960,Russia,88.5,,,,,117.5,122.5,127.5,127.5,,,,,127.5,90,M,Александр Ярин,B
Yes,Raw,1,Anton Karpov,Amateur Teen 16-17,1998,Russia,94,,,,,142.5,147.5,-150,147.5,,,,,147.5,100,M,Антон Карпов,B
Yes,Raw,2,Mikhail Vorozhnin,Amateur Teen 16-17,1997,Russia,94.7,,,,,-85,85,-90,85,,,,,85,100,M,Михаил Ворожнин,B
Yes,Raw,1,Vladimir Shmidt,Amateur Open,1985,Russia,99.8,,,,,177.5,-185,-185,177.5,,,,,177.5,100,M,Владимир Шмидт,B
Yes,Raw,2,Roman Ivshin,Amateur Open,1978,Russia,97.7,,,,,170,-175,-177.5,170,,,,,170,100,M,Роман Ившин,B
Yes,Raw,3,Evgeniy Sokolov,Amateur Open,1984,Russia,95,,,,,152.5,-157.5,-162.5,152.5,,,,,152.5,100,M,Евгений Соколов,B
Yes,Raw,1,Andrey Zhebelev,Amateur Masters 50-54,1962,Russia,94.8,,,,,110,120,-125,120,,,,,120,100,M,Андрей Жебелев,B
Yes,Raw,1,Petr Komarov,Amateur Masters 55-59,1958,Russia,96.5,,,,,150,162.5,170,170,,,,,170,100,M,Петр Комаров,B
Yes,Raw,2,Ivan Chevardin,Amateur Masters 55-59,1958,Russia,98.9,,,,,157.5,162.5,-167.5,162.5,,,,,162.5,100,M,Иван Чевардин,B
Yes,Raw,1,Vyacheslav Zhukov #2,Amateur Open,1991,Russia,106.2,,,,,150,157.5,167.5,167.5,,,,,167.5,110,M,Вячеслав Жуков,B
Yes,Raw,1,Dmitriy Kosarev,Amateur Masters 40-44,1972,Russia,109.8,,,,,180,185,190,190,,,,,190,110,M,Дмитрий Косарев,B
Yes,Raw,2,Oleg Shepilenko,Amateur Masters 40-44,1971,Russia,106.9,,,,,160,-167.5,167.5,167.5,,,,,167.5,110,M,Олег Шепиленко,B
Yes,Raw,1,Mikhail Pyatkov,Amateur Masters 55-59,1958,Russia,107.6,,,,,150,-160,-160,150,,,,,150,110,M,Михаил Пятков,B
Yes,Raw,1,Anatoliy Lukyanov,Amateur Masters 65-69,1949,Russia,112.3,,,,,120,125,-130,125,,,,,125,125,M,Анатолий Лукьянов,B
Yes,Raw,1,Sergey Lazarev,Amateur Masters 50-54,1960,Russia,144.5,,,,,125,132.5,-135,132.5,,,,,132.5,140+,M,Сергей Лазарев,B
Yes,Single-ply,1,Natalya Gomaleeva,Amateur Open,1985,Russia,71.5,,,,,105,112.5,120,120,,,,,120,75,F,Наталья Гомалеева,B
Yes,Single-ply,1,Sergey Lysyakov,Amateur Open,1980,Russia,67.2,,,,,157.5,162.5,165,165,,,,,165,67.5,M,Сергей Лысяков,B
Yes,Single-ply,1,Stepan Skripin,Amateur Teen 16-17,1997,Russia,67.6,,,,,-130,135,-140,135,,,,,135,75,M,Степан Скрипин,B
Yes,Single-ply,1,Artem Bykhovets,Amateur Open,1983,Russia,82.4,,,,,195,205,-215,205,,,,,205,82.5,M,Артем Быховец,B
Yes,Single-ply,1,Kirill Korikov,Amateur Juniors 20-23,1994,Russia,87.5,,,,,-152.5,152.5,-157.5,152.5,,,,,152.5,90,M,Кирилл Кориков,B
Yes,Single-ply,1,Dmitriy Ovcharov,Amateur Open,1989,Russia,89.8,,,,,230,-240,,230,,,,,230,90,M,Дмитрий Овчаров,B
Yes,Single-ply,DQ,Kirill Andreev,Amateur Juniors 20-23,1994,Russia,114.5,,,,,-190,-190,-190,,,,,,,125,M,Кирилл Андреев,B
Yes,Single-ply,1,Ilya Nalimov,Amateur Open,1988,Russia,130.9,,,,,270,280,292.5,292.5,,,,,292.5,140,M,Илья Налимов,B
No,Raw,1,Yuliya Tatyanina,Pro Open,1989,Russia,54.3,,,,,90,95,-97.5,95,,,,,95,56,F,Юлия Татьянина,B
No,Raw,1,Roman Utyumov,Pro Teen 13-15,2000,Russia,54.6,,,,,-40,45,50,50,,,,,50,56,M,Роман Утюмов,B
No,Raw,1,Aleksandr Melnikov,Pro Teen 16-17,1999,Russia,59.7,,,,,60,62.5,67.5,67.5,,,,,67.5,60,M,Александр Мельников,B
No,Raw,1,Semen Glushkov,Pro Teen 16-17,1998,Russia,67,,,,,90,95,100,100,,,,,100,67.5,M,Семен Глушков,B
No,Raw,1,Kirill Zavatskiy,Pro Teen 13-15,2000,Russia,74.5,,,,,70,-72.5,-72.5,70,,,,,70,75,M,Кирилл Завацкий,B
No,Raw,2,Nikolay Zinovyev,Pro Teen 13-15,2000,Russia,70,,,,,-57.5,62.5,65,65,,,,,65,75,M,Николай Зиновьев,B
No,Raw,1,Ivan Krupin,Pro Teen 16-17,1998,Russia,74.2,,,,,105,110,115,115,,,,,115,75,M,Иван Крупин,B
No,Raw,1,Vladislav Sabarov,Pro Open,1983,Russia,72.8,,,,,130,140,-145,140,,,,,140,75,M,Владислав Сабаров,B
No,Raw,1,Sergey Kozhokin,Pro Masters 45-49,1969,Russia,73.8,,,,,130,137.5,-140,137.5,,,,,137.5,75,M,Сергей Кожокин,B
No,Raw,1,Mikhail Shatunov,Pro Teen 16-17,1998,Russia,79.5,,,,,100,110,115,115,,,,,115,82.5,M,Михаил Шатунов,B
No,Raw,1,Evgeniy Polyakov,Pro Open,1985,Russia,81.6,,,,,160,170,175,175,,,,,175,82.5,M,Евгений Поляков,B
No,Raw,2,Eduard Nozhkov,Pro Open,1975,Russia,80,,,,,145,155,-160,155,,,,,155,82.5,M,Эдуард Ножков,B
No,Raw,1,Andrey Mashukov,Pro Juniors 20-23,1992,Russia,88.5,,,,,180,-190,190,190,,,,,190,90,M,Андрей Машуков,B
No,Raw,2,Nikolay Rozenko,Pro Juniors 20-23,1993,Russia,85.9,,,,,120,-130,130,130,,,,,130,90,M,Николай Розенко,B
No,Raw,1,Andrey Mashukov,Pro Open,1992,Russia,88.5,,,,,180,-190,190,190,,,,,190,90,M,Андрей Машуков,B
No,Raw,2,Pavel Golubtsov,Pro Open,1976,Russia,89.9,,,,,180,187.5,-192.5,187.5,,,,,187.5,90,M,Павел Голубцов,B
No,Raw,3,Andrey Faktulin,Pro Open,1991,Russia,85.7,,,,,170,180,-190,180,,,,,180,90,M,Андрей Фактулин,B
No,Raw,4,Aleksey Chubarev,Pro Open,1990,Russia,89.3,,,,,160,170,-175,170,,,,,170,90,M,Алексей Чубарев,B
No,Raw,1,Igor Novikov,Pro Masters 50-54,1962,Russia,89,,,,,110,117.5,122.5,122.5,,,,,122.5,90,M,Игорь Новиков,B
No,Raw,1,Egor Agashin,Pro Teen 16-17,1997,Russia,95.3,,,,,115,120,125,125,,,,,125,100,M,Егор Агашин,B
No,Raw,DQ,Aleksandr Istomin,Pro Teen 16-17,1998,Russia,98.5,,,,,-110,-110,-110,,,,,,,100,M,Александр Истомин,B
No,Raw,1,Aleksandr Morev,Pro Juniors 20-23,1991,Russia,99.8,,,,,150,160,-165,160,,,,,160,100,M,Александр Морев,B
No,Raw,1,Ilya Aleksandrov,Pro Open,1989,Russia,94.5,,,,,167.5,-170,-170,167.5,,,,,167.5,100,M,Илья Александров,B
No,Raw,2,Arseniy Klevakin,Pro Open,1979,Russia,97,,,,,165,167.5,-170,167.5,,,,,167.5,100,M,Арсений Клевакин,B
No,Raw,1,Igor Khramtsov,Pro Masters 40-44,1973,Russia,99,,,,,160,170,,170,,,,,170,100,M,Игорь Храмцов,B
No,Raw,2,Aleksey Ivanov,Pro Masters 40-44,1974,Russia,99.5,,,,,100,115,-120,115,,,,,115,100,M,Алексей Иванов,B
No,Raw,1,Evgeniy Mikheev,Pro Juniors 20-23,1991,Russia,101.4,,,,,180,190,200,200,,,,,200,110,M,Евгений Михеев,B
No,Raw,1,Vladimir Beloglazov,Pro Open,1969,Russia,102,,,,,185,192.5,-202.5,192.5,,,,,192.5,110,M,Владимир Белоглазов,B
No,Raw,2,Dmitriy Vasyukov,Pro Open,1978,Russia,108.2,,,,,187.5,-197.5,-197.5,187.5,,,,,187.5,110,M,Дмитрий Васюков,B
No,Raw,1,Vladimir Beloglazov,Pro Masters 45-49,1969,Russia,102,,,,,185,192.5,-202.5,192.5,,,,,192.5,110,M,Владимир Белоглазов,B
No,Single-ply,1,Egor Komar,Pro Teen 18-19,1996,Russia,89.7,,,,,197.5,205,-210,205,,,,,205,90,M,Егор Комар,B
No,Single-ply,1,Eduard Isakov,Pro Masters 45-49,1966,Russia,86.2,,,,,200,-220,-220,200,,,,,200,90,M,Эдуард Исаков,B
No,Single-ply,1,Anton Lazarevskiy,Pro Open,1989,Russia,99.8,,,,,240,252.5,255,255,,,,,255,100,M,Антон Лазаревский,B
No,Single-ply,2,Dmitriy Tsymbalistyy,Pro Open,1978,Russia,100,,,,,240,-252.5,252.5,252.5,,,,,252.5,100,M,Дмитрий Цымбалистый,B
No,Single-ply,DQ,Dmitriy Borovikov,Pro Juniors 20-23,1993,Russia,108.6,,,,,-225,-225,-232.5,,,,,,,110,M,Дмитрий Боровиков,B
No,Multi-ply,1,Stanislav Lukin,Pro Open,1989,Russia,79.9,,,,,170,180,190,190,,,,,190,82.5,M,Станислав Лукин,B
No,Multi-ply,1,Yuriy Kornilov,Pro Open,1981,Russia,97.3,,,,,-220,220,-235,220,,,,,220,100,M,Юрий Корнилов,B
No,Multi-ply,DQ,Aleksandr Tretyakov,Pro Open,1967,Russia,107.4,,,,,-315,-315,-330,,,,,,,110,M,Александр Третьяков,B
Yes,Raw,1,Kseniya Bubnova,Amateur Open,1985,Russia,40.5,,,,,,,,,60,65,70,70,70,44,F,Ксения Бубнова,D
Yes,Raw,1,Regina Nikulina,Amateur Teen 16-17,1998,Russia,47.2,,,,,,,,,80,85,92.5,92.5,92.5,48,F,Регина Никулина,D
Yes,Raw,1,Valentina Litvinenko,Amateur Open,1981,Russia,48,,,,,,,,,110,-122.5,-122.5,110,110,48,F,Валентина Литвиненко,D
Yes,Raw,1,Dinara Khanafieva,Amateur Open,1981,Russia,58.4,,,,,,,,,115,120,127.5,127.5,127.5,60,F,Динара Ханафиева,D
Yes,Raw,2,Natalya Lukyanova,Amateur Open,1987,Russia,58.3,,,,,,,,,-110,110,,110,110,60,F,Наталья Лукьянова,D
Yes,Raw,DQ,Polina Ivanova,Amateur Open,1986,Russia,59.5,,,,,,,,,-127.5,-137.5,-137.5,,,60,F,Полина Иванова,D
Yes,Raw,1,Olga Dolinskaya,Amateur Open,1981,Russia,67,,,,,,,,,165,177.5,185,185,185,67.5,F,Ольга Долинская,D
Yes,Raw,1,Aleksandr Anufriev,Amateur Teen 18-19,1995,Russia,74,,,,,,,,,170,-177.5,177.5,177.5,177.5,75,M,Александр Ануфриев,D
Yes,Raw,1,Pavel Valger,Amateur Juniors 20-23,1992,Russia,73.8,,,,,,,,,177.5,-180,-180,177.5,177.5,75,M,Павел Вальгер,D
Yes,Raw,1,Konstantin Zykov,Amateur Open,1987,Russia,73.3,,,,,,,,,175,190,202.5,202.5,202.5,75,M,Константин Зыков,D
Yes,Raw,1,Anton Petrov,Amateur Teen 16-17,1998,Russia,81.8,,,,,,,,,175,-185,-185,175,175,82.5,M,Антон Петров,D
Yes,Raw,2,Roman Savelkov,Amateur Teen 16-17,1997,Russia,79.6,,,,,,,,,140,-150,-150,140,140,82.5,M,Роман Савелков,D
Yes,Raw,3,Roman Kalyugin,Amateur Teen 16-17,1997,Russia,78.6,,,,,,,,,90,100,-110,100,100,82.5,M,Роман Калюгин,D
Yes,Raw,1,Yuriy Pashnin,Amateur Open,1984,Russia,80.6,,,,,,,,,185,,,185,185,82.5,M,Юрий Пашнин,D
Yes,Raw,1,Aleksey Sidelkin,Amateur Masters 60-64,1953,Russia,75.7,,,,,,,,,185,190,-192.5,190,190,82.5,M,Алексей Седелкин,D
Yes,Raw,1,Kirill Kinner,Amateur Teen 16-17,1997,Russia,89.3,,,,,,,,,140,155,-170,155,155,90,M,Кирилл Киннер,D
Yes,Raw,1,Dmitriy Voropaev,Amateur Open,1988,Russia,88.3,,,,,,,,,235,245,255,255,255,90,M,Дмитрий Воропаев,D
Yes,Raw,2,Maksim Vysotskiy,Amateur Open,1987,Russia,88.9,,,,,,,,,175,185,195,195,195,90,M,Максим Высоцкий,D
Yes,Raw,1,Daniil Brednev,Amateur Juniors 20-23,1994,Russia,96.8,,,,,,,,,220,225,-232.5,225,225,100,M,Даниил Бреднев,D
Yes,Raw,1,Yuriy Suslov,Amateur Open,1986,Russia,99,,,,,,,,,250,270,280,280,280,100,M,Юрий Суслов,D
Yes,Raw,1,Ivan Oshurkov,Amateur Open,1987,Russia,108.6,,,,,,,,,220,230,-240,230,230,110,M,Иван Ошурков,D
Yes,Raw,1,Mikhail Pyatkov,Amateur Masters 55-59,1958,Russia,107.6,,,,,,,,,-220,220,-240,220,220,110,M,Михаил Пятков,D
Yes,Raw,1,Vitaliy Zhilenko,Amateur Juniors 20-23,1991,Russia,70,,,,,80,-85,,80,,,,,80,75,M,Виталий Жиленко,B
No,Raw,1,Roman Zavyalov,Pro Open,1979,Russia,79.5,,,,,,,,,260,280,-292.5,280,280,82.5,M,Роман Завьялов,D
No,Raw,1,Ditriy Ivanov,Pro Juniors 20-23,1993,Russia,87.6,,,,,,,,,200,215,230,230,230,90,M,Дитрий Иванов,D
No,Raw,1,Aleksandr Akhlyustin,Pro Open,1990,Russia,88.5,,,,,,,,,260,-265,265,265,265,90,M,Александр Ахлюстин,D
No,Raw,1,Arseniy Klevakin,Pro Open,1979,Russia,97,,,,,,,,,235,250,-260,250,250,100,M,Арсений Клевакин,D
No,Single-ply,1,Irina Gorshkova,Pro Masters 40-44,1973,Russia,74.6,,,,,,,,,175,-202.5,,175,175,75,F,Ирина Горшкова,D
No,Single-ply,1,Andrey Mitrofanov,Pro Open,1978,Russia,87.6,,,,,,,,,-270,270,-290,270,270,90,M,Андрей Митрофанов,D
No,Single-ply,1,Konstantin Maltsev,Pro Open,1974,Russia,116.4,,,,,,,,,290,305,-315,305,305,125,M,Константин Мальцев,D
No,Single-ply,1,Konstantin Maltsev,Pro Masters 40-44,1974,Russia,116.4,,,,,,,,,290,305,-315,305,305,125,M,Константин Мальцев,D
