Place,Sex,Name,CyrillicName,BodyweightKg,Country,Squat1Kg,Squat2Kg,Squat3Kg,Best3SquatKg,Squat4Kg,Bench1Kg,Bench2Kg,Bench3Kg,Best3BenchKg,Bench4Kg,Deadlift1Kg,Deadlift2Kg,Deadlift3Kg,Best3DeadliftKg,Deadlift4Kg,TotalKg,WeightClassKg,Event,Equipment,Tested,Division,Age,BirthDate
1,F,Yuliya Degtyareva,Юлия Дегтярева,47.7,Russia,100,105,110,110,,60,-65,-65,60,,135,140,145,145,150,315,48,SBD,Raw,Yes,Open,30,1990-09-08
2,F,Elena Kochetkova,Елена Кочеткова,46.8,Russia,-85,85,90,90,,55,57.5,-60,57.5,,100,105,110,110,,257.5,48,SBD,Raw,Yes,Open,29,1991-10-20
1,F,Elena Yudina,Елена Юдина,55.6,Russia,60,65,70,70,,37.5,42.5,45,45,,65,70,72.5,72.5,,187.5,56,SBD,Raw,Yes,Open,35,1985-05-03
DQ,F,Evgeniya Balyakina,Евгения Балякина,54.45,Russia,-95,-95,-95,,,,,,,,,,,,,,56,SBD,Raw,Yes,Open,29,1990-12-15
1,F,Oksana Korchagina,Оксана Корчагина,59.5,Russia,82.5,87.5,92.5,92.5,,50,55,57.5,57.5,,95,102.5,105,105,,255,60,SBD,Raw,Yes,Open,36,1984-08-22
2,F,Yuliya Reveguk,Юлия Ревегук,60,Russia,80,-85,87.5,87.5,,42.5,47.5,-50,47.5,,100,-110,-120,100,,235,60,SBD,Raw,Yes,Open,35,1985-05-27
3,F,Anastasiya Sosnovskaya,Анастасия Сосновская,58.9,Russia,70,-75,77.5,77.5,,40,45,47.5,47.5,,85,-90,90,90,,215,60,SBD,Raw,Yes,Open,26,1994-08-09
1,F,Zhanna Ivanova #2,Жанна Иванова,63.9,Russia,105,110,115,115,,65,70,-75,70,,135,145,150,150,,335,67.5,SBD,Raw,Yes,Open,38,1982-06-04
2,F,Natalya Myasina,Наталья Мясина,66.1,Russia,67.5,-72.5,75,75,,45,50,-55,50,,85,90,95,95,,220,67.5,SBD,Raw,Yes,Open,35,1985-02-12
1,F,Olga Rysina,Ольга Рысина,67.7,Russia,-87.5,90,95,95,,42.5,47.5,50,50,,100,110,120,120,,265,75,SBD,Raw,Yes,Open,39,1981-04-27
1,M,Dmitriy Khodkin,Дмитрий Ходкин,74.95,Russia,100,120,135,135,,77.5,87.5,-92.5,87.5,,152.5,170,-182.5,170,,392.5,75,SBD,Raw,Yes,Teen 16-17,17,2002-12-20
1,M,Semen Malyutin,Семен Малютин,74.1,Russia,150,155,160,160,,-120,120,127.5,127.5,,150,160,165,165,,452.5,75,SBD,Raw,Yes,Open,27,1993-10-28
1,M,Vladimir Zhakin,Владимир Жакин,74.75,Russia,115,120,-125,120,,85,90,-92.5,90,,130,137.5,-140.5,137.5,,347.5,75,SBD,Raw,Yes,Masters 65-69,68,1952-09-15
1,M,Denis Balabin,Денис Балабин,90,Russia,200,-210,-210,200,,130,137.5,-142.5,137.5,,240,257.5,-262.5,257.5,,595,90,SBD,Raw,Yes,Open,41,1978-11-06
2,M,Dmitriy Suprunov,Дмитрий Супрунов,89.2,Russia,190,200,205,205,,137.5,145,-150,145,,205,215,227.5,227.5,,577.5,90,SBD,Raw,Yes,Open,31,1989-06-08
3,M,Artem Vostroknutov,Артем Вострокнутов,85.65,Russia,-180,180,-200,180,,125,-132.5,-132.5,125,,210,225,-240,225,,530,90,SBD,Raw,Yes,Open,35,1985-09-10
1,M,Denis Balabin,Денис Балабин,90,Russia,200,-210,-210,200,,130,137.5,-142.5,137.5,,240,257.5,-262.5,257.5,,595,90,SBD,Raw,Yes,Masters 40-44,41,1978-11-06
1,M,Artyom Osipenko,Артём Осипенко,92.6,Russia,115,-125,127.5,127.5,,55,60,65,65,,-125,125,135,135,,327.5,100,SBD,Raw,Yes,Teen 13-15,14,2005-11-24
1,M,Denis Pavlikov,Денис Павликов,97.4,Russia,140,-155,155,155,,82.5,87.5,95,95,,145,155,160,160,,410,100,SBD,Raw,Yes,Teen 18-19,19,2001-05-24
DQ,M,Gleb Zubakov,Глеб Зубаков,97.2,Russia,-210,-210,-210,,,,,,,,,,,,,,100,SBD,Raw,Yes,Open,29,1991-06-06
1,M,Aleksandr Ilin,Александр Ильин,99.8,Russia,205,215,220,220,,150,-155,155,155,,255,265,275,275,,650,100,SBD,Raw,Yes,Masters 55-59,55,1964-11-20
1,M,Evgeniy Karpov,Евгений Карпов,73.8,Russia,190,200,205.5,205.5,,135,140.5,-145,140.5,,-190,190,202.5,202.5,210.5,548.5,75,SBD,Wraps,Yes,Masters 40-44,41,1979-10-26
1,F,Olga Batinova,Ольга Батинова,72.45,Russia,-85,85,90,90,,-47.5,-52.5,52.5,52.5,,-95,-105,105,105,,247.5,75,SBD,Wraps,No,Masters 45-49,46,1974-09-22
1,M,Artyom Lazarev,Артём Лазарев,80.7,Russia,230,240,,240,,160,165,-170,165,,230,245,-255,245,,650,82.5,SBD,Wraps,No,Juniors 20-23,22,1997-12-09
2,M,Ilya Zhdanov,Илья Жданов,80.6,Russia,175,-190,-190,175,,120,-125,-130,120,,195,-205,207.5,207.5,,502.5,82.5,SBD,Wraps,No,Juniors 20-23,23,1997-05-28
1,M,Vladimr Fomin,Владимр Фомин,82.45,Russia,-250,250,260,260,,-160,160,175,175,,245,-255,-255,245,,680,82.5,SBD,Wraps,No,Open,31,1989-06-01
2,M,Artyom Lazarev,Артём Лазарев,80.7,Russia,230,240,,240,,160,165,-170,165,,230,245,-255,245,,650,82.5,SBD,Wraps,No,Open,22,1997-12-09
3,M,Anton Medvednikov,Антон Медведников,76,Russia,200,-205,-205,200,,-140,140,145,145,,210,215,-217.5,215,,560,82.5,SBD,Wraps,No,Open,32,1988-01-24
4,M,Nikita Burdinskiy,Никита Бурдинский,78,Russia,-180,190,-210,190,,110,125,135,135,,180,200,-210,200,,525,82.5,SBD,Wraps,No,Open,26,1994-10-07
1,M,Sergey Maksimov,Сергей Максимов,89.75,Russia,260,285,-300,285,,170,180,185,185,,290,305,310,310,,780,90,SBD,Wraps,No,Open,31,1989-07-26
DQ,M,Denis Savichev,Денис Савичев,85.2,Russia,-180,-180,-180,,,,,,,,,,,,,,90,SBD,Wraps,No,Open,27,1993-08-28
1,M,Aleksandr Yudaev,Александр Юдаев,96.5,Russia,-305,305,-325,305,,190,202.5,-210,202.5,,275,290,310,310,,817.5,100,SBD,Wraps,No,Open,26,1994-02-10
1,M,Fedor Vershinin,Федор Вершинин,112.5,Russia,260,275,-280,275,,205,215,222.5,222.5,,290,310,-320,310,,807.5,125,SBD,Wraps,No,Open,27,1992-12-03
1,F,Kristina Podolskaya,Кристина Подольская,59,Russia,,,,,,55,57.5,-60,57.5,,135,-142.5,,135,,192.5,60,BD,Raw,Yes,Open,30,1990-05-09
1,M,Ivan Vasilenko,Иван Василенко,85.75,Russia,,,,,,150,-155,155,155,,200,210,220,220,,375,90,BD,Raw,Yes,Open,35,1985-06-20
2,M,Artem Vostroknutov,Артем Вострокнутов,85.65,Russia,,,,,,125,-132.5,-132.5,125,,210,225,-240,225,,350,90,BD,Raw,Yes,Open,35,1985-09-10
1,M,Aleksey Shustrov,Алексей Шустров,96.45,Russia,,,,,,100,110,115,115,,160,175,-185,175,,290,100,BD,Raw,Yes,Masters 40-44,44,1976-09-01
1,M,Andrey Fomin,Андрей Фомин,89.6,Russia,,,,,,165,172.5,177.5,177.5,,255,275,-285,275,,452.5,90,BD,Raw,No,Open,38,1982-04-02
1,F,Svetlana Samoylova,Светлана Самойлова,59.95,Russia,100,105,-110,105,,60,62.5,65,65,,130,-145,145,145,,315,60,SBD,Raw,No,Open,47,1973-07-28
1,F,Irina Yaroshenko,Ирина Ярошенко,98.8,Russia,145,-155,160,160,,87.5,95,100,100,,170,180,190,190,,450,90+,SBD,Raw,No,Open,33,1986-12-04
1,M,Sergey Kuznetsov,Сергей Кузнецов,54.65,Russia,-80,80,-82.5,80,,80,82.5,85,85,,-107.5,107.5,-110,107.5,,272.5,56,SBD,Raw,No,Open,38,1982-08-31
1,M,Vladislav Akulov,Владислав Акулов,147.2,Russia,130,150,160,160,,80,90,-102.5,90,,150,170,185,185,,435,140+,SBD,Raw,No,Teen 16-17,17,2003-04-20
1,M,Aleksandr Nemchinov,Александр Немчинов,89.95,Russia,170,-180,180,180,,,,,,,,,,,,180,90,S,Raw,No,Masters 65-69,68,1951-11-10
1,F,Evgeniya Balyasina,Евгения Балясина,46.5,Russia,,,,,,-70,-70,70,70,-75,,,,,,70,48,B,Raw,Yes,Open,31,1989-05-21
2,F,Elena Kochetkova,Елена Кочеткова,46.8,Russia,,,,,,55,57.5,-60,57.5,,,,,,,57.5,48,B,Raw,Yes,Open,29,1991-10-20
3,F,Tatyana Bondar,Татьяна Бондарь,47.7,Russia,,,,,,-50,-50,50,50,,,,,,,50,48,B,Raw,Yes,Open,25,1995-10-30
1,F,Alyona Yakhina,Алёна Яхина,51.1,Russia,,,,,,-55,55,-57.5,55,,,,,,,55,52,B,Raw,Yes,Open,28,1991-12-26
1,F,Anna Filippova,Анна Филиппова,58.7,Russia,,,,,,67.5,-70,-70,67.5,,,,,,,67.5,60,B,Raw,Yes,Open,41,1979-10-05
1,F,Anna Filippova,Анна Филиппова,58.7,Russia,,,,,,67.5,-70,-70,67.5,,,,,,,67.5,60,B,Raw,Yes,Masters 40-44,41,1979-10-05
2,F,Nataliya Zhumaniyazova,Наталия Жуманиязова,59.4,Russia,,,,,,-55,57.5,60,60,,,,,,,60,60,B,Raw,Yes,Masters 45-49,46,1974-03-19
1,F,Tatyana Tografulina,Татьяна Тографулина,65.9,Russia,,,,,,85,,,85,,,,,,,85,67.5,B,Raw,Yes,Teen 18-19,19,2001-08-30
1,F,Elena Ostrenko,Елена Остренко,66.7,Russia,,,,,,-80,80,-85,80,,,,,,,80,67.5,B,Raw,Yes,Open,34,1986-06-14
DQ,F,Aleksandra Orlova,Александра Орлова,101,Russia,,,,,,-80,-80,-80,,,,,,,,,90+,B,Raw,Yes,Masters 40-44,40,1980-09-15
1,M,Andrey Mitrofanov,Андрей Митрофанов,59.3,Russia,,,,,,70,-75,-75,70,,,,,,,70,60,B,Raw,Yes,Teen 16-17,16,2004-08-20
1,M,Kirill Gayda,Кирилл Гайда,67.5,Russia,,,,,,95,100,-107.5,100,,,,,,,100,67.5,B,Raw,Yes,Juniors 20-23,21,1999-09-01
1,M,Aleksey Morozov,Алексей Морозов,66.85,Russia,,,,,,120,-125,-125,120,,,,,,,120,67.5,B,Raw,Yes,Open,38,1982-01-15
1,M,Artem Khusainov,Артем Хусаинов,68,Russia,,,,,,145,152.5,157.5,157.5,,,,,,,157.5,75,B,Raw,Yes,Juniors 20-23,23,1997-06-18
1,M,Stanislav Mazurenko,Станислав Мазуренко,74.6,Russia,,,,,,145,150,-155,150,,,,,,,150,75,B,Raw,Yes,Open,33,1987-06-20
2,M,Ivan Karpov,Иван Карпов,74.3,Russia,,,,,,130,-135,-135,130,,,,,,,130,75,B,Raw,Yes,Open,32,1987-12-09
3,M,Daniil Sushkov,Даниил Сушков,73.8,Russia,,,,,,105,112.5,122.5,122.5,,,,,,,122.5,75,B,Raw,Yes,Open,32,1988-05-11
4,M,Evgeniy Frolov,Евгений Фролов,73.4,Russia,,,,,,120,-125,-125,120,,,,,,,120,75,B,Raw,Yes,Open,37,1983-05-11
1,M,Roman Vasilev,Роман Васильев,73.9,Russia,,,,,,150,155,,155,,,,,,,155,75,B,Raw,Yes,Masters 45-49,47,1973-02-10
2,M,Sergey Sidorovskiy,Сергей Сидоровский,74.3,Russia,,,,,,122.5,125,-130,125,,,,,,,125,75,B,Raw,Yes,Masters 45-49,49,1971-05-12
1,M,Aleksandr Bondarevskiy,Александр Бондаревский,81.4,Russia,,,,,,75,80,-85,80,,,,,,,80,82.5,B,Raw,Yes,Teen 16-17,16,2003-11-11
1,M,Aleksandr Kochetkov,Александр Кочетков,82.2,Russia,,,,,,150,-155,155,155,,,,,,,155,82.5,B,Raw,Yes,Open,32,1988-09-19
2,M,Ilya Murashko,Илья Мурашко,80.4,Russia,,,,,,140,145,-150,145,,,,,,,145,82.5,B,Raw,Yes,Open,32,1988-08-01
3,M,Rasul Payzulaev,Расул Пайзулаев,80.5,Russia,,,,,,132.5,-140,-142.5,132.5,,,,,,,132.5,82.5,B,Raw,Yes,Open,32,1988-09-07
4,M,Mikhail Kafash,Михаил Кафаш,76.7,Russia,,,,,,127.5,-132.5,-132.5,127.5,,,,,,,127.5,82.5,B,Raw,Yes,Open,24,1996-02-25
1,M,Dmitriy Karezin,Дмитрий Карезин,81.8,Russia,,,,,,150,155,157.5,157.5,,,,,,,157.5,82.5,B,Raw,Yes,Masters 50-54,50,1970-01-07
1,M,Vladimir Pleshkov,Владимир Плешков,81.9,Russia,,,,,,111,117.5,122.5,122.5,,,,,,,122.5,82.5,B,Raw,Yes,Masters 75-79,76,1944-08-29
1,M,Artem Mishchenko,Артем Мищенко,87.1,Russia,,,,,,185,190,192.5,192.5,,,,,,,192.5,90,B,Raw,Yes,Open,36,1984-06-26
2,M,Stanislav Frolov,Станислав Фролов,89.65,Russia,,,,,,170,175,-177.5,175,,,,,,,175,90,B,Raw,Yes,Open,29,1991-09-15
DQ,M,Vitaliy Zyk,Виталий Зык,89.9,Russia,,,,,,-127.5,-132.5,-132.5,,,,,,,,,90,B,Raw,Yes,Open,34,1986-04-17
DQ,M,Evgeniy Mazur,Евгений Мазур,89.9,Russia,,,,,,-195,-195,-195,,,,,,,,,90,B,Raw,Yes,Open,29,1990-11-30
DQ,M,Aleksey Korshikov,Алексей Коршиков,89.9,Russia,,,,,,-142.5,-152.5,,,,,,,,,,90,B,Raw,Yes,Masters 40-44,41,1979-04-28
1,M,Leonid Smirnov,Леонид Смирнов,89.8,Russia,,,,,,115,120,-125,120,,,,,,,120,90,B,Raw,Yes,Masters 60-64,63,1957-09-26
1,M,Andrey Bogachev,Андрей Богачев,99.5,Russia,,,,,,190,200,-205,200,,,,,,,200,100,B,Raw,Yes,Open,26,1994-04-29
2,M,Sergey Trubin,Сергей Трубин,98.8,Russia,,,,,,175,-182.5,182.5,182.5,-187.5,,,,,,182.5,100,B,Raw,Yes,Open,51,1969-04-16
3,M,Dmitriy Petrov,Дмитрий Петров,98.95,Russia,,,,,,180,-190,-190,180,,,,,,,180,100,B,Raw,Yes,Open,34,1986-01-29
1,M,Vitaliy Ashikhin,Виталий Ашихин,97.3,Russia,,,,,,145,155,162.5,162.5,,,,,,,162.5,100,B,Raw,Yes,Masters 40-44,42,1978-04-22
1,M,Sergey Trubin,Сергей Трубин,98.8,Russia,,,,,,175,-182.5,182.5,182.5,-187.5,,,,,,182.5,100,B,Raw,Yes,Masters 50-54,51,1969-04-16
1,M,Viktor Vasilev,Виктор Васильев,99.3,Russia,,,,,,132.5,140,-146,140,,,,,,,140,100,B,Raw,Yes,Masters 65-69,66,1954-02-09
1,M,Aleksey Prudnikov,Алексей Прудников,107.7,Russia,,,,,,175,185,-190,185,,,,,,,185,110,B,Raw,Yes,Open,37,1982-12-24
2,M,Sergey Shvetsov #2,Сергей Швецов,108.6,Russia,,,,,,185,-190,-190,185,,,,,,,185,110,B,Raw,Yes,Open,33,1987-03-02
3,M,Vladimir Dorin,Владимир Дорин,106,Russia,,,,,,120,130,-135,130,,,,,,,130,110,B,Raw,Yes,Open,30,1990-06-02
1,M,Vladimir Yakovenko,Владимир Яковенко,109.9,Russia,,,,,,135,140,145,145,-148,,,,,,145,110,B,Raw,Yes,Masters 60-64,61,1959-03-27
1,M,Vladimir Chubarov,Владимир Чубаров,132,Russia,,,,,,165,172.5,177.5,177.5,180,,,,,,177.5,140,B,Raw,Yes,Masters 55-59,56,1964-04-03
1,M,Boris Trofimov,Борис Трофимов,150,Russia,,,,,,220,232.5,,232.5,,,,,,,232.5,140+,B,Raw,Yes,Masters 45-49,48,1972-03-21
1,M,Stanislav Mazurenko,Станислав Мазуренко,74.6,Russia,,,,,,145,150,-155,150,,,,,,,150,75,B,Raw,No,Open,33,1987-06-20
1,M,David Shakhbazyan,Давид Шахбазян,82.4,Russia,,,,,,172.5,177.5,-180,177.5,,,,,,,177.5,82.5,B,Raw,No,Open,26,1994-08-30
1,M,Vladimir Pleshkov,Владимир Плешков,81.9,Russia,,,,,,111,117.5,122.5,122.5,,,,,,,122.5,82.5,B,Raw,No,Masters 75-79,76,1944-08-29
1,M,Dmitriy Sobtsov,Дмитрий Собцов,88.5,Russia,,,,,,-200,200,-205,200,,,,,,,200,90,B,Raw,No,Open,29,1991-06-04
2,M,Evgeniy Mazur,Евгений Мазур,89.9,Russia,,,,,,-190,190,195,195,,,,,,,195,90,B,Raw,No,Open,29,1990-11-30
1,M,Nikolay Kostev,Николай Костев,84.5,Russia,,,,,,140,150,155,155,,,,,,,155,90,B,Raw,No,Masters 60-64,60,1959-12-17
2,M,Sergey Luzin,Сергей Лузин,89,Russia,,,,,,100,115,120,120,,,,,,,120,90,B,Raw,No,Masters 65-69,66,1954-04-30
1,M,Eageniy Isaev,Еагений Исаев,104.4,Russia,,,,,,170,180,-185,180,,,,,,,180,110,B,Raw,No,Masters 45-49,49,1971-04-12
1,M,Dmitriy Zhemarkin,Дмитрий Жемаркин,124,Russia,,,,,,205,210,-215,210,,,,,,,210,125,B,Raw,No,Juniors 20-23,23,1997-01-29
1,M,Aleksandr Popov #13,Александр Попов,114.9,Russia,,,,,,205,215,220,220,,,,,,,220,125,B,Raw,No,Open,37,1983-05-14
2,M,Asker Khupsarokov,Аскер Хупсароков,120.2,Russia,,,,,,-205,-210,215,215,,,,,,,215,125,B,Raw,No,Open,33,1987-04-26
3,M,Dmitriy Zhemarkin,Дмитрий Жемаркин,124,Russia,,,,,,205,210,-215,210,,,,,,,210,125,B,Raw,No,Open,23,1997-01-29
1,M,Vladimir Peshko,Владимир Пешко,117.3,Russia,,,,,,177.5,182.5,-187.5,182.5,,,,,,,182.5,125,B,Raw,No,Masters 50-54,50,1970-02-12
1,M,Ilya Kokorev,Илья Кокорев,80.8,Russia,,,,,,192.5,202.5,-212.5,202.5,,,,,,,202.5,82.5,B,Single-ply,Yes,Masters 45-49,47,1973-01-19
1,M,Aleksey Samardin,Алексей Самардин,80.5,Russia,,,,,,190,197.5,-202.5,197.5,,,,,,,197.5,82.5,B,Single-ply,No,Open,37,1983-09-08
1,M,Vladimir Konchakov,Владимир Кончаков,99,Russia,,,,,,280,297.5,-310,297.5,,,,,,,297.5,100,B,Single-ply,No,Open,47,1973-05-25
1,M,Vladimir Konchakov,Владимир Кончаков,99,Russia,,,,,,280,297.5,-310,297.5,,,,,,,297.5,100,B,Single-ply,No,Masters 45-49,47,1973-05-25
2,M,Vladimir Lazarev,Владимир Лазарев,99.5,Russia,,,,,,200,-205,205,205,,,,,,,205,100,B,Single-ply,No,Masters 40-44,40,1979-11-06
1,F,Tatyana Tografulina,Татьяна Тографулина,65.9,Russia,,,,,,120,-130,130,130,132.5,,,,,,130,67.5,B,Unlimited,Yes,Teen 18-19,19,2001-08-30
1,F,Tatyana Tografulina,Татьяна Тографулина,65.9,Russia,,,,,,120,-130,130,130,132.5,,,,,,130,67.5,B,Unlimited,Yes,Open,19,2001-08-30
1,F,Anna Ermolaeva,Анна Ермолаева,67.15,Russia,,,,,,110,115,120,120,-125,,,,,,120,67.5,B,Unlimited,Yes,Masters 45-49,45,1975-04-27
1,M,Aleksandr Matveev,Александр Матвеев,75,Russia,,,,,,-190,190,-205,190,,,,,,,190,75,B,Unlimited,Yes,Open,46,1974-03-14
1,M,Matvey Bardakov,Матвей Бардаков,82.1,Russia,,,,,,150,160,-175,160,,,,,,,160,82.5,B,Unlimited,Yes,Teen 16-17,17,2003-10-24
1,M,Konstantin Zhigulin,Константин Жигулин,79.5,Russia,,,,,,210,-230,-230,210,,,,,,,210,82.5,B,Unlimited,Yes,Open,33,1987-10-03
1,M,Sergey Shvetsov #2,Сергей Швецов,108.6,Russia,,,,,,245,-255,-262.5,245,,,,,,,245,110,B,Unlimited,Yes,Open,33,1987-03-02
1,M,Igor Kurotchenko,Игорь Куротченко,109,Russia,,,,,,180,190,200,200,,,,,,,200,110,B,Unlimited,Yes,Masters 55-59,58,1962-03-20
1,F,Olga Lazurenko,Ольга Лазуренко,66.5,Russia,,,,,,150,170,177.5,177.5,180,,,,,,177.5,67.5,B,Unlimited,No,Open,49,1971-09-05
1,F,Olga Lazurenko,Ольга Лазуренко,66.5,Russia,,,,,,150,170,177.5,177.5,180,,,,,,177.5,67.5,B,Unlimited,No,Masters 45-49,49,1971-09-05
DQ,F,Elena Makarova,Елена Макарова,66.8,Russia,,,,,,-135,-135,-135,,,,,,,,,67.5,B,Unlimited,No,Masters 55-59,58,1962-08-08
1,M,Aleksey Volkov,Алексей Волков,81,Russia,,,,,,210,-230,230,230,,,,,,,230,82.5,B,Unlimited,No,Open,35,1985-05-03
2,M,Radmir Yakupov,Радмир Якупов,81.1,Russia,,,,,,195,207.5,-215,207.5,,,,,,,207.5,82.5,B,Unlimited,No,Open,27,1993-04-18
1,M,Ruslan Ilyushin,Руслан Илюшин,89.6,Russia,,,,,,240,262.5,-272.5,262.5,,,,,,,262.5,90,B,Unlimited,No,Open,29,1991-02-25
2,M,Pavel Silushin,Павел Силушин,84.4,Russia,,,,,,230,-245,245,245,-265,,,,,,245,90,B,Unlimited,No,Open,31,1989-09-17
1,M,Andrey Svidin,Андрей Свидин,91.2,Russia,,,,,,220,-235,245,245,,,,,,,245,100,B,Unlimited,No,Open,40,1980-02-01
1,M,Andrey Svidin,Андрей Свидин,91.2,Russia,,,,,,220,-235,245,245,,,,,,,245,100,B,Unlimited,No,Masters 40-44,40,1980-02-01
1,M,Aleksey Plotnikov,Алексей Плотников,109.4,Russia,,,,,,270,280,-290,280,,,,,,,280,110,B,Unlimited,No,Open,45,1975-06-16
2,M,Denis Puzyrev,Денис Пузырев,109,Russia,,,,,,235,245,250,250,,,,,,,250,110,B,Unlimited,No,Open,46,1974-03-31
1,M,Aleksandr Samitov,Александр Самитов,107.7,Russia,,,,,,240,245,250,250,,,,,,,250,110,B,Unlimited,No,Masters 45-49,45,1975-04-30
2,M,Denis Puzyrev,Денис Пузырев,109,Russia,,,,,,235,245,250,250,,,,,,,250,110,B,Unlimited,No,Masters 45-49,46,1974-03-31
1,M,Igor Kurotchenko,Игорь Куротченко,109,Russia,,,,,,180,190,200,200,,,,,,,200,110,B,Unlimited,No,Masters 55-59,58,1962-03-20
1,M,Nikolay Emelyanov #1,Николай Емельянов,117.3,Russia,,,,,,310,320,327.5,327.5,,,,,,,327.5,125,B,Unlimited,No,Open,41,1979-04-30
2,M,Aleksey Cherstvov,Алексей Черствов,120.8,Russia,,,,,,290,-300,-305,290,,,,,,,290,125,B,Unlimited,No,Open,39,1981-04-16
1,M,Oleg Shlepin,Олег Шлепин,125.3,Russia,,,,,,250,270,,270,,,,,,,270,140,B,Unlimited,No,Open,45,1975-07-08
1,M,Ruslan Ilyushin,Руслан Илюшин,89.6,Russia,,,,,,300,-340,-340,300,,,,,,,300,90,B,Unlimited,No,Open,29,1991-02-25
1,M,Aleksandr Akulich,Александр Акулич,96.9,Russia,,,,,,-340,340,355,355,,,,,,,355,100,B,Unlimited,No,Open,38,1981-11-17
1,M,Roman Semyonov,Роман Семёнов,97.8,Russia,,,,,,330,-352.5,-352.5,330,,,,,,,330,100,B,Unlimited,No,Masters 40-44,40,1979-11-12
1,M,Oleg Shlepin,Олег Шлепин,125.3,Russia,,,,,,305,320,330,330,,,,,,,330,140,B,Unlimited,No,Open,45,1975-07-08
1,M,Oleg Shlepin,Олег Шлепин,125.3,Russia,,,,,,305,320,330,330,,,,,,,330,140,B,Unlimited,No,Masters 45-49,45,1975-07-08
1,F,Taisya Zaytseva,Таисья Зайцева,80.4,Russia,,,,,,45,50,55,55,,,,,,,55,82.5,B,Raw,No,Masters 70-74,73,1947-08-30
1,F,Tatyana Maeva,Татьяна Маева,90.5,Russia,,,,,,65,67.5,72.5,72.5,,,,,,,72.5,90+,B,Raw,No,Masters 60-64,62,1958-07-05
1,M,Dmitriy Mikhaylov,Дмитрий Михайлов,59,Russia,,,,,,85,90,-92.5,90,,,,,,,90,60,B,Raw,No,Juniors 20-23,22,1998-10-19
1,M,Evgeniy Kosarev,Евгений Косарев,63.2,Russia,,,,,,95,97.5,100,100,,,,,,,100,67.5,B,Raw,No,Masters 55-59,59,1961-03-29
1,M,Nikolay Gorev,Николай Горев,67,Russia,,,,,,75,77.5,-80,77.5,,,,,,,77.5,67.5,B,Raw,No,Masters 70-74,70,1950-03-15
1,M,Aleksey Pachin,Алексей Пачин,70.4,Russia,,,,,,70,72.5,-75,72.5,,,,,,,72.5,75,B,Raw,No,Masters 40-44,41,1979-03-02
1,M,Georgiy Gvozdev,Георгий Гвоздев,80.5,Russia,,,,,,110,115,-117.5,115,,,,,,,115,82.5,B,Raw,No,Masters 60-64,61,1959-04-26
1,M,Vyacheslav Grunichev,Вячеслав Груничев,78.2,Russia,,,,,,25,27.5,30,30,,,,,,,30,82.5,B,Raw,No,Masters 80+,81,1939-06-16
1,M,Nikolay Petrokovich,Николай Петрокович,87.3,Russia,,,,,,102.5,107.5,-112.5,107.5,,,,,,,107.5,90,B,Raw,No,Masters 40-44,41,1979-08-17
1,M,Oleg Aristov,Олег Аристов,96.5,Russia,,,,,,110,115,117.5,117.5,,,,,,,117.5,100,B,Raw,No,Masters 65-69,65,1955-03-08
1,M,Vladimir Kuznetsov,Владимир Кузнецов,94.5,Russia,,,,,,65,70,75,75,,,,,,,75,100,B,Raw,No,Masters 75-79,75,1945-03-04
1,M,Ivan Puryshev,Иван Пурышев,100.8,Russia,,,,,,-85,85,95,95,,,,,,,95,110,B,Raw,No,Masters 40-44,40,1980-05-03
1,M,Sergey Kovalev,Сергей Ковалев,101.5,Russia,,,,,,122.5,130,135,135,,,,,,,135,110,B,Raw,No,Masters 50-54,51,1969-05-22
2,M,Evgeniy Dmitrichev,Евгений Дмитричев,100.9,Russia,,,,,,95,100,105,105,,,,,,,105,110,B,Raw,No,Masters 50-54,50,1969-12-18
1,F,Evgeniya Balyakina,Евгения Балякина,55,Russia,,,,,,,,,,,120,125,132.5,132.5,,132.5,56,D,Raw,Yes,Open,29,1990-12-15
1,F,Zhanna Ivanova #2,Жанна Иванова,63.9,Russia,,,,,,,,,,,135,145,150,150,,150,67.5,D,Raw,Yes,Open,38,1982-06-04
1,F,Elena Serdyuchenko,Елена Сердюченко,62.8,Russia,,,,,,,,,,,55,60,65,65,,65,67.5,D,Raw,Yes,Masters 45-49,48,1972-01-17
1,M,Dmitriy Shcherbakov,Дмитрий Щербаков,64.4,Russia,,,,,,,,,,,195,205,-210,205,,205,67.5,D,Raw,Yes,Open,36,1984-04-27
1,M,Dmitriy Khodkin,Дмитрий Ходкин,74.95,Russia,,,,,,,,,,,152.5,170,-182.5,170,,170,75,D,Raw,Yes,Teen 16-17,17,2002-12-20
1,M,Evgeniy Frolov,Евгений Фролов,73.4,Russia,,,,,,,,,,,200,210,-215,210,,210,75,D,Raw,Yes,Open,37,1983-05-11
2,M,Grigoriy Beloborodov,Григорий Белобородов,72.65,Russia,,,,,,,,,,,170,182.5,,182.5,,182.5,75,D,Raw,Yes,Open,31,1989-03-05
1,M,Sergey Sidorovskiy,Сергей Сидоровский,74.3,Russia,,,,,,,,,,,190,200,-207.5,200,,200,75,D,Raw,Yes,Masters 45-49,49,1971-05-12
1,M,Maksim Starikov,Максим Стариков,76.9,Russia,,,,,,,,,,,140,150,155,155,,155,82.5,D,Raw,Yes,Teen 16-17,16,2003-12-03
1,M,Aleksandr Kochetkov,Александр Кочетков,82.2,Russia,,,,,,,,,,,240,250,-255,250,,250,82.5,D,Raw,Yes,Open,32,1988-09-19
1,M,Gleb Danin,Глеб Данин,107.85,Russia,,,,,,,,,,,205,-220,220,220,,220,110,D,Raw,Yes,Teen 18-19,19,2001-04-09
1,M,Oleg Patrin,Олег Патрин,123.2,Russia,,,,,,,,,,,270,280,290,290,,290,125,D,Raw,Yes,Open,31,1989-10-31
1,M,Aleksandr Kornilenko,Александр Корниленко,87.6,Russia,,,,,,,,,,,200,-210,-210,200,,200,90,D,Raw,No,Masters 45-49,45,1975-09-27
1,M,Aleksandr Nemchinov,Александр Немчинов,89.9,Russia,,,,,,,,,,,220,230,,230,,230,90,D,Raw,No,Masters 65-69,68,1951-11-10
1,M,Andrey Astakhov,Андрей Астахов,97.5,Russia,,,,,,,,,,,275,280,290,290,,290,100,D,Raw,No,Juniors 20-23,23,1996-11-15
DQ,M,Dmitriy Pavlov,Дмитрий Павлов,108.4,Russia,,,,,,,,,,,-365,,,,,,110,D,Raw,No,Open,28,1991-11-15
1,M,Valeriy Sytnikov,Валерий Сытников,109,Russia,,,,,,,,,,,245,260,275,275,280,275,110,D,Raw,No,Masters 50-54,50,1970-02-28
1,M,Dmitriy Gorelikov,Дмитрий Гореликов,84.4,Russia,,,,,,,,,,,220,-240,250,250,-256,250,90,D,Raw,No,Open,52,1968-06-23
1,M,Dmitriy Gorelikov,Дмитрий Гореликов,84.4,Russia,,,,,,,,,,,220,-240,250,250,-256,250,90,D,Raw,No,Masters 50-54,52,1968-06-23
