Tested,Equipment,Place,Name,Division,BirthYear,BodyweightKg,Squat1Kg,Squat2Kg,Squat3Kg,Best3SquatKg,Bench1Kg,Bench2Kg,Bench3Kg,Best3BenchKg,Deadlift1Kg,Deadlift2Kg,Deadlift3Kg,Best3DeadliftKg,TotalKg,WeightClassKg,Sex,CyrillicName,Event
No,Raw,1,Olesya Sinelnikova,Pro Teen 13-15,1993,53.1,75,80,-85,80,50,55,57.5,57.5,100,105,-110,105,242.5,,F,Олеся Синельникова,SBD
No,Raw,1,Yekaterina Kalyuzhnaya,Pro Juniors 20-23,1987,60.8,-70,75,82.5,82.5,45,50,-52.5,50,90,-100,100,100,232.5,,F,Екатерина Калюжная,SBD
No,Raw,1,Olga Kryukova,Pro Open,1985,53.5,60,70,-72.5,70,30,35,40,40,70,-80,82.5,82.5,192.5,,F,Ольга Крюкова,SBD
No,Raw,2,Marina Tuz,Pro Open,1970,55.2,80,85,90,90,50,57.5,60,60,100,105,110,110,260,,F,Марина Туз,SBD
No,Raw,3,Yuliya Tyuleneva,Pro Open,1983,67,70,-77.5,80,80,-50,60,-65,60,80,90,100,100,240,,F,Юлия Тюленева,SBD
No,Raw,4,Elena Kucherova,Pro Open,1977,53.9,70,-75,-75,70,40,45,-50,45,85,-92.5,-92.5,85,200,,F,Елена Кучерова,SBD
No,Raw,1,Denis Bozrikov,Pro Teen 13-15,1993,48.3,60,70,-75,70,50,55,-60,55,90,100,107.5,107.5,232.5,52,M,Денис Бозриков,SBD
No,Raw,1,Maksim Efimenko,Pro Teen 18-19,1991,66.9,-145,150,157.5,157.5,95,100,105,105,155,165,175,175,437.5,67.5,M,Максим Ефименко,SBD
No,Raw,2,Ivan Ryazantsev,Pro Teen 18-19,1991,62.1,100,110,-120,110,-85,-85,85,85,125,140,-150,140,335,67.5,M,Иван Рязанцев,SBD
No,Raw,1,Vitaliy Leonyuk,Pro Teen 18-19,1990,74.8,140,-160,,140,90,,,90,140,,,140,370,75,M,Виталий Леонюк,SBD
No,Raw,1,Aleksandr Koshelev #1,Pro Juniors 20-23,1987,73.9,150,165,175,175,95,100,105,105,185,200,215,215,495,75,M,Александр Кошелев,SBD
No,Raw,1,Roman Varshavskiy,Pro Open,1989,71.6,170,180,-185,180,110,115,-120,115,180,190,-200,190,485,75,M,Роман Варшавский,SBD
No,Raw,DQ,Mikhail Ovchinnikov,Pro Open,1985,74.3,-150,-150,-150,,-95,,,,-160,,,,,75,M,Михаил Овчинников,SBD
No,Raw,1,Aleksey Almanov,Pro Teen 18-19,1990,80,100,110,-125,110,90,100,,100,140,,,140,350,82.5,M,Алексей Алманов,SBD
No,Raw,1,Aleksandr Makarov,Pro Open,1983,79.7,160,175,190,190,120,-130,130,130,170,185,-200,185,505,82.5,M,Александр Макаров,SBD
No,Raw,1,Dmitriy Svistunov,Pro Teen 18-19,1990,88.3,-165,165,190,190,115,125,-130,125,170,185,200,200,515,90,M,Дмитрий Свистунов,SBD
No,Raw,1,Taras Seskutov,Pro Open,1971,88.1,160,170,,170,120,125,,125,170,180,,180,475,90,M,Тарас Сескутов,SBD
No,Raw,2,Aleksandr Samoylov,Pro Open,1972,84.8,140,-150,150,150,105,110,-115,110,175,185,-195,185,445,90,M,Александр Самойлов,SBD
No,Raw,1,Grigoriy Matyash,Pro Masters 45-49,1961,87,120,,,120,100,,,100,120,,,120,340,90,M,Григорий Матяш,SBD
No,Raw,1,Zakhar Krepitsa,Pro Open,1989,98.6,-200,-200,200,200,-150,150,-160,150,210,220,230,230,580,100,M,Захар Крепица,SBD
No,Raw,2,Oleg Dogadin,Pro Open,1989,94.5,-170,-170,170,170,120,-125,-125,120,210,-220,-220,210,500,100,M,Олег Догадин,SBD
No,Raw,3,Sergey Sukhoy,Pro Open,,97.4,130,140,-160,140,-140,140,-150,140,170,-180,-180,170,450,100,M,Сергей Сухой,SBD
No,Raw,1,Anton Volodko,Pro Open,1982,120,210,220,230,230,200,-210,-210,200,280,-300,,280,710,125,M,Антон Володько,SBD
No,Raw,2,Sergey Padabed,Pro Open,1985,111.4,-220,-220,220,220,170,180,190,190,240,250,270,270,680,125,M,Сергей Падабед,SBD
No,Raw,1,Irina Pokornaya,Pro Open,1977,50.9,,,,,57.5,62.5,65,65,,,,,65,52,F,Ирина Покорная,B
No,Raw,1,Irina Ivashechkina,Pro Open,1971,54.9,,,,,37.5,42.5,-45,42.5,,,,,42.5,56,F,Ирина Ивашечкина,B
No,Raw,1,Elena Tyulenyova,Pro Open,1971,67,,,,,60,65,-72.5,65,,,,,65,67.5,F,Елена Тюленёва,B
No,Raw,1,Aleksey Nebykov,Pro Masters 40-44,1966,79.9,,,,,-145,155,160,160,,,,,160,,M,Алексей Небыков,B
No,Raw,DQ,Vladimir Surkov,Pro Masters 50-54,1958,92.6,,,,,-155,-155,,,,,,,,,M,Владимир Сурков,B
No,Raw,1,Vladimir Karpov,Pro Masters 45-49,1964,106,,,,,165,172.5,177.5,177.5,,,,,177.5,,M,Владимир Карпов,B
No,Raw,1,Artem Gerasimov,Pro Teen 16-17,1992,57.7,,,,,90,95,-107.5,95,,,,,95,60,M,Артем Герасимов,B
No,Raw,DQ,Ivan Ryazantsev,Pro Teen 18-19,1991,62.1,,,,,-90,-90,-90,,,,,,,67.5,M,Иван Рязанцев,B
No,Raw,1,Artem Kamyshov,Pro Juniors 20-23,1986,63.8,,,,,117,122.5,-125,122.5,,,,,122.5,67.5,M,Артем Камышов,B
No,Raw,2,Mikhail Samoylov,Pro Juniors 20-23,1989,65.1,,,,,107.5,-112.5,112.5,112.5,,,,,112.5,67.5,M,Михаил Самойлов,B
No,Raw,1,Sergey Tyurin,Pro Teen 18-19,1991,73.5,,,,,120,130,-137.5,130,,,,,130,75,M,Сергей Тюрин,B
No,Raw,2,Ilya Schukin,Pro Teen 18-19,1991,70.7,,,,,100,-105,105,105,,,,,105,75,M,Илья Щукин,B
No,Raw,DQ,Garnik Kazaryan,Pro Teen 16-17,1992,75,,,,,-117.5,-122.5,-122.5,,,,,,,75,M,Гарник Казарян,B
No,Raw,1,Sergey Malkov,Pro Open,1984,71.6,,,,,125,135,140,140,,,,,140,75,M,Сергей Мальков,B
No,Raw,DQ,Vladimir Charskiy,Pro Open,1978,75,,,,,-155,-155,-155,,,,,,,75,M,Владимир Чарский,B
No,Raw,1,Denis Chistyakov,Pro Teen 18-19,1991,80,,,,,100,110,-115,110,,,,,110,82.5,M,Денис Чистяков,B
No,Raw,1,Igor Dyakov,Pro Open,1983,75.2,,,,,140,-145,-145,140,,,,,140,82.5,M,Игорь Дьяков,B
No,Raw,2,Dmitriy Ivashechkin,Pro Open,1971,80.6,,,,,120,130,135,135,,,,,135,82.5,M,Дмитрий Ивашечкин,B
No,Raw,DQ,Andrey Borskiver,Pro Open,1980,79.2,,,,,-152.5,-152.5,-152.5,,,,,,,82.5,M,Андрей Борскивер,B
No,Raw,1,Nikolay Upolovnikov,Pro Open,1980,88.3,,,,,190,200,-205,200,,,,,200,90,M,Николай Уполовников,B
No,Raw,2,Maksim Isaev,Pro Open,1977,88.1,,,,,150,162.5,-167.5,162.5,,,,,162.5,90,M,Максим Исаев,B
No,Raw,3,Roman Makarov,Pro Open,1982,88.1,,,,,-160,160,-165,160,,,,,160,90,M,Роман Макаров,B
No,Raw,4,Mikhail Varvarovskiy,Pro Open,1972,85.3,,,,,140,-145,-145,140,,,,,140,90,M,Михаил Варваровский,B
No,Raw,1,Zakhar Krepitsa,Pro Juniors 20-23,1989,98.6,,,,,150,-160,-160,150,,,,,150,100,M,Захар Крепица,B
No,Raw,2,Dmitriy Medvedkov,Pro Juniors 20-23,1987,91,,,,,130,-140,140,140,,,,,140,100,M,Дмитрий Медведков,B
No,Raw,1,Maksim Kubyshkin,Pro Open,1985,100,,,,,-205,210,215,215,,,,,215,100,M,Максим Кубышкин,B
No,Raw,2,Yuriy Nadezhdin,Pro Open,1980,99.1,,,,,150,-160,-160,150,,,,,150,100,M,Юрий Надеждин,B
No,Raw,3,Vitaliy Bakhturin,Pro Open,1977,91.9,,,,,140,147.5,-152.5,147.5,,,,,147.5,100,M,Виталий Бахтурин,B
No,Raw,1,Artem Dolinyan,Pro Open,1978,110,,,,,210,-220,225,225,,,,,225,100+,M,Артем Долинян,B
No,Raw,2,Roman Tikhonov,Pro Open,1976,107,,,,,177.5,185,195,195,,,,,195,100+,M,Роман Тихонов,B
No,Raw,3,Sergey Padabed,Pro Open,1985,111.4,,,,,180,190,195,195,,,,,195,100+,M,Сергей Падабед,B
No,Multi-ply,1,Elena Tyulenyova,Pro Open,1971,67,65,70,-80,70,60,65,67.5,67.5,70,80,90,90,227.5,67.5,F,Елена Тюленёва,SBD
No,Multi-ply,1,Sergey Zlobin,Pro Teen 16-17,1991,53.8,100,-110,115,115,60,-70,-70,60,-100,-100,100,100,275,56,M,Сергей Злобин,SBD
No,Multi-ply,1,Sergey Lyubimov,Pro Teen 18-19,1991,66.9,160,180,190,190,100,-110,110,110,150,170,180,180,480,67.5,M,Сергей Любимов,SBD
No,Multi-ply,1,Vladimir Petyanov,Pro Open,1985,67.5,270,-280,,270,140,150,160,160,225,235,-245,235,665,67.5,M,Владимир Петянов,SBD
No,Multi-ply,1,Mikhail Ushakov,Pro Juniors 20-23,1986,74.3,215,230,-240,230,115,-120,122.5,122.5,215,-230,235,235,587.5,75,M,Михаил Ушаков,SBD
No,Multi-ply,1,German Petyanov,Pro Open,1985,72.9,270,-280,-300,270,135,-145,,135,230,240,250,250,655,75,M,Герман Петянов,SBD
No,Multi-ply,2,Aleksandr Lysenko,Pro Open,1985,72.9,190,200,210,210,115,-125,125,125,185,195,200,200,535,75,M,Александр Лысенко,SBD
No,Multi-ply,3,Dmitriy Kamenev,Pro Open,1983,72.3,180,-200,-205,180,140,-145,-145,140,190,200,,200,520,75,M,Дмитрий Камнев,SBD
No,Multi-ply,1,Aleksey Almanov,Pro Teen 18-19,1990,80,180,-200,200,200,100,-112.5,-115,100,175,190,-205,190,490,82.5,M,Алексей Алманов,SBD
No,Multi-ply,1,Vladimir Konkin,Pro Juniors 20-23,1989,82.3,-255,265,-275,265,140,150,-160,150,200,215,217.5,217.5,632.5,82.5,M,Владимир Конкин,SBD
No,Multi-ply,1,Aleksey Zharikov,Pro Open,1971,79,220,240,-250,240,-150,160,165,165,210,220,227.5,227.5,632.5,82.5,M,Алексей Жариков,SBD
No,Multi-ply,1,Vladimir Grigoryev,Pro Juniors 20-23,1986,84.2,260,280,-300,280,160,-180,180,180,260,280,-300,280,740,90,M,Владимир Григорьев,SBD
No,Multi-ply,1,Ivan Shatilov,Pro Open,1983,87.3,230,240,250,250,-125,125,-135,125,-230,-230,-230,,375,90,M,Иван Шатилов,SBD
No,Multi-ply,1,Grigoriy Matyash,Pro Masters 45-49,1961,87,120,,,120,100,,,100,120,,,120,340,90,M,Григорий Матяш,SBD
No,Multi-ply,1,Grigoriy Matyash,Pro Masters 45-49,1961,87,200,230,-240,230,160,170,-175,170,210,220,230,230,630,90,M,Григорий Матяш,SBD
No,Multi-ply,1,Semen Alaev,Pro Open,1987,97.8,200,210,-220,210,140,150,-155,150,230,250,-260,250,610,100,M,Семен Алаев,SBD
No,Multi-ply,2,Aleksandr Bobunov,Pro Open,1972,98.6,150,-230,235,235,100,-155,160,160,-200,-200,200,200,595,100,M,Александр Бобунов,SBD
No,Multi-ply,1,Aleksandr Korovin,Pro Juniors 20-23,1986,101.6,200,-275,-275,200,150,-190,-190,150,-250,250,,250,600,110,M,Александр Коровин,SBD
No,Multi-ply,1,Yuliya Sablina,Pro Open,1968,81.3,,,,,110,120,-122.5,120,,,,,120,82.5,F,Юлия Саблина,B
No,Multi-ply,1,Aleksey Yanovskiy,Pro Juniors 20-23,1988,56.2,,,,,-100,-102.5,102.5,102.5,,,,,102.5,60,M,Алексей Яновский,B
No,Multi-ply,1,Sergey Lyubimov,Pro Teen 18-19,1991,66.9,,,,,115,-125,-125,115,,,,,115,67.5,M,Сергей Любимов,B
No,Multi-ply,1,Sergey Tyurin,Pro Teen 16-17,1991,73.9,,,,,150,160,-170,160,,,,,160,75,M,Сергей Тюрин,B
No,Multi-ply,1,Sergey Kalinin,Pro Juniors 20-23,1989,74.5,,,,,-140,140,-162.5,140,,,,,140,75,M,Сергей Калинин,B
No,Multi-ply,DQ,Dmitriy Baranchikov,Pro Masters 45-49,1960,69.8,,,,,-160,-160,-170,,,,,,,75,M,Дмитрий Баранчиков,B
No,Multi-ply,DQ,Dmitriy Baranchikov,Pro Masters 45-49,1960,69.8,,,,,-160,-160,-170,,,,,,,75,M,Дмитрий Баранчиков,B
No,Multi-ply,1,Dmitriy Efimov,Pro Juniors 20-23,1989,79.8,,,,,145,160,-172.5,160,,,,,160,82.5,M,Дмитрий Ефимов,B
No,Multi-ply,1,Aleksey Zharikov,Pro Open,1971,79,,,,,160,170,-175,170,,,,,170,82.5,M,Алексей Жариков,B
No,Multi-ply,1,Sergey Alkhov,Pro Open,1984,85.5,,,,,160,-170,,160,,,,,160,90,M,Сергей Альхов,B
No,Multi-ply,1,Grigoriy Matyash,Pro Masters 45-49,1961,87.5,,,,,160,170,-177.5,170,,,,,170,90,M,Григорий Матяш,B
No,Multi-ply,1,Dmitriy Medvedkov,Pro Juniors 20-23,1987,91,,,,,160,-170,170,170,,,,,170,100,M,Дмитрий Медведков,B
No,Multi-ply,1,Emin Galib Ogly Mamedov,Pro Open,1974,95,,,,,250,270,-290,270,,,,,270,100,M,Емин Галиб Оглы Мамедов,B
No,Multi-ply,2,Sergey Zakharov #3,Pro Open,1971,92.9,,,,,-230,-230,230,230,,,,,230,100,M,Сергей Захаров,B
No,Multi-ply,2,Dmitriy Zakharov,Pro Open,1975,105,,,,,-190,190,200,200,,,,,200,110,M,Дмитрий Захаров,B
No,Multi-ply,DQ,Sergey Kartashov,Pro Open,1985,102.8,,,,,-190,-190,-205,,,,,,,110,M,Сергей Карташов,B
No,Multi-ply,1,Vladimir Karpov,Pro Masters 40-44,1964,106,,,,,210,220,230,230,,,,,230,110,M,Владимир Карпов,B
No,Multi-ply,2,Pavel Kucherov,Pro Open,1971,109,,,,,-240,-245,245,245,,,,,245,110,M,Павел Кучеров,B
No,Multi-ply,1,Aleksandr Oblizin,Pro Open,1973,155,,,,,240,250,260,260,,,,,260,140+,M,Александр Аблизин,B
