WeightClassKg,Sex,Name,CyrillicName,BirthDate,Team,Division,BodyweightKg,Bench1Kg,Bench2Kg,Bench3Kg,Bench4Kg,Best3BenchKg,TotalKg,Place,Event,Equipment
48,F,Roza Ovechkina,Роза Овечкина,1980-06-24,Берман Тим,Pro Open,48,47.5,52.5,-55,,52.5,52.5,1,B,Raw
56,F,Mariya Dyukova,Мария Дюкова,1984-06-18,Берман Тим,Pro Open,54.1,55,60,65,,65,65,1,B,Raw
60,F,Viktoriya Demenyova,Виктория Деменёва,1977-06-08,Берман Тим,Pro Open,57.5,30,35,40,,40,40,1,B,Raw
75,F,Elena Sheverdina,Елена Шевердина,1968-02-14,Берман Тим,Pro Open,72,120,125,130,,130,130,1,B,Raw
82.5,F,Natalya Maksimova,Наталья Максимова,1984-10-16,Берман Тим,Pro Open,82.5,45,50,55,,55,55,1,B,Raw
52,M,Georgiy Panchikhin,Георгий Панчихин,1996-06-08,Берман Тим,Pro Teen 13-15,50.4,-50,55,60,,60,60,1,B,Raw
52,M,Danil Sharafiev,Данил Шарафиев,1995-06-24,Дрим Тим,Pro Teen 13-15,51,52.5,57.5,-60,,57.5,57.5,2,B,Raw
56,M,Artem Zelenin,Артем Зеленин,1996-09-08,самостоятельно,Pro Teen 13-15,53.9,67.5,72.5,-75,,72.5,72.5,1,B,Raw
56,M,Aleksey Zaytsev,Алексей Зайцев,1987-10-17,Берман Тим,Pro Juniors 20-23,52.8,80,-85,85,,85,85,1,B,Raw
60,M,Marat Zanakhov,Марат Занахов,1989-12-14,самостоятельно,Pro Juniors 20-23,58.2,-110,110,-115,,110,110,1,B,Raw
60,M,Alekksandr Pitukhin,Алекксандр Питухин,1985-11-29,Берман Тим,Pro Disabled,58.1,110,115,-117.5,,115,115,1,B,Raw
67.5,M,Dmitriy Shulimanov,Дмитрий Шулиманов,1988-04-05,самостоятельно,Pro Juniors 20-23,67,100,107.5,-112.5,,107.5,107.5,1,B,Raw
67.5,M,Sergey Lysyakov,Сергей Лысяков,1980-04-17,ДЮСШ19,Pro Open,67.2,110,115,117.5,,117.5,117.5,1,B,Raw
75,M,Viktor Burtsev,Виктор Бурцев,1998-01-13,СИТИ Фитнес,Pro Teen 13-15,73.3,42.5,47.5,50,,50,50,1,B,Raw
75,M,Rinat Sultanov,Ринат Султанов,1984-09-24,Берман Тим,Pro Open,74.2,125,-132.5,-132.5,,125,125,1,B,Raw
82.5,M,Vladislav Yachnik,Владислав Ячник,1995-08-10,Берман Тим,Pro Teen 13-15,79.5,90,-95,-95,,90,90,1,B,Raw
82.5,M,Aleksandr Boldyrev,Александр Болдырев,1994-11-04,Ревда,Pro Teen 16-17,76.3,70,-77.5,-80,,70,70,1,B,Raw
82.5,M,Dmitriy Malchenko,Дмитрий Мальченко,1990-01-11,ДЮСШ19,Pro Juniors 20-23,80.5,125,-132.5,-132.5,,125,125,1,B,Raw
82.5,M,Valeriy Kleshnya,Валерий Клешня,1981-02-21,самостоятельно,Pro Open,82,140,145,150,,150,150,1,B,Raw
90,M,Igor Zhukov,Игорь Жуков,1993-10-31,Берман Тим,Pro Teen 16-17,90,115,125,132.5,,132.5,132.5,1,B,Raw
90,M,Artur Shurnov,Артур Шурнов,1988-07-19,самостоятельно,Pro Juniors 20-23,89.4,135,-142.5,-142.5,,135,135,1,B,Raw
90,M,Pyotr Borisov,Пётр Борисов,1981-08-19,СИТИ Фитнес,Pro Open,87.8,150,-155,-155,,150,150,1,B,Raw
90,M,Ivan Demidenko,Иван Демиденко,1976-12-20,Берман Тим,Pro Open,83.7,135,-140,-140,,135,135,2,B,Raw
90,M,Evgeniy Modnikov,Евгений Модников,1982-07-03,ДЮСШ19,Pro Open,86.2,122.5,-127.5,127.5,,127.5,127.5,3,B,Raw
90,M,Aleksey Savosin,Алексей Савосин,1969-03-21,Берман Тим,Pro Masters 40-44,85.2,147.5,152.5,157.5,162,157.5,157.5,1,B,Raw
90,M,Anatoliy Gorelov,Анатолий Горелов,1962-01-24,Берман Тим,Pro Masters 45-49,89.6,130,135.5,-140,,135.5,135.5,1,B,Raw
100,M,Aleksey Belosludtsev,Алексей Белослудцев,1988-10-19,Берман Тим,Pro Juniors 20-23,99.5,150,-155,155,,155,155,1,B,Raw
100,M,Vladislav Myasnikov,Владислав Мясников,1983-12-04,Берман Тим,Pro Open,98.6,135,-140,-142.5,,135,135,3,B,Raw
100,M,Aleksey Yakimov,Алексей Якимов,1976-02-19,СИТИ Фитнес,Pro Open,94.6,165,-170,-170,,165,165,1,B,Raw
100,M,Aleksandr Baranov,Александр Баранов,1985-11-19,самостоятельно,Pro Open,91.8,142.5,150,-155,,150,150,2,B,Raw
100,M,Aleksandr Terentev,Александр Терентьев,1969-02-15,СИТИ Фитнес,Pro Masters 40-44,98,155,-162.5,-165,,155,155,1,B,Raw
110,M,Yuriy Romanov #1,Юрий Романов,1984-01-24,Тюмень,Pro Open,108.6,190,202,205,,205,205,1,B,Raw
110,M,Yakov Berman,Яков Берман,1972-06-22,Берман Тим,Pro Open,104.4,180,190,200,,200,200,2,B,Raw
110,M,Nikolay Mozharovskiy,Николай Можаровский,1973-07-02,Ревда,Pro Open,107,170,180,-185,,180,180,3,B,Raw
110,M,Dmitriy Karelin,Дмитрий Карелин,1968-09-27,самостоятельно,Pro Masters 40-44,101.6,167.5,172,177,,177,177,1,B,Raw
125,M,Albert Fakhretninovv,Альберт Фахретниновв,1987-06-23,Ревда,Pro Juniors 20-23,124.1,195,205,-210,,205,205,1,B,Raw
125,M,Aleksandr Saytgalin,Александр Сайтгалин,1974-10-27,Динамо,Pro Open,114.3,190,200,210,,210,210,1,B,Raw
125,M,Gennadiy Tretyakov,Геннадий Третьяков,1970-03-15,самостоятельно,Pro Masters 40-44,113.1,140,150,-152.5,,150,150,1,B,Raw
125,M,Rail Fakhrutdinov,Раиль Фахрутдинов,1962-06-30,СИТИ Фитнес,Pro Masters 45-49,112.9,155,160,-165,,160,160,2,B,Raw
125,M,Sergey Kirilov,Сергей Кирилов,1964-04-21,Берман Тим,Pro Masters 45-49,112.6,190,-200,200,,200,200,1,B,Raw
140,M,Sergey Kolesichenko,Сергей Колесиченко,1979-11-19,Берман Тим,Pro Open,137.5,200,205,207.5,,207.5,207.5,1,B,Raw
140+,M,Aleksey Kozachkov,Алексей Козачков,1970-08-07,самостоятельно,Pro Masters 40-44,152.5,180,-190,-190,,180,180,1,B,Raw
67.5,M,Sergey Korshunov,Сергей Коршунов,1991-07-27,самостоятельно,Pro Teen 18-19,65.1,-100,-100,-100,,,,DQ,B,Multi-ply
90,M,Artush Karapetyan,Артуш Карапетян,1991-11-20,Берман Тим,Pro Teen 18-19,84.7,-160,160,-170,,160,160,2,B,Multi-ply
90,M,Gleb Tutynin,Глеб Тутынин,1992-10-04,самостоятельно,Pro Teen 18-19,89.6,170,180,-190,,180,180,1,B,Multi-ply
100,M,Dmitriy Tsimbalistyy,Дмитрий Цымбалистый,1978-11-01,Ревда,Pro Open,99,-210,210,217.5,,217.5,217.5,2,B,Multi-ply
100,M,Artyom Koryakin,Артём Корякин,2001-04-28,самостоятельно,Pro Open,100,190,210,212.5,,212.5,212.5,3,B,Multi-ply
100,M,Andrey Tikhomirov,Андрей Тихомиров,1978-09-22,Челябинск,Pro Open,100,230,240,250,260,250,250,1,B,Multi-ply
100,M,Artur Druzhinin,Артур Дружинин,1968-08-28,самостоятельно,Pro Masters 40-44,92.2,190,-195,195,,195,195,1,B,Multi-ply
110,M,Vadim Dostoalov,Вадим Достоалов,1978-08-10,самостоятельно,Pro Open,105.2,205,212.5,-220,,212.5,212.5,1,B,Multi-ply
60,M,Pavel Mikheev,Павел Михеев,,ДЮСШ19,Pro Open,,,,,,,,DQ,B,Multi-ply
100,M,Dmitriy Chertushkin,Дмитрий Чертушкин,1965-08-15,ДЮСШ19,Pro Open,98.5,180,187.5,-192.5,,187.5,187.5,2,B,Multi-ply
100,M,Dmitriy Chertushkin,Дмитрий Чертушкин,1965-08-15,ДЮСШ19,Pro Masters 45-49,98.5,180,187.5,-192.5,,187.5,187.5,2,B,Multi-ply
110,M,Sergey Martyanov,Сергей Мартьянов,1975-02-25,ДЮСШ19,Pro Open,103,220,235,-245,,235,235,3,B,Multi-ply
110,M,Anton Lapin,Антон Лапин,1985-03-16,ДЮСШ19,Pro Open,107.5,162.5,-167.5,167.5,,167.5,167.5,2,B,Raw
125,M,Ilya Nalimov,Илья Налимов,1988-03-03,ДЮСШ19,Pro Juniors 20-23,122,-190,-190,190,,190,190,2,B,Raw
125,M,Ilya Nalimov,Илья Налимов,1988-03-03,ДЮСШ19,Pro Open,122,-190,-190,190,,190,190,2,B,Raw
125,M,Aleksey Brednev,Алексей Бреднев,1969-05-01,ДЮСШ19,Pro Masters 40-44,119.6,182.5,187.5,-190,,187.5,187.5,3,B,Raw
125,M,Aleksey Brednev,Алексей Бреднев,1969-05-01,ДЮСШ19,Pro Open,119.6,182.5,187.5,-190,,187.5,187.5,3,B,Raw
82.5,M,Igor Kuimov,Игорь Куимов,1962-07-28,ОКТАН,Pro Open,78.3,205,220,225,,225,225,1,B,Multi-ply
90,M,Vasiliy Ludin,Василий Лудин,1988-04-20,ОКТАН,Pro Open,86,190,205,220,,220,220,1,B,Multi-ply
100,M,Andrey Martemyanov,Андрей Мартемьянов,1961-07-08,ОКТАН,Pro Open,99.1,150,160,-170,,160,160,2,B,Raw
100,M,Andrey Stepanov,Андрей Степанов,1976-03-20,ОКТАН,Pro Open,91.9,125,130,135,,135,135,3,B,Raw
100,M,Sergey Permyakov,Сергей Пермяков,1983-09-09,ОКТАН,Pro Open,98.9,230,-240,-240,,230,230,1,B,Multi-ply
110,M,Pavel Kolbin,Павел Колбин,1976-05-10,ОКТАН,Pro Open,107,155,165,-175,,165,165,3,B,Raw
100,M,Aleksey Kozlov #1,Алексей Козлов,1970-05-19,ФАНТЫ,Pro Open,100,175,185,192.5,,192.5,192.5,1,B,Raw
110,M,Eduard Khaliullin,Эдуард Халиуллин,1973-05-22,ФАНТЫ,Pro Open,105.4,285,295,-300,,295,295,1,B,Multi-ply
110,M,Sergey Puzanskiy,Сергей Пузанский,1975-02-03,ФАНТЫ,Pro Open,102.4,-275,-275,275,-285,275,275,2,B,Multi-ply
110,M,Oleg Osipov,Олег Осипов,,ФАНТЫ,Pro Open,102.3,185,195,205,,205,205,1,B,Raw
125,M,Andrey Ovechkin,Андрей Овечкин,1991-11-20,ФАНТЫ,Pro Open,116.7,200,215,-235.5,,215,215,1,B,Raw
125,M,Nikolay Pyshmintsev,Николай Пышминцев,1981-01-04,ФАНТЫ,Pro Open,122.2,300,310,-340,,310,310,1,B,Multi-ply
