Division,WeightClassKg,Place,Name,Team,BodyweightKg,Best3SquatKg,Best3BenchKg,Best3DeadliftKg,TotalKg,Equipment,Event,Sex
Boys,55.79,1,Santos Botello,Castroville Medina Valley,51.89,131.54,83.91,161.03,376.48,Single-ply,SBD,M
Boys,51.71,2,Joel Rodriguez,Castroville Medina Valley,51.71,97.52,77.11,129.27,303.91,Single-ply,SBD,M
Boys,55.79,3,Robert Kight,Poteet,51.89,92.99,61.23,113.4,267.62,Single-ply,SBD,M
Boys,55.79,1,Leonard Garza,Poteet,55.79,163.29,92.99,151.95,408.23,Single-ply,SBD,M
Boys,55.79,2,Darion McMahan,Stockdale,55.79,161.03,83.91,149.69,394.63,Single-ply,SBD,M
Boys,55.79,3,Jon Guillen,Lytle,54.79,136.08,83.91,147.42,367.41,Single-ply,SBD,M
Boys,55.79,4,Christian Sanchez,Cotulla,55.43,127.01,77.11,149.69,353.8,Single-ply,SBD,M
Boys,59.87,5,Ronald Sanchez,Poteet,55.88,127.01,74.84,136.08,337.93,Single-ply,SBD,M
Boys,55.79,6,Sawyer Yandell,Devine,52.34,131.54,61.23,127.01,319.78,Single-ply,SBD,M
Boys,59.87,7,Juan Guerreo,Lytle,55.88,124.74,63.5,120.2,308.44,Single-ply,SBD,M
Boys,55.79,8,Roland Sanchez,Uvalde,55.16,106.59,56.7,136.08,299.37,Single-ply,SBD,M
Boys,59.87,9,Trevor Moczygemba,Poth,55.88,97.52,52.16,104.33,254.01,Single-ply,SBD,M
Boys,59.87,1,Ryan Montgomery,Devine,59.51,161.03,92.99,176.9,430.91,Single-ply,SBD,M
Boys,59.87,2,Michael Casarez,Three Rivers,56.43,163.29,72.57,174.63,410.5,Single-ply,SBD,M
Boys,59.87,3,Cole Jackon,San Antonio Southside,57.24,151.95,79.38,174.63,405.97,Single-ply,SBD,M
Boys,59.87,4,Jacob Tomlinson,Medina,59.6,142.88,72.57,147.42,362.87,Single-ply,SBD,M
Boys,59.87,5,Steven Garza,Crystal City,56.34,142.88,68.04,136.08,347,Single-ply,SBD,M
Boys,67.13,6,Ezekiel Cortez,Castroville Medina Valley,60.06,97.52,70.31,136.08,303.91,Single-ply,SBD,M
Boys,59.87,7,Freddy Falcon,Del Rio,58.97,90.72,65.77,136.08,292.57,Single-ply,SBD,M
Boys,67.13,8,Nadiv Gonzales,Castroville Medina Valley,60.06,86.18,65.77,83.91,235.87,Single-ply,SBD,M
Boys,67.13,1,Arturo Cervantez,Crystal City,66.22,176.9,113.4,185.97,476.27,Single-ply,SBD,M
Boys,67.13,2,Josh Young,Bandera,66.41,181.44,111.13,172.37,464.93,Single-ply,SBD,M
Boys,74.84,3,Javy Sosa,Pleasanton,67.22,167.83,108.86,163.29,439.98,Single-ply,SBD,M
Boys,67.13,4,Benny Ray Castro,Cotulla,64.86,172.37,97.52,163.29,433.18,Single-ply,SBD,M
Boys,67.13,5,Joshua Hardin,Del Rio,63.68,154.22,120.2,154.22,428.64,Single-ply,SBD,M
Boys,74.84,6,David Gonzalez,Northside Holmes,67.22,151.95,79.38,195.04,426.38,Single-ply,SBD,M
Boys,67.13,7,Kendal Williams,San Antonio Southside,64.32,142.88,97.52,176.9,417.3,Single-ply,SBD,M
Boys,67.13,8,Mark Luis,Cotulla,65.05,147.42,90.72,165.56,403.7,Single-ply,SBD,M
Boys,74.84,9,Jose Cardenas,Uvalde,67.31,136.08,83.91,183.7,403.7,Single-ply,SBD,M
Boys,67.13,10,Robert Trevino,Natalia,62.14,140.61,74.84,167.83,383.29,Single-ply,SBD,M
Boys,67.13,11,Juan Avila,San Antonio Southside,64.59,142.88,72.57,163.29,378.75,Single-ply,SBD,M
Boys,67.13,12,Walker McKandrew,Universal City Randolph,65.32,129.27,86.18,156.49,371.95,Single-ply,SBD,M
Boys,67.13,13,Trever Horvath,Castroville Medina Valley,63.14,142.88,92.99,127.01,362.87,Single-ply,SBD,M
Boys,67.13,14,Adam Austin,Del Rio,64.5,133.81,86.18,142.88,362.87,Single-ply,SBD,M
Boys,67.13,15,Adrian Valdez,Lytle,62.41,115.67,88.45,145.15,349.27,Single-ply,SBD,M
Boys,67.13,16,Raul Fuentes,Uvalde,63.5,113.4,97.52,136.08,347,Single-ply,SBD,M
Boys,67.13,17,Luis Flores,Poteet,60.24,124.74,63.5,138.35,326.59,Single-ply,SBD,M
Boys,67.13,18,Ian Chachere,Pleasanton,61.69,120.2,68.04,136.08,324.32,Single-ply,SBD,M
Boys,67.13,19,Elijah Selvin,Bandera,63.23,86.18,68.04,113.4,267.62,Single-ply,SBD,M
Boys,67.13,DQ,Kaleb Charanza,Medina,66.41,,,,,Single-ply,SBD,M
Boys,74.84,1,Roy Arispe,Devine,73.39,213.19,111.13,215.46,539.77,Single-ply,SBD,M
Boys,74.84,2,Jason Jungman,Castroville Medina Valley,74.39,174.63,106.59,181.44,462.66,Single-ply,SBD,M
Boys,74.84,3,Edison Flores,Dilley,72.39,172.37,106.59,181.44,460.4,Single-ply,SBD,M
Boys,74.84,4,Ruben Hinojosa,Lytle,73.3,158.76,90.72,192.78,442.25,Single-ply,SBD,M
Boys,74.84,5,Will Perrin,Universal City Randolph,72.3,172.37,79.38,188.24,439.98,Single-ply,SBD,M
Boys,74.84,6,Daniel Yanez,Lytle,71.03,158.76,99.79,165.56,424.11,Single-ply,SBD,M
Boys,74.84,7,Rigo Bueno,Uvalde,72.39,161.03,90.72,142.88,394.63,Single-ply,SBD,M
Boys,74.84,8,Anthony Medellin,Del Rio,69.04,147.42,92.99,151.95,392.36,Single-ply,SBD,M
Boys,74.84,9,Josh Hughes,Del Rio,72.76,120.2,106.59,156.49,383.29,Single-ply,SBD,M
Boys,74.84,10,Manuel Azapata,Rocksprings,74.39,142.88,86.18,151.95,381.02,Single-ply,SBD,M
Boys,74.84,11,Jaime Guterriez,Del Rio,68.86,127.01,117.93,127.01,371.95,Single-ply,SBD,M
Boys,74.84,12,Jeremiah Dominguez,Castroville Medina Valley,73.75,92.99,92.99,102.06,288.03,Single-ply,SBD,M
Boys,82.1,1,Tyler Stevens,Bandera,79.47,249.48,127.01,226.8,603.28,Single-ply,SBD,M
Boys,82.1,2,Jacob Fernandez,Natalia,81.19,183.7,124.74,206.38,514.83,Single-ply,SBD,M
Boys,82.1,3,Chase Wiatrek,Poth,80.65,197.31,111.13,204.12,512.56,Single-ply,SBD,M
Boys,82.1,4,Jacob Muniz,Three Rivers,79.2,201.85,106.59,199.58,508.02,Single-ply,SBD,M
Boys,82.1,5,Daniel Prado,San Antonio Southside,81.83,208.65,113.4,181.44,503.49,Single-ply,SBD,M
Boys,82.1,6,David Garza,Cotulla,76.66,167.83,99.79,206.38,474,Single-ply,SBD,M
Boys,82.1,7,Talor Benson,Del Rio,75.39,181.44,102.06,179.17,462.66,Single-ply,SBD,M
Boys,82.1,8,William Bookout,Lytle,77.75,154.22,111.13,195.04,460.4,Single-ply,SBD,M
Boys,82.1,9,Andre Hamilton,Universal City Randolph,81.65,163.29,95.25,192.78,451.32,Single-ply,SBD,M
Boys,82.1,10,Zachary Keller,Castroville Medina Valley,79.83,165.56,104.33,158.76,428.64,Single-ply,SBD,M
Boys,82.1,11,Shaq Henry,Universal City Randolph,77.38,170.1,90.72,163.29,424.11,Single-ply,SBD,M
Boys,82.1,12,Zac Qualls,Pleasanton,78.2,156.49,83.91,183.7,424.11,Single-ply,SBD,M
Boys,82.1,13,Brain Staffin,Del Rio,75.39,149.69,97.52,170.1,417.3,Single-ply,SBD,M
Boys,82.1,14,Colon Favor,Pleasanton,81.37,149.69,86.18,158.76,394.63,Single-ply,SBD,M
Boys,82.1,15,Hector Martinez,Kenedy,75.57,117.93,92.99,149.69,360.61,Single-ply,SBD,M
Boys,82.1,16,Jose Villa,Kenedy,79.92,97.52,79.38,142.88,319.78,Single-ply,SBD,M
Boys,89.81,17,Dalton Machac,Northside Holmes,82.19,113.4,63.5,124.74,301.64,Single-ply,SBD,M
Boys,82.1,DQ,James Carreon,Northside Holmes,79.83,,,,,Single-ply,SBD,M
Boys,82.1,DQ,Richard Pena,San Antonio Southside,77.2,,,,,Single-ply,SBD,M
Boys,82.1,DQ,Alac Conoly,Bandera,78.56,,,,,Single-ply,SBD,M
Boys,89.81,1,Daniel Salazar,San Antonio Southside,88.36,233.6,142.88,204.12,580.6,Single-ply,SBD,M
Boys,89.81,2,Chris Hearn,Cotulla,88.09,210.92,115.67,229.06,555.65,Single-ply,SBD,M
Boys,89.81,3,Alex Garcia #14,Boerne Champion,87.63,219.99,111.13,208.65,539.77,Single-ply,SBD,M
Boys,89.81,4,Kory Kuhl,Universal City Randolph,82.55,199.58,108.86,222.26,530.7,Single-ply,SBD,M
Boys,89.81,5,Josh Perez,Crystal City,83.46,183.7,113.4,163.29,460.4,Single-ply,SBD,M
Boys,89.81,6,Adrian Guardiola,Lytle,86,167.83,104.33,172.37,444.52,Single-ply,SBD,M
Boys,89.81,7,Austin Metzger,Universal City Randolph,84.91,167.83,90.72,181.44,439.98,Single-ply,SBD,M
Boys,89.81,8,Brad Reilly,Pleasanton,89.72,158.76,81.65,167.83,408.23,Single-ply,SBD,M
Boys,89.81,9,Garret Hollis,Pleasanton,86.55,147.42,88.45,154.22,390.09,Single-ply,SBD,M
Boys,89.81,10,Kyle Wehe,Castroville Medina Valley,85.46,147.42,88.45,147.42,383.29,Single-ply,SBD,M
Boys,89.81,11,Nick Ringler,Universal City Randolph,89.18,136.08,90.72,154.22,381.02,Single-ply,SBD,M
Boys,99.79,12,Jesse Jacques,Uvalde,89.99,142.88,81.65,151.95,376.48,Single-ply,SBD,M
Boys,89.81,13,Steven Sartuch,Devine,89.72,127.01,90.72,149.69,367.41,Single-ply,SBD,M
Boys,89.81,14,Fred Carrasco,Kenedy,87,108.86,70.31,140.61,319.78,Single-ply,SBD,M
Boys,89.81,DQ,Abel Gonzalez,Dilley,88.63,,,,,Single-ply,SBD,M
Boys,89.81,DQ,Daniel Diaz,Three Rivers,88.81,,,,,Single-ply,SBD,M
Boys,89.81,DQ,Alejandro Rios,Northside Holmes,86.18,,,,,Single-ply,SBD,M
Boys,99.79,1,Paul Perez #4,Natalia,91.35,210.92,142.88,231.33,585.13,Single-ply,SBD,M
Boys,99.79,2,Taylor Hearn,Pleasanton,99.52,229.06,131.54,222.26,582.87,Single-ply,SBD,M
Boys,99.79,3,Christian Castillion,Poteet,96.52,172.37,131.54,183.7,487.61,Single-ply,SBD,M
Boys,99.79,4,Raul Hernandez,Dilley,96.89,190.51,113.4,181.44,485.34,Single-ply,SBD,M
Boys,99.79,5,Omar Martinez,Lytle,95.44,183.7,102.06,181.44,467.2,Single-ply,SBD,M
Boys,99.79,6,Mundo Perez,Rocksprings,96.98,172.37,90.72,183.7,446.79,Single-ply,SBD,M
Boys,99.79,7,Keveon Stanton,Northside Holmes,95.35,142.88,102.06,174.63,419.57,Single-ply,SBD,M
Boys,99.79,8,Rick Flores,Poteet,92.35,136.08,90.72,188.24,415.04,Single-ply,SBD,M
Boys,99.79,9,Nathan Morin,Three Rivers,90.26,170.1,79.38,158.76,408.23,Single-ply,SBD,M
Boys,99.79,10,Jonathon Mendoza,Northside Holmes,96.52,142.88,90.72,165.56,399.16,Single-ply,SBD,M
Boys,99.79,11,David Lopez,Northside Holmes,94.17,113.4,77.11,181.44,371.95,Single-ply,SBD,M
Boys,99.79,12,John Guerra,Bandera,91.72,142.88,79.38,142.88,365.14,Single-ply,SBD,M
Boys,99.79,DQ,Christian Guerra,Castroville Medina Valley,92.17,,,,,Single-ply,SBD,M
Boys,99.79,DQ,Juan Rios,Crystal City,91.08,,,,,Single-ply,SBD,M
Boys,99.79,DQ,Salome Galindo,Dilley,97.89,,,,,Single-ply,SBD,M
Boys,99.79,DQ,George Peno,Northside Holmes,94.8,,,,,Single-ply,SBD,M
Boys,99.79,DQ,Juan DeLeon,San Antonio Southside,92.62,,,,,Single-ply,SBD,M
Boys,124.74,1,Josh Morales,Pleasanton,109.95,249.48,147.42,238.14,635.03,Single-ply,SBD,M
Boys,109.77,2,Russell Lualemaga,Uvalde,106.32,226.8,120.2,219.99,566.99,Single-ply,SBD,M
Boys,109.77,3,Luke Briscou,Devine,105.32,210.92,131.54,197.31,539.77,Single-ply,SBD,M
Boys,109.77,4,Rene Marin,Del Rio,104.05,201.85,136.08,181.44,519.36,Single-ply,SBD,M
Boys,109.77,5,Brodie Ruiz,Three Rivers,109.59,226.8,108.86,174.63,510.29,Single-ply,SBD,M
Boys,109.77,6,George Brooks,Lytle,103.33,181.44,113.4,188.24,483.08,Single-ply,SBD,M
Boys,109.77,7,Ian Coleman,Universal City Randolph,100.97,204.12,111.13,158.76,474,Single-ply,SBD,M
Boys,109.77,8,Xavier Spurlock,Rocksprings,102.87,179.17,120.2,163.29,462.66,Single-ply,SBD,M
Boys,109.77,9,Liam Murphy,Universal City Randolph,107.95,190.51,104.33,163.29,458.13,Single-ply,SBD,M
Boys,109.77,10,Roland Bautsita,Lytle,102.69,147.42,99.79,172.37,419.57,Single-ply,SBD,M
Boys,109.77,11,Adrian Contreas,Poteet,105.6,147.42,88.45,181.44,417.3,Single-ply,SBD,M
Boys,109.77,12,Frank Hernandez,Pleasanton,102.51,138.35,81.65,158.76,378.75,Single-ply,SBD,M
Boys,109.77,DQ,Zac Brooks,Pleasanton,107.32,,,,,Single-ply,SBD,M
Boys,109.77,DQ,Cole Callaway,Universal City Randolph,103.51,172.37,129.27,,,Single-ply,SBD,M
Boys,124.74,1,Vincent Lee,Northside Holmes,119.84,317.51,158.76,204.12,680.39,Single-ply,SBD,M
Boys,124.74,2,Joey Guzman,Del Rio,121.38,240.4,156.49,240.4,637.3,Single-ply,SBD,M
Boys,124.74,3,Gus Zavala,Del Rio,119.75,208.65,147.42,199.58,555.65,Single-ply,SBD,M
Boys,124.74,4,Leo Rodriguez,Northside Holmes,116.21,201.85,113.4,226.8,542.04,Single-ply,SBD,M
Boys,124.74,5,Gus Palacios,Kenedy,115.12,179.17,136.08,208.65,523.9,Single-ply,SBD,M
Boys,124.74,6,Sean Pittman,Devine,117.03,188.24,136.08,188.24,512.56,Single-ply,SBD,M
Boys,124.74,7,Emmitt Spurlock,Rocksprings,113.85,195.04,131.54,181.44,508.02,Single-ply,SBD,M
Boys,124.74,8,Alejandro Maldanado,Uvalde,112.85,197.31,111.13,185.97,494.42,Single-ply,SBD,M
Boys,124.74,9,Raul Loza,Natalia,114.31,213.19,97.52,181.44,492.15,Single-ply,SBD,M
Boys,124.74,10,Alex Hernandez #19,Lytle,122.56,163.29,95.25,172.37,430.91,Single-ply,SBD,M
Boys,124.74,11,Alex Maldos,Rocksprings,115.76,163.29,102.06,142.88,408.23,Single-ply,SBD,M
Boys,124.74,12,Javier Paredes,Natalia,116.12,24.95,124.74,240.4,390.09,Single-ply,SBD,M
Boys,124.74,13,Gabriel Gonzales,Devine,114.03,129.27,68.04,136.08,333.39,Single-ply,SBD,M
Boys,124.74,14,Russell Ashmoore,Castroville Medina Valley,114.21,108.86,65.77,136.08,310.71,Single-ply,SBD,M
Boys,124.74+,1,Mark Menchaca,Uvalde,136.8,283.5,127.01,260.82,671.32,Single-ply,SBD,M
Boys,124.74+,2,Henry Zamora,Uvalde,129.27,281.23,142.88,240.4,664.51,Single-ply,SBD,M
Boys,124.74+,3,Nune Perez,Crystal City,135.35,263.08,142.88,226.8,632.76,Single-ply,SBD,M
Boys,124.74+,4,Kaleb Tichkausky,Three Rivers,126.01,249.48,161.03,215.46,625.96,Single-ply,SBD,M
Boys,124.74+,5,Nikyren Willington,Northside Holmes,134.81,238.14,122.47,226.8,587.4,Single-ply,SBD,M
Boys,124.74+,6,Darrel Senney,Del Rio,133.27,226.8,149.69,192.78,569.26,Single-ply,SBD,M
Boys,124.74+,7,Michael Reyes,Natalia,129.27,265.35,102.06,188.24,555.65,Single-ply,SBD,M
Boys,124.74+,8,Guy LaRue,Kenedy,146.42,204.12,117.93,213.19,535.24,Single-ply,SBD,M
Boys,124.74+,9,Coleton Morales,Pleasanton,133.99,226.8,117.93,181.44,526.17,Single-ply,SBD,M
Boys,124.74+,10,Cleto Garcia,Rocksprings,125.83,201.85,115.67,185.97,503.49,Single-ply,SBD,M
Boys,124.74+,11,Stevie Balderrama,Devine,133.08,176.9,129.27,195.04,501.22,Single-ply,SBD,M
Boys,124.74+,12,James Ximenez,Northside Holmes,130.63,185.97,92.99,183.7,462.66,Single-ply,SBD,M
Boys,124.74+,13,Eric Falcon,Northside Holmes,141.61,156.49,83.91,183.7,424.11,Single-ply,SBD,M
Boys,124.74+,14,Ricky Rodrigues,Charlotte,129.09,165.56,95.25,156.49,417.3,Single-ply,SBD,M
