Place,Name,CyrillicName,BirthYear,BodyweightKg,Best3SquatKg,Best3BenchKg,Best3DeadliftKg,TotalKg,WeightClassKg,Event,Equipment,Division,Sex,BirthDate
1,Vasilisa Bulatova,Василиса Булатова,2004,42.75,70,37.5,105,212.5,43,SBD,Raw,Sub-Juniors,F,
2,Valeriya Mitina,Валерия Митина,2006,42.35,75,37.5,80,192.5,43,SBD,Raw,Sub-Juniors,F,
3,Darya Gvozdeva,Дарья Гвоздева,2003,42.55,70,35,85,190,43,SBD,Raw,Sub-Juniors,F,
4,Marina Matrosova,Марина Матросова,2005,42.1,67.5,42.5,77.5,187.5,43,SBD,Raw,Sub-Juniors,F,
5,Ekaterina Shemakhanova,Екатерина Шемаханова,2005,42.55,62.5,37.5,75,175,43,SBD,Raw,Sub-Juniors,F,
6,Anna Elkova,Анна Елькова,2005,41.15,57.5,30,80,167.5,43,SBD,Raw,Sub-Juniors,F,
1,Polina Pavlova,Полина Павлова,2005,47,100,67.5,142.5,310,47,SBD,Raw,Sub-Juniors,F,
2,Alina Udaltsova,Алина Удальцова,2003,46.8,95,65,122.5,282.5,47,SBD,Raw,Sub-Juniors,F,
3,Anastasiya Reprintseva,Анастасия Репринцева,2002,46.85,95,57.5,127.5,280,47,SBD,Raw,Sub-Juniors,F,
4,Lyudmila Kuznetsova,Людмила Кузнецова,2005,46.8,105,57.5,115,277.5,47,SBD,Raw,Sub-Juniors,F,
5,Anzhelika Oboturova,Анжелика Оботурова,2003,47,90,65,87.5,242.5,47,SBD,Raw,Sub-Juniors,F,
6,Yana Menshikova,Яна Меньшикова,2004,47,80,40,95,215,47,SBD,Raw,Sub-Juniors,F,
7,Marina Nechaeva,Марина Нечаева,2003,45.15,62.5,35,77.5,175,47,SBD,Raw,Sub-Juniors,F,
1,Mariya Kurkova,Мария Куркова,2004,48.9,105,55,120,280,52,SBD,Raw,Sub-Juniors,F,
2,Mayya Filimonova,Майя Филимонова,2004,51.8,112.5,57.5,102.5,272.5,52,SBD,Raw,Sub-Juniors,F,
3,Eva Soboleva,Ева Соболева,2003,51.6,85,55,112.5,252.5,52,SBD,Raw,Sub-Juniors,F,
4,Ulyana Lepikhina,Ульяна Лепихина,2002,49,85,47.5,110,242.5,52,SBD,Raw,Sub-Juniors,F,
5,Arina Ovchinnikova,Арина Овчинникова,2002,51.5,85,45,107.5,237.5,52,SBD,Raw,Sub-Juniors,F,
6,Kseniya Golovina,Ксения Головина,2005,49.55,75,52.5,107.5,235,52,SBD,Raw,Sub-Juniors,F,
1,Anastasiya Obedkova,Анастасия Объедкова,2002,56,132.5,75,147.5,355,57,SBD,Raw,Sub-Juniors,F,
2,Arina Demidova,Арина Демидова,2003,55,120,95,130,345,57,SBD,Raw,Sub-Juniors,F,
3,Marina Syuzyova,Марина Сюзёва,2004,56.45,140,60,145,345,57,SBD,Raw,Sub-Juniors,F,
4,Kseniya Romanova,Ксения Романова,2003,56.95,110,60,140,310,57,SBD,Raw,Sub-Juniors,F,
5,Alina Shupranova,Алина Шупранова,2004,56.8,105,47.5,122.5,275,57,SBD,Raw,Sub-Juniors,F,
1,Darya Antonova,Дарья Антонова,2005,58.9,120,92.5,137.5,350,63,SBD,Raw,Sub-Juniors,F,
2,Veronika Dyakova,Вероника Дьякова,2004,61.7,105,75,125,305,63,SBD,Raw,Sub-Juniors,F,
3,Olga Toropitsina,Ольга Торопицина,2003,61.3,105,75,112.5,292.5,63,SBD,Raw,Sub-Juniors,F,
4,Valeriya Volkova,Валерия Волкова,2002,61.3,102.5,65,122.5,290,63,SBD,Raw,Sub-Juniors,F,
5,Anna Belskaya,Анна Бельская,2002,59.2,117.5,50,115,282.5,63,SBD,Raw,Sub-Juniors,F,
6,Kseniya Uryutina,Ксения Урютина,2005,60.2,80,62.5,125,267.5,63,SBD,Raw,Sub-Juniors,F,
7,Arina Levanidova,Арина Леванидова,2006,60.85,90,50,90,230,63,SBD,Raw,Sub-Juniors,F,
DQ,Anastasiya Tkachuk,Анастасия Ткачук,2003,66.55,,,,,72,SBD,Raw,Sub-Juniors,F,
1,Polina Vokhmyanina,Полина Вохмянина,2003,71.45,120,100,140,360,72,SBD,Raw,Sub-Juniors,F,
2,Diana Zamaldinova,Диана Замалдинова,2002,70.3,122.5,97.5,125,345,72,SBD,Raw,Sub-Juniors,F,
3,Valentina Kulikova,Валентина Куликова,2002,71,130,65,135,330,72,SBD,Raw,Sub-Juniors,F,
4,Vera Erpeleva,Вера Ерпелева,2002,66.85,100,45,132.5,277.5,72,SBD,Raw,Sub-Juniors,F,
DQ,Arina Drozdova,Арина Дроздова,2002,71.05,-110,,,,72,SBD,Raw,Sub-Juniors,F,
1,Viktoriya Volvenkina,Виктория Волвенкина,2003,72.2,130,72.5,150,352.5,84,SBD,Raw,Sub-Juniors,F,
2,Galina Polyakova,Галина Полякова,2003,83.95,130,80,140,350,84,SBD,Raw,Sub-Juniors,F,
3,Arina Shupenko,Арина Шупенко,2002,82.2,127.5,57.5,150,335,84,SBD,Raw,Sub-Juniors,F,
4,Darya Papina,Дарья Папина,2002,82.25,107.5,62.5,150,320,84,SBD,Raw,Sub-Juniors,F,
5,Angelina Zhuravleva,Ангелина Журавлева,2002,82.65,115,65,140,320,84,SBD,Raw,Sub-Juniors,F,
6,Tatyana Bykova,Татьяна Быкова,2005,83.4,115,72.5,120,307.5,84,SBD,Raw,Sub-Juniors,F,
7,Svetlana Chesnokova,Светлана Чеснокова,2003,72.5,117.5,60,117.5,295,84,SBD,Raw,Sub-Juniors,F,
8,Yana Grigoryan,Яна Григорян,2004,76.1,115,60,120,295,84,SBD,Raw,Sub-Juniors,F,
1,Anna Prikhodko,Анна Приходько,2002,126.1,170,87.5,170,427.5,84+,SBD,Raw,Sub-Juniors,F,
2,Apollinariya Golikova,Аполлинария Голикова,2004,84.5,100,65,115,280,84+,SBD,Raw,Sub-Juniors,F,
1,Matvey Popov,Матвей Попов,2002,52.25,125,87.5,155,367.5,53,SBD,Raw,Sub-Juniors,M,
2,Vasiliy Bocharov,Василий Бочаров,2005,52.25,127.5,82.5,140,350,53,SBD,Raw,Sub-Juniors,M,
3,Vlas Filkov,Влас Филков,2004,50.9,125,70,152.5,347.5,53,SBD,Raw,Sub-Juniors,M,
4,Dmitriy Smirnov,Дмитрий Смирнов,2004,53,115,77.5,150,342.5,53,SBD,Raw,Sub-Juniors,M,
5,Maksim Shironin,Максим Широнин,2003,52.1,115,77.5,140,332.5,53,SBD,Raw,Sub-Juniors,M,
6,Yaroslav Koreshkov,Ярослав Корешков,2003,52.9,122.5,75,130,327.5,53,SBD,Raw,Sub-Juniors,M,
DQ,Edmond Dumikyan,Эдмонд Думикян,2004,52.3,140,105,-150,,53,SBD,Raw,Sub-Juniors,M,
1,Ved Buryanovskiy,Вэд Бурьяновский,2006,57.95,165,100,185,450,59,SBD,Raw,Sub-Juniors,M,
2,Ivan Semenov,Иван Семенов,2002,58.55,170,100,170,440,59,SBD,Raw,Sub-Juniors,M,
3,Sergey Kondrashov,Сергей Кондрашов,2003,58.25,145,107.5,180,432.5,59,SBD,Raw,Sub-Juniors,M,
4,Yaroslav Elfimov,Ярослав Елфимов,2002,58.65,157.5,100,170,427.5,59,SBD,Raw,Sub-Juniors,M,
5,Sergey Ladyzhenskiy,Сергей Ладыженский,2003,58.2,137.5,102.5,185,425,59,SBD,Raw,Sub-Juniors,M,
6,Dmitriy Drobin,Дмитрий Дробин,2004,58.7,175,75,160,410,59,SBD,Raw,Sub-Juniors,M,
7,Yaroslav Rylnikov,Ярослав Рыльников,2002,58.75,145,85,155,385,59,SBD,Raw,Sub-Juniors,M,
1,Bogdan Darsaniya,Богдан Дарсания,2002,65.4,185,115,253,553,66,SBD,Raw,Sub-Juniors,M,
2,Denis Stolnikov,Денис Стольников,2002,65.4,197.5,150,205,552.5,66,SBD,Raw,Sub-Juniors,M,
3,Leonid Koval,Леонид Коваль,2003,65.6,190,105,200,495,66,SBD,Raw,Sub-Juniors,M,
4,Nikita Izotov,Никита Изотов,2002,63.8,170,122.5,190,482.5,66,SBD,Raw,Sub-Juniors,M,
5,Vladislav Ivanov,Владислав Иванов,2002,65.2,180,100,190,470,66,SBD,Raw,Sub-Juniors,M,
6,Ivan Grachyov,Иван Грачёв,2003,65.7,165,97.5,180,442.5,66,SBD,Raw,Sub-Juniors,M,
7,Arseniy Chizhevskiy,Арсений Чижевский,2003,64.95,165,100,175,440,66,SBD,Raw,Sub-Juniors,M,
8,Ivan Shevaldin,Иван Шевалдин,2002,64.95,142.5,102.5,180,425,66,SBD,Raw,Sub-Juniors,M,
1,Dmitriy Stepanov,Дмитрий Степанов,2002,70.6,227.5,130,232.5,590,74,SBD,Raw,Sub-Juniors,M,
2,Ivan Bondarev,Иван Бондарев,2002,73.5,195,132.5,222.5,550,74,SBD,Raw,Sub-Juniors,M,
3,Egor Burmistrov,Егор Бурмистров,2002,73.5,200,112.5,200,512.5,74,SBD,Raw,Sub-Juniors,M,
4,Eduard Valiulin,Эдуард Валиулин,2002,73.3,190,115,200,505,74,SBD,Raw,Sub-Juniors,M,
5,Konstantin Syrovoy,Константин Сыровой,2003,73.55,172.5,120,205,497.5,74,SBD,Raw,Sub-Juniors,M,
6,Danil Allashov,Данил Аллашов,2003,72.3,180,110,185,475,74,SBD,Raw,Sub-Juniors,M,
7,Kirill Stetsenko,Кирилл Стеценко,2002,72.45,145,100,160,405,74,SBD,Raw,Sub-Juniors,M,
DQ,Anton Grigorev,Антон Григорьев,2002,73.65,-180,,,,74,SBD,Raw,Sub-Juniors,M,
1,Anatoliy Bannov,Анатолий Баннов,2002,81.95,195,142.5,202.5,540,83,SBD,Raw,Sub-Juniors,M,
2,Aleksey Serikov,Алексей Сериков,2004,82.6,195,102.5,240,537.5,83,SBD,Raw,Sub-Juniors,M,
3,Leonid Zverevich,Леонид Зверевич,2003,81.35,205,107.5,220,532.5,83,SBD,Raw,Sub-Juniors,M,
4,Kirill Kravchuk,Кирилл Кравчук,2002,81.85,190,107.5,235,532.5,83,SBD,Raw,Sub-Juniors,M,
5,Ivan Istomin,Иван Истомин,2003,82.4,190,127.5,205,522.5,83,SBD,Raw,Sub-Juniors,M,
6,Maksim Babich,Максим Бабич,2002,80.9,170,102.5,172.5,445,83,SBD,Raw,Sub-Juniors,M,
7,Artem Melekhin,Артем Мелехин,2005,81.65,160,95,172.5,427.5,83,SBD,Raw,Sub-Juniors,M,
1,Danis Papikyan,Данис Папикян,2002,91.4,240,160,265,665,93,SBD,Raw,Sub-Juniors,M,
2,Nikita Petrov,Никита Петров,2003,87.6,210,150,240,600,93,SBD,Raw,Sub-Juniors,M,
3,Arslan Bochkaryov,Арслан Бочкарёв,2005,88.4,200,150,250,600,93,SBD,Raw,Sub-Juniors,M,
4,Artem Safronenko,Артем Сафроненко,2003,90.55,225,135,225,585,93,SBD,Raw,Sub-Juniors,M,
5,Daniil Prokopovich,Даниил Прокопович,2003,88.5,190,110,220,520,93,SBD,Raw,Sub-Juniors,M,
6,Dmitriy Kuklin,Дмитрий Куклин,2002,89.25,170,120,215,505,93,SBD,Raw,Sub-Juniors,M,
1,Aleksandr Okhezin,Александр Охезин,2002,102.95,225,175,225,625,105,SBD,Raw,Sub-Juniors,M,
2,Nikita Morozov,Никита Морозов,2002,103.45,207.5,155,262.5,625,105,SBD,Raw,Sub-Juniors,M,
3,Denis Terentev,Денис Терентьев,2002,104.25,232.5,140,250,622.5,105,SBD,Raw,Sub-Juniors,M,
4,Ivan Parshin,Иван Паршин,2003,100.6,250,115,252.5,617.5,105,SBD,Raw,Sub-Juniors,M,
5,Maksim Avdyakov,Максим Авдяков,2002,100.55,245,132.5,230,607.5,105,SBD,Raw,Sub-Juniors,M,
6,Ivan Moiseev #2,Иван Моисеев,2002,103.4,245,132.5,227.5,605,105,SBD,Raw,Sub-Juniors,M,
7,Daniil Karepanov,Даниил Карепанов,2002,100.8,200,137.5,230,567.5,105,SBD,Raw,Sub-Juniors,M,
8,Radmir Murtazin,Радмир Муртазин,2003,103.25,192.5,120,207.5,520,105,SBD,Raw,Sub-Juniors,M,
DQ,Ivan Panfilov,Иван Панфилов,2003,98.7,-240,,,,105,SBD,Raw,Sub-Juniors,M,
1,Sergey Volkov,Сергей Волков,2002,113.4,285,167.5,307.5,760,120,SBD,Raw,Sub-Juniors,M,
2,Artem Slonov,Артем Слонов,2003,112.65,237.5,132.5,237.5,607.5,120,SBD,Raw,Sub-Juniors,M,
3,Aleksey Bakhtin,Алексей Бахтин,2003,105.55,230,125,240,595,120,SBD,Raw,Sub-Juniors,M,
4,Semyon Sopin,Семён Сопин,2004,111.25,237.5,120,237.5,595,120,SBD,Raw,Sub-Juniors,M,
5,Ivan Eskov,Иван Еськов,2003,116.7,210,132.5,200,542.5,120,SBD,Raw,Sub-Juniors,M,
6,Vladislav Kuznetsov,Владислав Кузнецов,2002,119.3,177.5,127.5,200,505,120,SBD,Raw,Sub-Juniors,M,
1,Ivan Popov,Иван Попов,2002,127.55,215,155,230,600,120+,SBD,Raw,Sub-Juniors,M,
2,Yann Aleev,Янн Алеев,2003,121.1,200,135,202.5,537.5,120+,SBD,Raw,Sub-Juniors,M,
3,Artem Chekalov,Артем Чекалов,2005,126.65,220,130,180,530,120+,SBD,Raw,Sub-Juniors,M,
4,Ilya Mokhov,Илья Мохов,2002,120.5,165,137.5,200,502.5,120+,SBD,Raw,Sub-Juniors,M,
5,Ivan Pugovkin,Иван Пуговкин,2002,120.45,180,112.5,187.5,480,120+,SBD,Raw,Sub-Juniors,M,
6,Artem Valynov,Артем Валынов,2003,122.85,160,97.5,152.5,410,120+,SBD,Raw,Sub-Juniors,M,
1,Anastasiya Safina,Анастасия Сафина,2000,42.4,85,52.5,120,257.5,43,SBD,Raw,Juniors,F,
2,Anna Ganazhenko,Анна Ганаженко,1997,39.95,57.5,42.5,85,185,43,SBD,Raw,Juniors,F,
3,Yuliya Rudnik,Юлия Рудник,1999,42.75,60,35,87.5,182.5,43,SBD,Raw,Juniors,F,
4,Svetlana Popova,Светлана Попова,2001,42.55,55,35,82.5,172.5,43,SBD,Raw,Juniors,F,
1,Elmira Abdullaeva,Эльмира Абдуллаева,1998,46.6,107.5,62.5,127.5,297.5,47,SBD,Raw,Juniors,F,
2,Marina Ovsyannikova,Марина Овсянникова,1999,46.8,95,62.5,125,282.5,47,SBD,Raw,Juniors,F,
3,Kristina Oglezneva,Кристина Оглезнева,1997,45.6,105,50,115,270,47,SBD,Raw,Juniors,F,
4,Ekaterina Kruk,Екатерина Крук,2001,46.7,95,55,117.5,267.5,47,SBD,Raw,Juniors,F,
5,Inna Glukhova,Инна Глухова,2001,46.75,100,52.5,102.5,255,47,SBD,Raw,Juniors,F,
6,Arina Pochivalova,Арина Почивалова,2000,46.6,90,47.5,97.5,235,47,SBD,Raw,Juniors,F,
7,Anastasiya Linnikova,Анастасия Линникова,1999,46.1,75,45,100,220,47,SBD,Raw,Juniors,F,
1,Elizaveta Nikitina,Елизавета Никитина,2001,51.45,130,85,140,355,52,SBD,Raw,Juniors,F,
2,Valeriya Leshchyova,Валерия Лещёва,2000,52,117.5,100,115,332.5,52,SBD,Raw,Juniors,F,
3,Anastasiya Malysheva,Анастасия Малышева,2000,51.6,120,67.5,142.5,330,52,SBD,Raw,Juniors,F,
4,Valentina Khudyakova,Валентина Худякова,1998,51.4,112.5,72.5,127.5,312.5,52,SBD,Raw,Juniors,F,
5,Svetlana Verigina,Светлана Веригина,1999,51.35,102.5,75,125,302.5,52,SBD,Raw,Juniors,F,
6,Yuliya Ignatenko,Юлия Игнатенко,1999,51.4,112.5,57.5,112.5,282.5,52,SBD,Raw,Juniors,F,
7,Anna Ivanova #1,Анна Иванов,2001,51.45,97.5,65,117.5,280,52,SBD,Raw,Juniors,F,
8,Oksana Ilina,Оксана Ильина,1998,51.3,95,65,110,270,52,SBD,Raw,Juniors,F,
9,Kseniya Gultyaeva,Ксения Гультяева,1999,52,90,70,110,270,52,SBD,Raw,Juniors,F,
10,Elena Zolotukhina,Елена Золотухина,1999,51.05,97.5,62.5,105,265,52,SBD,Raw,Juniors,F,
11,Anastasiya Liseenkova,Анастасия Лисеенкова,2001,51.45,92.5,47.5,112.5,252.5,52,SBD,Raw,Juniors,F,
12,Aleksandra Silaeva,Александра Силаева,1998,51.45,87.5,50,115,252.5,52,SBD,Raw,Juniors,F,
13,Kira Abramova,Кира Абрамова,2000,50.85,90,52.5,92.5,235,52,SBD,Raw,Juniors,F,
1,Alena Zubova,Алена Зубова,1997,56.9,155,85,167.5,407.5,57,SBD,Raw,Juniors,F,
2,Ekaterina Nazarova,Екатерина Назарова,2000,56.5,137.5,90,152.5,380,57,SBD,Raw,Juniors,F,
3,Varvara Kozlova,Варвара Козлова,1998,56.9,145,85,145,375,57,SBD,Raw,Juniors,F,
4,Yuliya Surkova,Юлия Суркова,2001,56.75,135,70,145,350,57,SBD,Raw,Juniors,F,
5,Elizaveta Pechenkina,Елизавета Печенкина,2000,55.35,115,67.5,152.5,335,57,SBD,Raw,Juniors,F,
6,Olga Kulikova,Ольга Куликова,2000,55.85,112.5,82.5,127.5,322.5,57,SBD,Raw,Juniors,F,
7,Yuliya Povolotskaya,Юлия Поволоцкая,1997,57,125,65,130,320,57,SBD,Raw,Juniors,F,
8,Anastasiya Cherepanova,Анастасия Черепанова,1997,56.65,117.5,67.5,130,315,57,SBD,Raw,Juniors,F,
9,Alesya Petukhova,Алеся Петухова,1997,55.15,105,80,125,310,57,SBD,Raw,Juniors,F,
10,Alena Andreeva,Алена Андреева,1998,57,100,70,120,290,57,SBD,Raw,Juniors,F,
11,Kseniya Poluyakhtova,Ксения Полуяхтова,1997,54.5,100,60,115,275,57,SBD,Raw,Juniors,F,
1,Tatyana Yunusova,Татьяна Юнусова,1999,62.85,145,90,165,400,63,SBD,Raw,Juniors,F,
2,Darya Vorobeva,Дарья Воробьева,2001,62.15,160,80,157.5,397.5,63,SBD,Raw,Juniors,F,
3,Aliya Baymukhametova,Алия Баймухаметова,2000,62.3,135,80,142.5,357.5,63,SBD,Raw,Juniors,F,
4,Anastasiya Ivacheva,Анастасия Ивачева,2000,62.8,137.5,80,140,357.5,63,SBD,Raw,Juniors,F,
5,Antonina Tryapichnikova,Антонина Тряпичникова,1997,61.4,130,62.5,157.5,350,63,SBD,Raw,Juniors,F,
6,Katerina Malkova,Катерина Малкова,2000,62.75,132.5,80,137.5,350,63,SBD,Raw,Juniors,F,
7,Darya Salnikova,Дарья Сальникова,2000,62.5,127.5,77.5,135,340,63,SBD,Raw,Juniors,F,
8,Darya Minenko,Дарья Миненко,2000,59.7,125,62.5,140,327.5,63,SBD,Raw,Juniors,F,
9,Kseniya Demchinskaya,Ксения Демчинская,1997,62.85,115,75,127.5,317.5,63,SBD,Raw,Juniors,F,
10,Alina Dorofeeva,Алина Дорофеева,1997,62.9,115,57.5,140,312.5,63,SBD,Raw,Juniors,F,
11,Svetlana Makarova,Светлана Макарова,1999,62.45,110,62.5,127.5,300,63,SBD,Raw,Juniors,F,
12,Aleksandra Yarovaya,Александра Яровая,2000,62.65,100,50,115,265,63,SBD,Raw,Juniors,F,
1,Dinara Matyakubova,Динара Матякубова,1999,71.3,157.5,90,165,412.5,72,SBD,Raw,Juniors,F,
2,Anastasiya Eskova,Анастасия Еськова,1998,71.4,175.5,90,145,410.5,72,SBD,Raw,Juniors,F,
3,Yana Naseka,Яна Насека,1998,71.45,150,67.5,155,372.5,72,SBD,Raw,Juniors,F,
4,Valeriya Penevskaya,Валерия Пеньевская,1997,65.3,140,85,145,370,72,SBD,Raw,Juniors,F,
5,Kseniya Kubar,Ксения Кубарь,1999,70.2,127.5,90,140,357.5,72,SBD,Raw,Juniors,F,
6,Elizaveta Shestakova,Елизавета Шестакова,1999,70,90,57.5,132.5,280,72,SBD,Raw,Juniors,F,
1,Anna Teslina,Анна Теслина,1999,82.35,190,90,200,480,84,SBD,Raw,Juniors,F,
2,Anastasiya Minaeva,Анастасия Минаева,1998,83.45,172.5,102.5,165,440,84,SBD,Raw,Juniors,F,
3,Anna Vozmilova,Анна Возмилова,2001,83.4,162.5,95,157.5,415,84,SBD,Raw,Juniors,F,
4,Nadezhda Perova,Надежда Перова,2000,81.95,165,77.5,160,402.5,84,SBD,Raw,Juniors,F,
5,Olga Galskaya,Ольга Гальская,2001,82.1,140,95,150,385,84,SBD,Raw,Juniors,F,
6,Anna Shapshova,Анна Шапшова,2001,83.7,137.5,80,160,377.5,84,SBD,Raw,Juniors,F,
7,Elizaveta Ipatova,Елизавета Ипатова,2000,77.8,127.5,90,140,357.5,84,SBD,Raw,Juniors,F,
1,Olga Kuzmina,Ольга Кузьмина,2001,144.5,200,110,185,495,84+,SBD,Raw,Juniors,F,
2,Olesya Lukina,Олеся Лукина,1999,112.75,162.5,85,160,407.5,84+,SBD,Raw,Juniors,F,
3,Alina Nikolaenko,Алина Николаенко,1997,89.05,130,110,145,385,84+,SBD,Raw,Juniors,F,
4,Aleksandra Mishina,Александра Мишина,2000,100.95,110,65,107.5,282.5,84+,SBD,Raw,Juniors,F,
1,Boris Komissarov,Борис Комиссаров,1998,52.65,175,127.5,200,502.5,53,SBD,Raw,Juniors,M,
2,Shamil Gadimov,Шамиль Гадимов,2001,52.9,117.5,97.5,150,365,53,SBD,Raw,Juniors,M,
3,Nikita Nikiforov,Никита Никифоров,2001,52.6,120,90,125,335,53,SBD,Raw,Juniors,M,
DQ,Aleksey Ezhov,Алексей Ежов,1998,54.75,,,,,59,SBD,Raw,Juniors,M,
1,Nikita Ermolenko,Никита Ермоленко,1998,58.7,175,107.5,182.5,465,59,SBD,Raw,Juniors,M,
2,Maksim Aksaev,Максим Аксаев,2001,59,140,105,205,450,59,SBD,Raw,Juniors,M,
3,Vladimir Plekhov,Владимир Плехов,1997,58.9,150,107.5,190,447.5,59,SBD,Raw,Juniors,M,
1,Rusif Dzhabbarov,Русиф Джаббаров,1998,65.5,195,130,230,555,66,SBD,Raw,Juniors,M,
2,Egor Khutorov,Егор Хуторов,1999,65.8,190,145,212.5,547.5,66,SBD,Raw,Juniors,M,
3,Ilya Chashchin,Илья Чащин,1998,65.75,190,145,200,535,66,SBD,Raw,Juniors,M,
4,Daniil Nikiforov,Даниил Никифоров,1998,65.35,197.5,122.5,205,525,66,SBD,Raw,Juniors,M,
5,Artur Mansurov,Артур Мансуров,2001,65.95,190,122.5,192.5,505,66,SBD,Raw,Juniors,M,
6,Timofey Belous,Тимофей Белоус,2001,65.4,180,117.5,190,487.5,66,SBD,Raw,Juniors,M,
DQ,Sergey Bachylo,Сергей Бачыло,1997,65.05,205,115,-235,,66,SBD,Raw,Juniors,M,
DQ,Ilya Zhukov,Илья Жуков,1999,66,-170,,,,66,SBD,Raw,Juniors,M,
1,Aleksey Sergeenko,Алексей Сергеенко,1998,73.85,245,183.5,232.5,661,74,SBD,Raw,Juniors,M,
2,Gennadiy Buryanovskiy,Геннадий Бурьяновский,2001,72,210,155,250,615,74,SBD,Raw,Juniors,M,
3,Aleksey Popov,Алексей Попов,1999,73.05,207.5,132.5,232.5,572.5,74,SBD,Raw,Juniors,M,
4,Dmitriy Zalevskiy,Дмитрий Залевский,1997,73.75,195,142.5,235,572.5,74,SBD,Raw,Juniors,M,
5,Arsen Edaryan,Арсен Эдарян,2001,73.8,187.5,142.5,235,565,74,SBD,Raw,Juniors,M,
6,Evgeniy Shabanov,Евгений Шабанов,2001,73.5,190,145,225,560,74,SBD,Raw,Juniors,M,
7,Nikita Zaporozhets,Никита Запорожец,1998,73.65,195,140,225,560,74,SBD,Raw,Juniors,M,
8,Maksim Vyborov,Максим Выборов,1998,71.45,210,135,205,550,74,SBD,Raw,Juniors,M,
9,Sergey Bakin,Сергей Бакин,1998,73.15,190,130,220,540,74,SBD,Raw,Juniors,M,
10,Dmitriy Gulyaev,Дмитрий Гуляев,1997,73.7,185,155,200,540,74,SBD,Raw,Juniors,M,
11,Aleksandr Shapovalov,Александр Шаповалов,2001,73.75,190,120,190,500,74,SBD,Raw,Juniors,M,
12,Semyon Semukov,Семён Семуков,2001,73.9,182.5,112.5,192.5,487.5,74,SBD,Raw,Juniors,M,
13,Pavel Nekrasov,Павел Некрасов,2001,73.7,190,112.5,180,482.5,74,SBD,Raw,Juniors,M,
DQ,Sergey Komendantov,Сергей Комендантов,1999,73.5,197.5,-130,,,74,SBD,Raw,Juniors,M,
1,Robert Barsegyan,Роберт Барсегян,1998,81.45,242.5,182.5,287.5,712.5,83,SBD,Raw,Juniors,M,
2,Egor Khlebushchyov,Егор Хлебущёв,1997,82.5,250,187.5,275,712.5,83,SBD,Raw,Juniors,M,
3,Vladislav Filatov,Владислав Филатов,1997,82.7,225,165,245,635,83,SBD,Raw,Juniors,M,
4,Renat Tashbolotov,Ренат Ташболотов,1999,82.05,195,157.5,257.5,610,83,SBD,Raw,Juniors,M,
5,Svyatoslav Peterburgskiy,Святослав Петербургский,1998,82.25,210,152.5,247.5,610,83,SBD,Raw,Juniors,M,
6,Razmik Arakelyan,Размик Аракелян,1999,82.65,210,160,240,610,83,SBD,Raw,Juniors,M,
7,Stanislav Ryzhov,Станислав Рыжов,2000,82,205,160,225,590,83,SBD,Raw,Juniors,M,
8,Dmitriy Kozlov,Дмитрий Козлов,2001,77,195,125,210,530,83,SBD,Raw,Juniors,M,
DQ,Anton Butorin,Антон Буторин,1999,82.85,-195,,,,83,SBD,Raw,Juniors,M,
1,Denis Nenashev,Денис Ненашев,1998,92.65,290,200,285,775,93,SBD,Raw,Juniors,M,
2,Andrey Kononov,Андрей Кононов,1997,90.05,267.5,200,290,757.5,93,SBD,Raw,Juniors,M,
3,Nikita Efimov #1,Никита Ефимов,1997,92.5,250,177.5,280,707.5,93,SBD,Raw,Juniors,M,
4,Ilya Moshkin,Илья Мошкин,2000,92.3,250,180,250,680,93,SBD,Raw,Juniors,M,
5,Vadim Shabalkin,Вадим Шабалкин,1997,92.8,230,142.5,250,622.5,93,SBD,Raw,Juniors,M,
6,Dmitriy Pashigrev,Дмитрий Пашигрев,1998,88.05,202.5,140,210,552.5,93,SBD,Raw,Juniors,M,
DQ,Maksim Shcheglov,Максим Щеглов,1999,91.55,225,135,,,93,SBD,Raw,Juniors,M,
1,Aleksey Tilsh,Алексей Тильш,1998,103.9,272.5,167.5,307.5,747.5,105,SBD,Raw,Juniors,M,
2,Pavel Kostin,Павел Костин,1997,103.4,277.5,190,277.5,745,105,SBD,Raw,Juniors,M,
3,Mikhail Deryugin,Михаил Дерюгин,1998,101.75,270,182.5,275,727.5,105,SBD,Raw,Juniors,M,
4,Kirill Mogilnikov,Кирилл Могильников,1998,99.45,240,155,260,655,105,SBD,Raw,Juniors,M,
5,Pavel Leonov,Павел Леонов,1999,99.35,205,110,250,565,105,SBD,Raw,Juniors,M,
6,Ruslan Reutov,Руслан Реутов,2001,103.35,200,140,220,560,105,SBD,Raw,Juniors,M,
7,Artem Burdukovskiy,Артем Бурдуковский,2001,94.8,170,122.5,220,512.5,105,SBD,Raw,Juniors,M,
1,Mikhail Sakharov,Михаил Сахаров,1998,118,245,152.5,235,632.5,120,SBD,Raw,Juniors,M,
2,Mikhail Kulakov,Михаил Кулаков,1997,105.6,215,170,225,610,120,SBD,Raw,Juniors,M,
1,Bogdan Prokopev,Богдан Прокопьев,1998,126.8,335.5,195,302.5,833,120+,SBD,Raw,Juniors,M,
2,Aleksandr Sidorychev,Александр Сидорычев,2000,139,295,207.5,255,757.5,120+,SBD,Raw,Juniors,M,
3,Maksim Reshetnikov,Максим Решетников,1997,147.65,257.5,180,285,722.5,120+,SBD,Raw,Juniors,M,
4,Ruslan Dorogin,Руслан Дорогин,1998,150.7,290,192.5,240,722.5,120+,SBD,Raw,Juniors,M,
