Place,WeightClassKg,Sex,Event,Equipment,Tested,Name,Division,BirthDate,BodyweightKg,Squat1Kg,Squat2Kg,Squat3Kg,Best3SquatKg,Bench1Kg,Bench2Kg,Bench3Kg,Best3BenchKg,Deadlift1Kg,Deadlift2Kg,Deadlift3Kg,Best3DeadliftKg,TotalKg,Country
1,48,F,SBD,Wraps,Yes,Anastasiya Zakharchenko,Teen 16-17,1999-10-06,46.4,-95,-95,95,95,37.5,40,-42.5,40,-110,112.5,115,115,250,Ukraine
1,48,F,SBD,Wraps,Yes,Olga Klishta,Open,1989-09-12,47,80,-85,85,85,42.5,-45,-45,42.5,85,87.5,90,90,217.5,Ukraine
1,56,F,SBD,Wraps,Yes,Anastasiya Voshenko,Juniors 20-23,1995-07-25,55.05,90,-100,-100,90,60,-65,-65,60,100,110,-120,110,260,Ukraine
1,60,F,SBD,Wraps,Yes,Bogdana Chernenko,Teen 16-17,1998-10-02,58.8,-80,80,-90,80,40,-45,-45,40,90,-100,105,105,225,Ukraine
1,60,F,SBD,Wraps,Yes,Marina Tekuchova,Juniors 20-23,1994-04-30,58.95,95,105,107.5,107.5,57.5,-60,-60,57.5,90,97.5,,97.5,262.5,Ukraine
1,60,M,SBD,Wraps,Yes,Dmitro Pirnach,Teen 16-17,1998-11-01,59.8,150,-155,155,155,90,95,-100,95,150,155,160,160,410,Ukraine
1,67.5,M,SBD,Wraps,Yes,Pavlo Pidobid,Teen 16-17,2000-04-13,64.65,117.5,122.5,127.5,127.5,75,77.5,-80,77.5,110,120,127.5,127.5,332.5,Ukraine
1,67.5,M,SBD,Wraps,Yes,Andriy Stonoga,Teen 18-19,1996-12-07,66.35,-140,140,-145,140,90,95,97.5,97.5,145,-150,,145,382.5,Ukraine
1,67.5,M,SBD,Wraps,Yes,Oleksandr Onischenko #2,Juniors 20-23,1996-03-05,66.95,130,137.5,140,140,85,90,-92.5,90,145,150,155,155,385,Ukraine
1,75,M,SBD,Wraps,Yes,Ioannis Stratakis,Open,1990-12-20,74.75,-170,170,-177.5,170,110,120,127.5,127.5,220,235,-237.5,235,532.5,Greece
1,82.5,M,SBD,Wraps,Yes,Maksim Korchuk,Juniors 20-23,1995-06-30,80.85,190,205,-220,205,115,125,135,135,215,230,242.5,242.5,582.5,Ukraine
1,82.5,M,SBD,Wraps,Yes,Oleg Lytovchenko,Open,1987-12-01,79.75,200,230,240,240,160,170,-175,170,210,230,240,240,650,Ukraine
1,82.5,M,SBD,Wraps,Yes,Sergiy Novatskiy,Masters 55-59,1957-10-31,80.25,175,180,-185,180,-120,-122.5,122.5,122.5,175,-180,-180,175,477.5,Ukraine
1,90,M,SBD,Wraps,Yes,Gennadiy Ostrovskiy,Masters 50-54,1965-01-08,85,165,-182.5,-185,165,115,-122.5,122.5,122.5,180,190,200,200,487.5,Ukraine
DQ,90,M,SBD,Wraps,Yes,Viktor Borinets,Open,1989-07-15,85.1,-190,-190,-190,,,,,,,,,,,Ukraine
1,100,M,SBD,Wraps,Yes,Dimitrios Rallis,Open,1988-09-14,99.55,250,-260,-265,250,150,155,-160,155,290,-300,300,300,705,Greece
2,100,M,SBD,Wraps,Yes,Dmytro Chumash,Open,1980-09-06,99.25,230,245,-250,245,140,150,-157.5,150,220,240,-250,240,635,Ukraine
1,110,M,SBD,Wraps,Yes,Igor Zaychuk,Open,1989-12-02,103.9,230,250,-260,250,175,190,-192.5,190,290,-300,-300,290,730,Ukraine
2,110,M,SBD,Wraps,Yes,Volodymyr Lebedev #2,Open,1961-05-20,107.2,-220,220,-240,220,125,135,140,140,225,240,-255,240,600,Ukraine
1,110,M,SBD,Wraps,Yes,Volodymyr Lebedev #2,Masters 50-54,1961-05-20,107.2,-220,220,-240,220,125,135,140,140,225,240,-255,240,600,Ukraine
1,125,M,SBD,Wraps,Yes,Grigoriy Barannik,Open,1990-05-09,120.3,-200,200,-215,200,130,137.5,-142.5,137.5,-220,235,-240,235,572.5,Ukraine
DQ,125,M,SBD,Wraps,Yes,Mykyta Eyrushevich,Open,1989-06-30,115.35,-245,-250,-250,,,,,,,,,,,Ukraine
1,100,M,SBD,Raw,Yes,Viktor Stefanov,Masters 65-69,1948-11-02,98.7,155,165,-172.5,165,95,100,107.5,107.5,145,155,165,165,437.5,Ukraine
1,82.5,M,SBD,Wraps,No,Oleksandr Voschenko,Juniors 20-23,1994-09-10,78.95,120,140,-160,140,-70,70,-90,70,140,160,-180,160,370,Ukraine
1,90,M,SBD,Wraps,No,Yaroslav Litvinenko,Open,1976-11-10,89.3,-250,-250,250,250,150,-157.5,,150,260,270,,270,670,Ukraine
1,100,M,SBD,Wraps,No,Sergiy Asadchiy,Juniors 20-23,1992-11-16,95.35,-230,245,260,260,135,145,155,155,205,220,235,235,650,Ukraine
1,100,M,SBD,Wraps,No,Viktor Rublyov,Open,1975-10-26,98.8,-240,-240,240,240,170,-180,180,180,240,-255,-255,240,660,Ukraine
1,100,M,SBD,Wraps,No,Viktor Rublyov,Masters 40-44,1975-10-26,98.8,-240,-240,240,240,170,-180,180,180,240,-255,-255,240,660,Ukraine
1,110,M,SBD,Wraps,No,Oleksandr Chernish,Open,1988-12-27,109.1,300,310,320,320,200,-215,-215,200,-290,300,307.5,307.5,827.5,Ukraine
1,82.5,M,SBD,Raw,No,Argyris Katsoulas,Masters 40-44,1973-10-31,81,-160,160,-170,160,140,-147.5,-147.5,140,195,-205,-205,195,495,Greece
1,48,F,B,Raw,Yes,Anna Tarasenko,Open,1989-02-16,48,,,,,52.5,57.5,-60,57.5,,,,,57.5,Ukraine
2,48,F,B,Raw,Yes,Olesya Bolmot,Open,1983-01-17,45.7,,,,,30,37.5,-42.5,37.5,,,,,37.5,Ukraine
1,56,F,B,Raw,Yes,Diana Ostapenko,Teen 18-19,1998-03-14,55.65,,,,,35,40,-47.5,40,,,,,40,Ukraine
1,56,F,B,Raw,Yes,Iryna Stoetska,Open,1991-05-25,53.75,,,,,50,55,-57.5,55,,,,,55,Ukraine
1,56,F,B,Raw,Yes,Olena Lysenko,Masters 40-44,1975-07-19,53.65,,,,,70,75,-77.5,75,,,,,75,Ukraine
1,67.5,F,B,Raw,Yes,Irina Koropets,Open,1981-08-21,67,,,,,-70,72.5,-75,72.5,,,,,72.5,Ukraine
2,67.5,F,B,Raw,Yes,Darya Kalashnikova,Open,1987-12-28,62.5,,,,,47.5,-50,-50,47.5,,,,,47.5,Ukraine
1,67.5,F,B,Raw,Yes,Yuliya Nikitina,Masters 40-44,1973-12-28,66.65,,,,,47.5,-50,50,50,,,,,50,Ukraine
1,52,M,B,Raw,Yes,Vladislav Tsivyna,Youth,2004-03-14,42.6,,,,,35,40,42.5,42.5,,,,,42.5,Ukraine
1,52,M,B,Raw,Yes,Vladislav Tsivyna,Open,2004-03-14,42.6,,,,,35,40,42.5,42.5,,,,,42.5,Ukraine
1,56,M,B,Raw,Yes,Vladislav Bondarenko,Teen 16-17,1999-07-25,52.75,,,,,90,95,-100,95,,,,,95,Ukraine
1,67.5,M,B,Raw,Yes,Andriy Stonoga,Teen 18-19,1996-12-07,66.35,,,,,90,95,97.5,97.5,,,,,97.5,Ukraine
1,67.5,M,B,Raw,Yes,Dmytro Mazur,Masters 40-44,1972-11-07,65.55,,,,,90,-100,-100,90,,,,,90,Ukraine
1,75,M,B,Raw,Yes,Igor Shulga,Teen 16-17,1999-06-10,71.6,,,,,-85,85,90,90,,,,,90,Ukraine
1,75,M,B,Raw,Yes,Sviatoslav Khoroshun,Teen 18-19,1997-09-01,73.7,,,,,125,-135,135,135,,,,,135,Ukraine
1,75,M,B,Raw,Yes,Oleg Litvinenko,Juniors 20-23,1995-03-25,72.9,,,,,95,105,,105,,,,,105,Ukraine
1,82.5,M,B,Raw,Yes,Danil Nesin,Juniors 20-23,1995-02-10,80.5,,,,,152.5,-157.5,160,160,,,,,160,Ukraine
2,82.5,M,B,Raw,Yes,Maksim Guzinov,Juniors 20-23,1994-07-24,78.5,,,,,140,145,-150,145,,,,,145,Ukraine
3,82.5,M,B,Raw,Yes,Eugene Krivenda,Juniors 20-23,1994-01-10,79.1,,,,,135,145,-150,145,,,,,145,Ukraine
4,82.5,M,B,Raw,Yes,Oleg Lungol,Juniors 20-23,1993-04-11,81.3,,,,,130,-137.5,137.5,137.5,,,,,137.5,Ukraine
1,82.5,M,B,Raw,Yes,Oleg Lytovchenko,Open,1987-12-01,79.75,,,,,160,170,-175,170,,,,,170,Ukraine
2,82.5,M,B,Raw,Yes,Danil Nesin,Open,1995-02-10,80.5,,,,,152.5,-157.5,160,160,,,,,160,Ukraine
1,82.5,M,B,Raw,Yes,Volodimir Galeta,Masters 50-54,1964-01-11,81.15,,,,,95,-100,-100,95,,,,,95,Ukraine
1,90,M,B,Raw,Yes,Oleksandr Kryachok,Teen 18-19,1996-06-06,85.15,,,,,115,-125,-125,115,,,,,115,Ukraine
1,90,M,B,Raw,Yes,Vladislav Skurativskiy,Juniors 20-23,1993-10-23,88,,,,,152.5,155,-157.5,155,,,,,155,Ukraine
2,90,M,B,Raw,Yes,Ivan Tiutiunnik,Juniors 20-23,1995-07-07,89.25,,,,,-130,130,135,135,,,,,135,Ukraine
1,90,M,B,Raw,Yes,Aleksandr Kovalenko,Open,1991-09-06,86.15,,,,,202.5,207.5,-210,207.5,,,,,207.5,Ukraine
2,90,M,B,Raw,Yes,Vyacheslav Zgurovskyy,Open,1985-06-28,90,,,,,165,170,175,175,,,,,175,Ukraine
3,90,M,B,Raw,Yes,Viktor Borinets,Open,1989-07-15,85.1,,,,,147.5,152.5,-157.5,152.5,,,,,152.5,Ukraine
4,90,M,B,Raw,Yes,Vyachaslav Roganov,Open,1983-12-18,88.15,,,,,132.5,140,152.5,152.5,,,,,152.5,Ukraine
1,90,M,B,Raw,Yes,Oleksandr Koliadynskiy,Masters 45-49,1969-01-28,88.1,,,,,150,160,170,170,,,,,170,Ukraine
1,90,M,B,Raw,Yes,Valeri Palka,Masters 55-59,1961-01-01,84.25,,,,,100,110,-115,110,,,,,110,Ukraine
DQ,90,M,B,Raw,Yes,Ruslan Kupenko,Open,1988-04-11,84.95,,,,,-152.5,-152.5,-152.5,,,,,,,Ukraine
DQ,90,M,B,Raw,Yes,Oleg Sukhno,Open,1976-12-01,88.2,,,,,-175,-175,-175,,,,,,,Ukraine
DQ,90,M,B,Raw,Yes,Ruslan Abbasov,Masters 40-44,1974-07-07,88.35,,,,,-145,-152.5,-152.5,,,,,,,Ukraine
1,100,M,B,Raw,Yes,Anton Orlov,Juniors 20-23,1993-03-22,98.3,,,,,135,-137.5,-137.5,135,,,,,135,Ukraine
1,100,M,B,Raw,Yes,Sergiy Petraschuk,Open,1982-07-12,95.25,,,,,185,-200,-200,185,,,,,185,Ukraine
2,100,M,B,Raw,Yes,Dimitrios Rallis,Open,1988-09-14,99.55,,,,,150,155,-160,155,,,,,155,Greece
1,100,M,B,Raw,Yes,Mikola Grigorovich,Masters 45-49,1969-12-22,93.75,,,,,110,117.5,-122.5,117.5,,,,,117.5,Ukraine
1,100,M,B,Raw,Yes,Vitaliy Filonenko,Masters 50-54,1964-05-18,94.95,,,,,120,-127.5,127.5,127.5,,,,,127.5,Ukraine
1,100,M,B,Raw,Yes,Viktor Stefanov,Masters 65-69,1948-11-02,98.7,,,,,95,100,107.5,107.5,,,,,107.5,Ukraine
1,110,M,B,Raw,Yes,Oleksandr Tertichniy,Open,1968-10-30,108.25,,,,,185,192.5,197.5,197.5,,,,,197.5,Ukraine
2,110,M,B,Raw,Yes,Igor Zaychuk,Open,1989-12-02,103.9,,,,,175,190,-192.5,190,,,,,190,Ukraine
1,110,M,B,Raw,Yes,Oleksandr Tertichniy,Masters 45-49,1968-10-30,108.25,,,,,185,192.5,197.5,197.5,,,,,197.5,Ukraine
2,110,M,B,Raw,Yes,Anatoliy Tiroshko,Masters 45-49,1966-08-24,107.7,,,,,145,147.5,150,150,,,,,150,Ukraine
1,125,M,B,Raw,Yes,Denis Alekseenko,Juniors 20-23,1993-08-15,116.45,,,,,115,125,-130,125,,,,,125,Ukraine
1,125,M,B,Raw,Yes,Denis Alekseenko,Open,1993-08-15,116.45,,,,,115,125,-130,125,,,,,125,Ukraine
1,125,M,B,Raw,Yes,Andriy Bodrov,Masters 40-44,1975-10-10,116.05,,,,,140,152.5,-160,152.5,,,,,152.5,Ukraine
1,75,F,B,Raw,No,Alvina Ganziliy,Juniors 20-23,1994-03-06,72,,,,,50,55,-55.7,55,,,,,55,Ukraine
1,90,M,B,Raw,No,Alexandr Repyanchin,Teen 16-17,1998-11-03,87.05,,,,,127.5,132.5,137.5,137.5,,,,,137.5,Ukraine
1,90,M,B,Raw,No,Maksym Ielskiy,Open,1985-08-22,88.8,,,,,190,202.5,205,205,,,,,205,Ukraine
1,90,M,B,Raw,No,Rostyslav Bondarenko,Masters 40-44,1972-07-21,86.75,,,,,-170,170,-180,170,,,,,170,Ukraine
1,100,M,B,Raw,No,Artem Pedorenko,Teen 18-19,1997-07-06,99.85,,,,,150,160,-170,160,,,,,160,Ukraine
1,100,M,B,Raw,No,Ruslan Sidorenko,Open,1987-07-06,98.55,,,,,200,-207.5,-207.5,200,,,,,200,Ukraine
1,100,M,B,Raw,No,Oleg Shadrov,Masters 45-49,1967-03-04,95.65,,,,,-130,130,137.5,137.5,,,,,137.5,Ukraine
1,100,M,B,Raw,No,Petro Likhatskiy,Masters 60-64,1953-12-09,92.1,,,,,140,145,150,150,,,,,150,Ukraine
1,100,M,B,Raw,No,Oleksiy Krivchikov,Masters 65-69,1948-07-19,93.5,,,,,110,120,-125,120,,,,,120,Ukraine
1,110,M,B,Raw,No,Artem Tkachenko,Open,1991-10-05,101.6,,,,,210,220,230,230,,,,,230,Ukraine
2,110,M,B,Raw,No,Oleksandr Chernish,Open,1988-12-27,109.1,,,,,200,-215,-215,200,,,,,200,Ukraine
1,125,M,B,Raw,No,Vladislav Zdrachuk,Teen 18-19,1996-05-14,115.1,,,,,-175,-175,175,175,,,,,175,Ukraine
1,125,M,B,Raw,No,Vladislav Zdrachuk,Open,1996-05-14,115.1,,,,,-175,-175,175,175,,,,,175,Ukraine
1,56,M,B,Multi-ply,No,Vladislav Bondarenko,Teen 16-17,1999-07-25,52.75,,,,,95,-105,-105,95,,,,,95,Ukraine
1,67.5,M,B,Multi-ply,No,Dmitro Bodrov,Teen 13-15,2000-10-27,66.25,,,,,60,-70,-70,60,,,,,60,Ukraine
1,75,M,B,Multi-ply,No,Yuriy Dibrivka,Teen 16-17,,71.1,,,,,90,105,115,115,,,,,115,Ukraine
1,90,M,B,Multi-ply,No,Rostyslav Bondarenko,Masters 40-44,1972-07-21,86.75,,,,,210,225,-240,225,,,,,225,Ukraine
1,100,M,B,Multi-ply,No,Maksim Kovalenko,Open,1980-03-23,94.45,,,,,160,170,-180,170,,,,,170,Ukraine
1,125,M,B,Multi-ply,No,Andriy Bodrov,Masters 40-44,1975-10-10,116.05,,,,,-170,170,-180,170,,,,,170,Ukraine
1,44,F,D,Raw,Yes,Teteana Korostel,Youth,2007-01-07,25.1,,,,,,,,,32.5,42.5,45,45,45,Ukraine
1,48,F,D,Raw,Yes,Darya Mikhaylova,Teen 18-19,1996-04-27,47.55,,,,,,,,,90,100,-110,100,100,Ukraine
1,52,F,D,Raw,Yes,Iryna Korostel,Open,1979-01-09,52,,,,,,,,,85,102.5,,102.5,102.5,Ukraine
1,60,F,D,Raw,Yes,Taїsiya Zhuravlova,Teen 16-17,1998-10-21,59.2,,,,,,,,,70,80,-90,80,80,Ukraine
1,56,M,D,Raw,Yes,Viktor Smychuk,Juniors 20-23,1994-11-03,55.85,,,,,,,,,160,172.5,-175,172.5,172.5,Ukraine
1,67.5,M,D,Raw,Yes,Andriy Stonoga,Teen 18-19,1996-12-07,66.35,,,,,,,,,145,-150,,145,145,Ukraine
1,75,M,D,Raw,Yes,Evgeniy Kalko,Juniors 20-23,1993-03-22,75,,,,,,,,,235,240,245,245,245,Ukraine
2,75,M,D,Raw,Yes,Oleg Litvinenko,Juniors 20-23,1995-03-25,72.9,,,,,,,,,207.5,215,-217.5,215,215,Ukraine
1,75,M,D,Raw,Yes,Evgeniy Kalko,Open,1993-03-22,75,,,,,,,,,235,240,245,245,245,Ukraine
2,75,M,D,Raw,Yes,Ioannis Stratakis,Open,1990-12-20,74.75,,,,,,,,,220,235,-237.5,235,235,Greece
3,75,M,D,Raw,Yes,Oleg Litvinenko,Open,1995-03-25,72.9,,,,,,,,,207.5,215,-217.5,215,215,Ukraine
1,82.5,M,D,Raw,Yes,Maksim Korchuk,Juniors 20-23,1995-06-30,80.85,,,,,,,,,215,230,242.5,242.5,242.5,Ukraine
1,82.5,M,D,Raw,Yes,Oleg Lytovchenko,Open,1987-12-01,79.75,,,,,,,,,210,230,240,240,240,Ukraine
1,82.5,M,D,Raw,Yes,Volodimir Galeta,Masters 50-54,1964-01-11,81.15,,,,,,,,,150,-160,,150,150,Ukraine
1,90,M,D,Raw,Yes,Dmytro Horopakha,Juniors 20-23,1992-06-13,89.6,,,,,,,,,220,230,-240,230,230,Ukraine
1,90,M,D,Raw,Yes,Oleksandr Kryachok,Teen 18-19,1996-06-06,85.15,,,,,,,,,195,-215,-215,195,195,Ukraine
DQ,90,M,D,Raw,Yes,Volodimir Meshkov,Open,1982-05-03,89.9,,,,,,,,,-232.5,-232.5,,-232.5,,Ukraine
1,100,M,D,Raw,Yes,Dimitrios Rallis,Open,1988-09-14,99.55,,,,,,,,,290,-300,300,300,300,Greece
1,100,M,D,Raw,Yes,Vitaliy Filonenko,Masters 50-54,1964-05-18,94.95,,,,,,,,,150,160,170,170,170,Ukraine
1,100,M,D,Raw,Yes,Viktor Stefanov,Masters 65-69,1948-11-02,98.7,,,,,,,,,145,155,165,165,165,Ukraine
1,110,M,D,Raw,Yes,Igor Zaychuk,Open,1989-12-02,103.9,,,,,,,,,290,-300,-300,290,290,Ukraine
1,125,M,D,Raw,Yes,Denis Alekseenko,Juniors 20-23,1993-08-15,116.45,,,,,,,,,140,160,-180,160,160,Ukraine
1,125,M,D,Raw,Yes,Mykyta Eyrushevich,Open,1989-06-30,115.35,,,,,,,,,-255,270,-280,270,270,Ukraine
2,125,M,D,Raw,Yes,Denis Alekseenko,Open,1993-08-15,116.45,,,,,,,,,140,160,-180,160,160,Ukraine
1,110,M,D,Multi-ply,No,Oleksandr Bayda,Open,1982-04-17,106,,,,,,,,,290,300,-312.5,300,300,Ukraine
1,67.5,M,D,Raw,No,Ihor Hamarnik,Open,1988-08-20,66.6,,,,,,,,,190,200,-220,200,200,Ukraine
1,82.5,M,D,Raw,No,Argyris Katsoulas,Masters 40-44,1973-10-31,81,,,,,,,,,195,-205,-205,195,195,Greece
1,100,M,D,Raw,No,Oleg Ovsyanik,Open,1991-02-25,98.55,,,,,,,,,270,-285,-285,270,270,Ukraine
1,110,M,D,Raw,No,Oleksandr Chernish,Open,1988-12-27,109.1,,,,,,,,,-290,300,307.5,307.5,307.5,Ukraine
